<svg xmlns="http://www.w3.org/2000/svg" viewBox="0 0 48 48">
  <path fill="black" d="M40.26 7.74a23 23 0 100 32.53 22.93 22.93 0 000-32.53zm-2.92 26.78l-2.07-2.07-2.83 2.83 2.07 2.07a17 17 0 01-21 0l2.07-2.07-2.83-2.83-2.07 2.07a17 17 0 010-21l2 2 2.83-2.83-2-2a17 17 0 0121 0l-2 2 2.83 2.83 2-2a17 17 0 010 21z"/>
  <path fill="black" d="M29.7 15.48l-2.37 2.37a7 7 0 00-6.66 0l-2.37-2.37-2.82 2.82 2.37 2.37a7 7 0 000 6.66l-2.29 2.29 2.83 2.83 2.29-2.29a7 7 0 006.66 0l2.29 2.29 2.83-2.83-2.29-2.29a7 7 0 000-6.66l2.37-2.37zm-9.24 12.06A5 5 0 1124 29a5 5 0 01-3.54-1.46z"/>
</svg>