
{
  "title": "Bruce Campbell, Esq., Cayman Islands c.1966-78 (3rd version)",
  "nodes": [
   {"id": "947",
   "name": "Rahim Irvani",
   "type": "http://www.lombardinetworks.net/lombardi.owl#Person"},
  {"id": "946",
   "name": "Safeer - Atlanta -",
   "type": "http://www.lombardinetworks.net/lombardi.owl#Institution"},
  {"id": "945",
   "name": "NW Inds.",
   "type": "http://www.lombardinetworks.net/lombardi.owl#Institution"},
  {"id": "944",
   "name": "Iran Arab Bank",
   "type": "http://www.lombardinetworks.net/lombardi.owl#Institution"},
  {"id": "943",
   "name": "CCAH - Neth Ant -",
   "type": "http://www.lombardinetworks.net/lombardi.owl#Institution"},
  {"id": "942",
   "name": "Richard Helms dir CIA 1966-72",
   "type": "http://www.lombardinetworks.net/lombardi.owl#Person"},
  {"id": "941",
   "name": "Roy Carlson",
   "type": "http://www.lombardinetworks.net/lombardi.owl#Person"},
  {"id": "940",
   "name": "Bank of Amer. - SF -",
   "type": "http://www.lombardinetworks.net/lombardi.owl#Institution"},
  {"id": "939",
   "name": "Nat Bk of Georgia - Atlanta -",
   "type": "http://www.lombardinetworks.net/lombardi.owl#Institution"},
  {"id": "938",
   "name": "Samuel Armacost",
   "type": "http://www.lombardinetworks.net/lombardi.owl#Person"},
  {"id": "937",
   "name": "A.W. \"Tom\" Clausen",
   "type": "http://www.lombardinetworks.net/lombardi.owl#Person"},
  {"id": "936",
   "name": "Yves Lamarche",
   "type": "http://www.lombardinetworks.net/lombardi.owl#Person"},
  {"id": "935",
   "name": "BCCI S.A. - Luxembg -",
   "type": "http://www.lombardinetworks.net/lombardi.owl#Institution"},
  {"id": "934",
   "name": "Prince Mahmood of Iran",
   "type": "http://www.lombardinetworks.net/lombardi.owl#Person"},
  {"id": "933",
   "name": "BAII - Paris -",
   "type": "http://www.lombardinetworks.net/lombardi.owl#Institution"},
  {"id": "932",
   "name": "Ghaith Pharaon",
   "type": "http://www.lombardinetworks.net/lombardi.owl#Person"},
  {"id": "931",
   "name": "Bank of C'wealth - Detroit -",
   "type": "http://www.lombardinetworks.net/lombardi.owl#Institution"},
  {"id": "930",
   "name": "Redec - Riyadh -",
   "type": "http://www.lombardinetworks.net/lombardi.owl#Institution"},
  {"id": "929",
   "name": "Agha Hasan Abedi",
   "type": "http://www.lombardinetworks.net/lombardi.owl#Person"},
  {"id": "928",
   "name": "Swaleh Naqri",
   "type": "http://www.lombardinetworks.net/lombardi.owl#Person"},
  {"id": "927",
   "name": "Ajman Arab Bank",
   "type": "http://www.lombardinetworks.net/lombardi.owl#Institution"},
  {"id": "926",
   "name": "ICIC Caymans",
   "type": "http://www.lombardinetworks.net/lombardi.owl#Institution"},
  {"id": "925",
   "name": "Burt Lance",
   "type": "http://www.lombardinetworks.net/lombardi.owl#Person"},
  {"id": "924",
   "name": "1st Amer Bank Fin Gencorp - D.C. -",
   "type": "http://www.lombardinetworks.net/lombardi.owl#Institution"},
  {"id": "923",
   "name": "Clark Clifford sec Defense 1968-9",
   "type": "http://www.lombardinetworks.net/lombardi.owl#Person"},
  {"id": "922",
   "name": "Robert Altman",
   "type": "http://www.lombardinetworks.net/lombardi.owl#Person"},
  {"id": "921",
   "name": "Sen. Stuart Symington",
   "type": "http://www.lombardinetworks.net/lombardi.owl#Person"},
  {"id": "920",
   "name": "Gen. Elwood Quesada USAF (ret'd)",
   "type": "http://www.lombardinetworks.net/lombardi.owl#Person"},
  {"id": "919",
   "name": "Faisal al-Fulaij",
   "type": "http://www.lombardinetworks.net/lombardi.owl#Person"},
  {"id": "918",
   "name": "Sheik Kamal Adham",
   "type": "http://www.lombardinetworks.net/lombardi.owl#Person"},
  {"id": "917",
   "name": "Mohammed Hammoud",
   "type": "http://www.lombardinetworks.net/lombardi.owl#Person"},
  {"id": "916",
   "name": "Sheik Humaid of Ajman",
   "type": "http://www.lombardinetworks.net/lombardi.owl#Person"},
  {"id": "915",
   "name": "Bruce Campbell & Co. Caymans",
   "type": "http://www.lombardinetworks.net/lombardi.owl#Institution"},
  {"id": "914",
   "name": "Price Waterhouse",
   "type": "http://www.lombardinetworks.net/lombardi.owl#Institution"},
  {"id": "913",
   "name": "Ian Falconer",
   "type": "http://www.lombardinetworks.net/lombardi.owl#Person"},
  {"id": "912",
   "name": "Haydn Rufter",
   "type": "http://www.lombardinetworks.net/lombardi.owl#Person"},
  {"id": "911",
   "name": "Bruce Campbell",
   "type": "http://www.lombardinetworks.net/lombardi.owl#Person"},
  {"id": "910",
   "name": "Nugan Hand - Sydney -",
   "type": "http://www.lombardinetworks.net/lombardi.owl#Institution"},
  {"id": "909",
   "name": "Peter Kandiah",
   "type": "http://www.lombardinetworks.net/lombardi.owl#Person"},
  {"id": "908",
   "name": "Nk of Nova Scotia - Caymans -",
   "type": "http://www.lombardinetworks.net/lombardi.owl#Institution"},
  {"id": "907",
   "name": "Mercantile B&T - Nassau -",
   "type": "http://www.lombardinetworks.net/lombardi.owl#Institution"},
  {"id": "906",
   "name": "World Finance - Miami -",
   "type": "http://www.lombardinetworks.net/lombardi.owl#Institution"},
  {"id": "905",
   "name": "ESM Securities - Tampa -",
   "type": "http://www.lombardinetworks.net/lombardi.owl#Institution"},
  {"id": "904",
   "name": "Ronald Ewton",
   "type": "http://www.lombardinetworks.net/lombardi.owl#Person"},
  {"id": "903",
   "name": "Donald Beazley",
   "type": "http://www.lombardinetworks.net/lombardi.owl#Person"},
  {"id": "902",
   "name": "Guillermo Hernandez-Cartaya",
   "type": "http://www.lombardinetworks.net/lombardi.owl#Person"},
  {"id": "901",
   "name": "First Tenn",
   "type": "http://www.lombardinetworks.net/lombardi.owl#Institution"},
  {"id": "900",
   "name": "Moscow Narodny Bank",
   "type": "http://www.lombardinetworks.net/lombardi.owl#Institution"},
  {"id": "899",
   "name": "Walter S. Surrey ex-OSS",
   "type": "http://www.lombardinetworks.net/lombardi.owl#Person"},
  {"id": "898",
   "name": "Surrey & Morse - D.C. -",
   "type": "http://www.lombardinetworks.net/lombardi.owl#Institution"},
  {"id": "897",
   "name": "Randall Attkisson",
   "type": "http://www.lombardinetworks.net/lombardi.owl#Person"},
  {"id": "896",
   "name": "Frank Nugan",
   "type": "http://www.lombardinetworks.net/lombardi.owl#Person"},
  {"id": "895",
   "name": "William Colby dir CIA 1972-5",
   "type": "http://www.lombardinetworks.net/lombardi.owl#Person"},
  {"id": "894",
   "name": "Reid & Priest - NY -",
   "type": "http://www.lombardinetworks.net/lombardi.owl#Institution"},
  {"id": "893",
   "name": "London Cap Securities",
   "type": "http://www.lombardinetworks.net/lombardi.owl#Institution"},
  {"id": "892",
   "name": "John Stonehouse",
   "type": "http://www.lombardinetworks.net/lombardi.owl#Person"},
  {"id": "891",
   "name": "Bernie Houghton",
   "type": "http://www.lombardinetworks.net/lombardi.owl#Person"},
  {"id": "890",
   "name": "Michael Hand ex-CIA",
   "type": "http://www.lombardinetworks.net/lombardi.owl#Institution"},
  {"id": "889",
   "name": "Ocean Shores - Austral -",
   "type": "http://www.lombardinetworks.net/lombardi.owl#Institution"},
  {"id": "888",
   "name": "Int'l Bank - D.C. -",
   "type": "http://www.lombardinetworks.net/lombardi.owl#Institution"},
  {"id": "887",
   "name": "RNC acc'ts",
   "type": "http://www.lombardinetworks.net/lombardi.owl#Institution"},
  {"id": "886",
   "name": "E. Howard Hunt",
   "type": "http://www.lombardinetworks.net/lombardi.owl#Person"},
  {"id": "885",
   "name": "Gen. George Olmsted US Army (ret'd)",
   "type": "http://www.lombardinetworks.net/lombardi.owl#Person"},
  {"id": "884",
   "name": "Daniel K. Ludwig",
   "type": "http://www.lombardinetworks.net/lombardi.owl#Person"},
  {"id": "883",
   "name": "Castle B&T - Nassau -",
   "type": "http://www.lombardinetworks.net/lombardi.owl#Institution"},
  {"id": "882",
   "name": "Burton Kanter",
   "type": "http://www.lombardinetworks.net/lombardi.owl#Person"},
  {"id": "881",
   "name": "Paul Helliwell dir OSS ops in China",
   "type": "http://www.lombardinetworks.net/lombardi.owl#Person"},
  {"id": "880",
   "name": "1st Nat Bk Homestead - Fla -",
   "type": "http://www.lombardinetworks.net/lombardi.owl#Institution"},
  {"id": "879",
   "name": "1991: seized; net worth -$14 bil",
   "type": "http://www.lombardinetworks.net/lombardi.owl#FinalInfo"},
  {"id": "878",
   "name": "1977: bankrupt; net worth -$37 mil",
   "type": "http://www.lombardinetworks.net/lombardi.owl#FinalInfo"},
  {"id": "877",
   "name": "1977: bankrupt; net worth -$55 mil",
   "type": "http://www.lombardinetworks.net/lombardi.owl#FinalInfo"},
  {"id": "876",
   "name": "1991: collapsed; net worth -$200 mil",
   "type": "http://www.lombardinetworks.net/lombardi.owl#FinalInfo"},
  {"id": "875",
   "name": "1991: received $35 mil US gov't bailout",
   "type": "http://www.lombardinetworks.net/lombardi.owl#FinalInfo"},
  {"id": "874",
   "name": "1976: closed by gov't order",
   "type": "http://www.lombardinetworks.net/lombardi.owl#FinalInfo"},
  {"id": "873",
   "name": "1980: collapsed net worth -$50 mil",
   "type": "http://www.lombardinetworks.net/lombardi.owl#FinalInfo"},
  {"id": "872",
   "name": "1978: collapsed net worth -$35 mil",
   "type": "http://www.lombardinetworks.net/lombardi.owl#FinalInfo"},
  {"id": "871",
   "name": "1985: collapsed; net worth -$400 mil",
   "type": "http://www.lombardinetworks.net/lombardi.owl#FinalInfo"}

   ],
   "links": [
   {"source": "947",
   "target": "946",
   "amount": "",
   "type": "http://www.lombardinetworks.net/lombardi.owl#InfluenceControl"},
  {"source": "947",
   "target": "945",
   "amount": "",
   "type": "http://www.lombardinetworks.net/lombardi.owl#InfluenceControl"},
  {"source": "947",
   "target": "944",
   "amount": "",
   "type": "http://www.lombardinetworks.net/lombardi.owl#InfluenceControl"},
  {"source": "947",
   "target": "943",
   "amount": "",
   "type": "http://www.lombardinetworks.net/lombardi.owl#InfluenceControl"},
  {"source": "945",
   "target": "946",
   "amount": "",
   "type": "http://www.lombardinetworks.net/lombardi.owl#InfluenceControl"},
  {"source": "943",
   "target": "924",
   "amount": "",
   "type": "http://www.lombardinetworks.net/lombardi.owl#InfluenceControl"},
  {"source": "942",
   "target": "946",
   "amount": "",
   "type": "http://www.lombardinetworks.net/lombardi.owl#InfluenceControl"},
  {"source": "941",
   "target": "946",
   "amount": "",
   "type": "http://www.lombardinetworks.net/lombardi.owl#InfluenceControl"},
  {"source": "941",
   "target": "940",
   "amount": "",
   "type": "http://www.lombardinetworks.net/lombardi.owl#InfluenceControl"},
  {"source": "941",
   "target": "939",
   "amount": "",
   "type": "http://www.lombardinetworks.net/lombardi.owl#InfluenceControl"},
  {"source": "940",
   "target": "935",
   "amount": "",
   "type": "http://www.lombardinetworks.net/lombardi.owl#InfluenceControl"},
  {"source": "938",
   "target": "940",
   "amount": "",
   "type": "http://www.lombardinetworks.net/lombardi.owl#InfluenceControl"},
  {"source": "937",
   "target": "940",
   "amount": "",
   "type": "http://www.lombardinetworks.net/lombardi.owl#InfluenceControl"},
  {"source": "936",
   "target": "940",
   "amount": "",
   "type": "http://www.lombardinetworks.net/lombardi.owl#InfluenceControl"},
  {"source": "936",
   "target": "935",
   "amount": "",
   "type": "http://www.lombardinetworks.net/lombardi.owl#InfluenceControl"},
  {"source": "936",
   "target": "933",
   "amount": "",
   "type": "http://www.lombardinetworks.net/lombardi.owl#InfluenceControl"},
  {"source": "935",
   "target": "944",
   "amount": "",
   "type": "http://www.lombardinetworks.net/lombardi.owl#InfluenceControl"},
  {"source": "935",
   "target": "927",
   "amount": "",
   "type": "http://www.lombardinetworks.net/lombardi.owl#InfluenceControl"},
  {"source": "935",
   "target": "926",
   "amount": "",
   "type": "http://www.lombardinetworks.net/lombardi.owl#InfluenceControl"},
  {"source": "934",
   "target": "944",
   "amount": "",
   "type": "http://www.lombardinetworks.net/lombardi.owl#InfluenceControl"},
  {"source": "934",
   "target": "935",
   "amount": "",
   "type": "http://www.lombardinetworks.net/lombardi.owl#InfluenceControl"},
  {"source": "932",
   "target": "935",
   "amount": "",
   "type": "http://www.lombardinetworks.net/lombardi.owl#InfluenceControl"},
  {"source": "932",
   "target": "931",
   "amount": "",
   "type": "http://www.lombardinetworks.net/lombardi.owl#InfluenceControl"},
  {"source": "932",
   "target": "939",
   "amount": "",
   "type": "http://www.lombardinetworks.net/lombardi.owl#InfluenceControl"},
  {"source": "932",
   "target": "930",
   "amount": "",
   "type": "http://www.lombardinetworks.net/lombardi.owl#InfluenceControl"},
  {"source": "929",
   "target": "935",
   "amount": "",
   "type": "http://www.lombardinetworks.net/lombardi.owl#InfluenceControl"},
  {"source": "928",
   "target": "935",
   "amount": "",
   "type": "http://www.lombardinetworks.net/lombardi.owl#InfluenceControl"},
  {"source": "927",
   "target": "906",
   "amount": "",
   "type": "http://www.lombardinetworks.net/lombardi.owl#InfluenceControl"},
  {"source": "926",
   "target": "943",
   "amount": "",
   "type": "http://www.lombardinetworks.net/lombardi.owl#InfluenceControl"},
  {"source": "926",
   "target": "915",
   "amount": "",
   "type": "http://www.lombardinetworks.net/lombardi.owl#Association"},
  {"source": "926",
   "target": "914",
   "amount": "",
   "type": "http://www.lombardinetworks.net/lombardi.owl#Association"},
  {"source": "925",
   "target": "939",
   "amount": "",
   "type": "http://www.lombardinetworks.net/lombardi.owl#InfluenceControl"},
  {"source": "924",
   "target": "939",
   "amount": "",
   "type": "http://www.lombardinetworks.net/lombardi.owl#InfluenceControl"},
  {"source": "923",
   "target": "924",
   "amount": "",
   "type": "http://www.lombardinetworks.net/lombardi.owl#InfluenceControl"},
  {"source": "922",
   "target": "924",
   "amount": "",
   "type": "http://www.lombardinetworks.net/lombardi.owl#InfluenceControl"},
  {"source": "921",
   "target": "943",
   "amount": "",
   "type": "http://www.lombardinetworks.net/lombardi.owl#InfluenceControl"},
  {"source": "920",
   "target": "943",
   "amount": "",
   "type": "http://www.lombardinetworks.net/lombardi.owl#InfluenceControl"},
  {"source": "919",
   "target": "926",
   "amount": "",
   "type": "http://www.lombardinetworks.net/lombardi.owl#InfluenceControl"},
  {"source": "918",
   "target": "926",
   "amount": "",
   "type": "http://www.lombardinetworks.net/lombardi.owl#InfluenceControl"},
  {"source": "917",
   "target": "926",
   "amount": "",
   "type": "http://www.lombardinetworks.net/lombardi.owl#InfluenceControl"},
  {"source": "916",
   "target": "926",
   "amount": "",
   "type": "http://www.lombardinetworks.net/lombardi.owl#InfluenceControl"},
  {"source": "916",
   "target": "927",
   "amount": "",
   "type": "http://www.lombardinetworks.net/lombardi.owl#InfluenceControl"},
  {"source": "914",
   "target": "910",
   "amount": "",
   "type": "http://www.lombardinetworks.net/lombardi.owl#Association"},
  {"source": "914",
   "target": "907",
   "amount": "",
   "type": "http://www.lombardinetworks.net/lombardi.owl#Association"},
  {"source": "913",
   "target": "915",
   "amount": "",
   "type": "http://www.lombardinetworks.net/lombardi.owl#InfluenceControl"},
  {"source": "912",
   "target": "915",
   "amount": "",
   "type": "http://www.lombardinetworks.net/lombardi.owl#InfluenceControl"},
  {"source": "911",
   "target": "915",
   "amount": "",
   "type": "http://www.lombardinetworks.net/lombardi.owl#InfluenceControl"},
  {"source": "910",
   "target": "915",
   "amount": "",
   "type": "http://www.lombardinetworks.net/lombardi.owl#Association"},
  {"source": "910",
   "target": "880",
   "amount": "",
   "type": "http://www.lombardinetworks.net/lombardi.owl#BlockedFailed"},
  {"source": "910",
   "target": "893",
   "amount": "",
   "type": "http://www.lombardinetworks.net/lombardi.owl#BlockedFailed"},
  {"source": "909",
   "target": "915",
   "amount": "",
   "type": "http://www.lombardinetworks.net/lombardi.owl#InfluenceControl"},
  {"source": "908",
   "target": "915",
   "amount": "",
   "type": "http://www.lombardinetworks.net/lombardi.owl#Association"},
  {"source": "907",
   "target": "915",
   "amount": "",
   "type": "http://www.lombardinetworks.net/lombardi.owl#Association"},
  {"source": "907",
   "target": "883",
   "amount": "",
   "type": "http://www.lombardinetworks.net/lombardi.owl#InfluenceControl"},
  {"source": "905",
   "target": "906",
   "amount": "",
   "type": "http://www.lombardinetworks.net/lombardi.owl#Association"},
  {"source": "904",
   "target": "905",
   "amount": "",
   "type": "http://www.lombardinetworks.net/lombardi.owl#InfluenceControl"},
  {"source": "903",
   "target": "905",
   "amount": "",
   "type": "http://www.lombardinetworks.net/lombardi.owl#InfluenceControl"},
  {"source": "903",
   "target": "910",
   "amount": "",
   "type": "http://www.lombardinetworks.net/lombardi.owl#InfluenceControl"},
  {"source": "903",
   "target": "893",
   "amount": "",
   "type": "http://www.lombardinetworks.net/lombardi.owl#InfluenceControl"},
  {"source": "902",
   "target": "906",
   "amount": "",
   "type": "http://www.lombardinetworks.net/lombardi.owl#InfluenceControl"},
  {"source": "901",
   "target": "906",
   "amount": "",
   "type": "http://www.lombardinetworks.net/lombardi.owl#InfluenceControl"},
  {"source": "900",
   "target": "906",
   "amount": "",
   "type": "http://www.lombardinetworks.net/lombardi.owl#Association"},
  {"source": "900",
   "target": "910",
   "amount": "",
   "type": "http://www.lombardinetworks.net/lombardi.owl#Association"},
  {"source": "899",
   "target": "906",
   "amount": "",
   "type": "http://www.lombardinetworks.net/lombardi.owl#InfluenceControl"},
  {"source": "899",
   "target": "898",
   "amount": "",
   "type": "http://www.lombardinetworks.net/lombardi.owl#InfluenceControl"},
  {"source": "897",
   "target": "901",
   "amount": "",
   "type": "http://www.lombardinetworks.net/lombardi.owl#InfluenceControl"},
  {"source": "897",
   "target": "910",
   "amount": "",
   "type": "http://www.lombardinetworks.net/lombardi.owl#InfluenceControl"},
  {"source": "896",
   "target": "910",
   "amount": "",
   "type": "http://www.lombardinetworks.net/lombardi.owl#InfluenceControl"},
  {"source": "895",
   "target": "910",
   "amount": "",
   "type": "http://www.lombardinetworks.net/lombardi.owl#Association"},
  {"source": "895",
   "target": "894",
   "amount": "",
   "type": "http://www.lombardinetworks.net/lombardi.owl#InfluenceControl"},
  {"source": "892",
   "target": "893",
   "amount": "",
   "type": "http://www.lombardinetworks.net/lombardi.owl#InfluenceControl"},
  {"source": "891",
   "target": "910",
   "amount": "",
   "type": "http://www.lombardinetworks.net/lombardi.owl#InfluenceControl"},
  {"source": "890",
   "target": "910",
   "amount": "",
   "type": "http://www.lombardinetworks.net/lombardi.owl#InfluenceControl"},
  {"source": "890",
   "target": "889",
   "amount": "",
   "type": "http://www.lombardinetworks.net/lombardi.owl#InfluenceControl"},
  {"source": "888",
   "target": "887",
   "amount": "",
   "type": "http://www.lombardinetworks.net/lombardi.owl#Association"},
  {"source": "888",
   "target": "907",
   "amount": "",
   "type": "http://www.lombardinetworks.net/lombardi.owl#InfluenceControl"},
  {"source": "886",
   "target": "887",
   "amount": "",
   "type": "http://www.lombardinetworks.net/lombardi.owl#InfluenceControl"},
  {"source": "885",
   "target": "888",
   "amount": "",
   "type": "http://www.lombardinetworks.net/lombardi.owl#InfluenceControl"},
  {"source": "884",
   "target": "907",
   "amount": "",
   "type": "http://www.lombardinetworks.net/lombardi.owl#InfluenceControl"},
  {"source": "884",
   "target": "889",
   "amount": "",
   "type": "http://www.lombardinetworks.net/lombardi.owl#InfluenceControl"},
  {"source": "883",
   "target": "880",
   "amount": "",
   "type": "http://www.lombardinetworks.net/lombardi.owl#InfluenceControl"},
  {"source": "882",
   "target": "883",
   "amount": "",
   "type": "http://www.lombardinetworks.net/lombardi.owl#InfluenceControl"},
  {"source": "881",
   "target": "883",
   "amount": "",
   "type": "http://www.lombardinetworks.net/lombardi.owl#InfluenceControl"},
  {"source": "879",
   "target": "935",
   "amount": "",
   "type": "http://www.lombardinetworks.net/lombardi.owl#Final"},
  {"source": "878",
   "target": "927",
   "amount": "",
   "type": "http://www.lombardinetworks.net/lombardi.owl#Final"},
  {"source": "877",
   "target": "906",
   "amount": "",
   "type": "http://www.lombardinetworks.net/lombardi.owl#Final"},
  {"source": "876",
   "target": "933",
   "amount": "",
   "type": "http://www.lombardinetworks.net/lombardi.owl#Final"},
  {"source": "875",
   "target": "939",
   "amount": "",
   "type": "http://www.lombardinetworks.net/lombardi.owl#Final"},
  {"source": "874",
   "target": "907",
   "amount": "",
   "type": "http://www.lombardinetworks.net/lombardi.owl#Final"},
  {"source": "874",
   "target": "883",
   "amount": "",
   "type": "http://www.lombardinetworks.net/lombardi.owl#Final"},
  {"source": "873",
   "target": "910",
   "amount": "",
   "type": "http://www.lombardinetworks.net/lombardi.owl#Final"},
  {"source": "872",
   "target": "893",
   "amount": "",
   "type": "http://www.lombardinetworks.net/lombardi.owl#Final"},
  {"source": "871",
   "target": "905",
   "amount": "",
   "type": "http://www.lombardinetworks.net/lombardi.owl#Final"}
 ]
}