
{
  "title": "George W. Bush, Harken Energy, Jackson Stephens. c. 1979-1990. 4th Version",
  "nodes": [
   {"id": "2494",
   "name": "Von Roll - Switz -",
   "type": "http://www.lombardinetworks.net/lombardi.owl#Institution"},
  {"id": "2493",
   "name": "Toxic Waste project - Ohio -",
   "type": "http://www.lombardinetworks.net/lombardi.owl#Institution"},
  {"id": "2260",
   "name": "J.P. Morgan - NY -",
   "type": "http://www.lombardinetworks.net/lombardi.owl#Institution"},
  {"id": "2283",
   "name": "Waste Tech Inc.",
   "type": "http://www.lombardinetworks.net/lombardi.owl#Institution"},
  {"id": "2263",
   "name": "Rothmann Int'l",
   "type": "http://www.lombardinetworks.net/lombardi.owl#Institution"},
  {"id": "2262",
   "name": "Cartier Int'l",
   "type": "http://www.lombardinetworks.net/lombardi.owl#Institution"},
  {"id": "2492",
   "name": "Mt. Blanc co.",
   "type": "http://www.lombardinetworks.net/lombardi.owl#Institution"},
  {"id": "2265",
   "name": "Rembrandt Group - So.Afr. -",
   "type": "http://www.lombardinetworks.net/lombardi.owl#Institution"},
  {"id": "2268",
   "name": "Anton Rupert",
   "type": "http://www.lombardinetworks.net/lombardi.owl#Person"},
  {"id": "2491",
   "name": "UBS - Switz -",
   "type": "http://www.lombardinetworks.net/lombardi.owl#Institution"},
  {"id": "2269",
   "name": "Mikel Faulkner",
   "type": "http://www.lombardinetworks.net/lombardi.owl#Person"},
  {"id": "2270",
   "name": "Frontier Oil - Denver -",
   "type": "http://www.lombardinetworks.net/lombardi.owl#Institution"},
  {"id": "2271",
   "name": "Tesoro Oil",
   "type": "http://www.lombardinetworks.net/lombardi.owl#Institution"},
  {"id": "2490",
   "name": "Richmont Group - Switz -",
   "type": "http://www.lombardinetworks.net/lombardi.owl#Institution"},
  {"id": "2266",
   "name": "Hawaii real estate",
   "type": "http://www.lombardinetworks.net/lombardi.owl#Institution"},
  {"id": "2276",
   "name": "Int'l Mins & Resources",
   "type": "http://www.lombardinetworks.net/lombardi.owl#Institution"},
  {"id": "2277",
   "name": "No. Amer. Resources - BWI -",
   "type": "http://www.lombardinetworks.net/lombardi.owl#Institution"},
  {"id": "2272",
   "name": "Alan Quasha",
   "type": "http://www.lombardinetworks.net/lombardi.owl#Person"},
  {"id": "2275",
   "name": "Wayne Quasha",
   "type": "http://www.lombardinetworks.net/lombardi.owl#Person"},
  {"id": "2274",
   "name": "William Quasha esq.",
   "type": "http://www.lombardinetworks.net/lombardi.owl#Person"},
  {"id": "2489",
   "name": "Ferdinand Marcos",
   "type": "http://www.lombardinetworks.net/lombardi.owl#Person"},
  {"id": "2488",
   "name": "[7]",
   "type": "http://www.lombardinetworks.net/lombardi.owl#Institution"},
  {"id": "2487",
   "name": "91/3",
   "type": "http://www.lombardinetworks.net/lombardi.owl#Year"},
  {"id": "2279",
   "name": "Two weeks later Saddam Hussein invades Kuwait",
   "type": "http://www.lombardinetworks.net/lombardi.owl#FinalInfo"},
  {"id": "2280",
   "name": "July 1990: Bush bails out with profit",
   "type": "http://www.lombardinetworks.net/lombardi.owl#FinalInfo"},
  {"id": "2287",
   "name": "E-Z Serve - Houston -",
   "type": "http://www.lombardinetworks.net/lombardi.owl#Institution"},
  {"id": "2288",
   "name": "85/3",
   "type": "http://www.lombardinetworks.net/lombardi.owl#Year"},
  {"id": "2289",
   "name": "Theodore Brunn",
   "type": "http://www.lombardinetworks.net/lombardi.owl#Person"},
  {"id": "2486",
   "name": "Harvard Endow",
   "type": "http://www.lombardinetworks.net/lombardi.owl#Institution"},
  {"id": "2319",
   "name": "Phillip Uzielli",
   "type": "http://www.lombardinetworks.net/lombardi.owl#Person"},
  {"id": "2291",
   "name": "84/3",
   "type": "http://www.lombardinetworks.net/lombardi.owl#Year"},
  {"id": "2485",
   "name": "[6]",
   "type": "http://www.lombardinetworks.net/lombardi.owl#Institution"},
  {"id": "2484",
   "name": "Harken Energy - Dallas -",
   "type": "http://www.lombardinetworks.net/lombardi.owl#Institution"},
  {"id": "2483",
   "name": "[5]",
   "type": "http://www.lombardinetworks.net/lombardi.owl#Institution"},
  {"id": "2482",
   "name": "[4]",
   "type": "http://www.lombardinetworks.net/lombardi.owl#Institution"},
  {"id": "2338",
   "name": "Mercer Reynolds",
   "type": "http://www.lombardinetworks.net/lombardi.owl#Person"},
  {"id": "2337",
   "name": "William Dewitt",
   "type": "http://www.lombardinetworks.net/lombardi.owl#Person"},
  {"id": "2339",
   "name": "82/2",
   "type": "http://www.lombardinetworks.net/lombardi.owl#Year"},
  {"id": "2278",
   "name": "[3]",
   "type": "http://www.lombardinetworks.net/lombardi.owl#Institution"},
  {"id": "2481",
   "name": "Spectrum Seven Oil - Tex -",
   "type": "http://www.lombardinetworks.net/lombardi.owl#Institution"},
  {"id": "2281",
   "name": "90/3",
   "type": "http://www.lombardinetworks.net/lombardi.owl#Year"},
  {"id": "2284",
   "name": "Michael Ameen",
   "type": "http://www.lombardinetworks.net/lombardi.owl#Person"},
  {"id": "2480",
   "name": "Sheik Isa bin Khalifah",
   "type": "http://www.lombardinetworks.net/lombardi.owl#Person"},
  {"id": "2285",
   "name": "Bahrain oil deal",
   "type": "http://www.lombardinetworks.net/lombardi.owl#Institution"},
  {"id": "2479",
   "name": "Mike Edwards",
   "type": "http://www.lombardinetworks.net/lombardi.owl#Person"},
  {"id": "2478",
   "name": "Dave Edwards",
   "type": "http://www.lombardinetworks.net/lombardi.owl#Person"},
  {"id": "2294",
   "name": "88/3",
   "type": "http://www.lombardinetworks.net/lombardi.owl#Year"},
  {"id": "2297",
   "name": "Talat Othman",
   "type": "http://www.lombardinetworks.net/lombardi.owl#Person"},
  {"id": "2296",
   "name": "Neth Antilles Co.",
   "type": "http://www.lombardinetworks.net/lombardi.owl#Institution"},
  {"id": "2295",
   "name": "Worthen Nat Bk - Ark -",
   "type": "http://www.lombardinetworks.net/lombardi.owl#Institution"},
  {"id": "2298",
   "name": "Saudi Arab Finance",
   "type": "http://www.lombardinetworks.net/lombardi.owl#Institution"},
  {"id": "2299",
   "name": "UBME - Dubai -",
   "type": "http://www.lombardinetworks.net/lombardi.owl#Institution"},
  {"id": "2300",
   "name": "Beirut Riyadh Bank",
   "type": "http://www.lombardinetworks.net/lombardi.owl#Institution"},
  {"id": "2320",
   "name": "Saudi Bank - Paris -",
   "type": "http://www.lombardinetworks.net/lombardi.owl#Institution"},
  {"id": "2301",
   "name": "Sheik Abdullah Taha Bakhsh",
   "type": "http://www.lombardinetworks.net/lombardi.owl#Person"},
  {"id": "2302",
   "name": "Stephens Inc. - Ark -",
   "type": "http://www.lombardinetworks.net/lombardi.owl#Institution"},
  {"id": "2303",
   "name": "Sheik Khalifah",
   "type": "http://www.lombardinetworks.net/lombardi.owl#Person"},
  {"id": "929",
   "name": "Agha Hasan Abedi",
   "type": "http://www.lombardinetworks.net/lombardi.owl#Person"},
  {"id": "2477",
   "name": "BCCI - Lux -",
   "type": "http://www.lombardinetworks.net/lombardi.owl#Institution"},
  {"id": "932",
   "name": "Ghaith Pharaon",
   "type": "http://www.lombardinetworks.net/lombardi.owl#Person"},
  {"id": "2476",
   "name": "Sid Bass",
   "type": "http://www.lombardinetworks.net/lombardi.owl#Person"},
  {"id": "2475",
   "name": "Bass Bros - FtWorth -",
   "type": "http://www.lombardinetworks.net/lombardi.owl#Institution"},
  {"id": "2309",
   "name": "Jackson Stephens",
   "type": "http://www.lombardinetworks.net/lombardi.owl#Person"},
  {"id": "2307",
   "name": "Amer S&L - Calif -",
   "type": "http://www.lombardinetworks.net/lombardi.owl#Institution"},
  {"id": "2308",
   "name": "Robert Bass",
   "type": "http://www.lombardinetworks.net/lombardi.owl#Person"},
  {"id": "2474",
   "name": "RNC",
   "type": "http://www.lombardinetworks.net/lombardi.owl#Institution"},
  {"id": "2311",
   "name": "86/3",
   "type": "http://www.lombardinetworks.net/lombardi.owl#Year"},
  {"id": "2473",
   "name": "George H.W. Bush",
   "type": "http://www.lombardinetworks.net/lombardi.owl#Person"},
  {"id": "2472",
   "name": "Bush Energy",
   "type": "http://www.lombardinetworks.net/lombardi.owl#Institution"},
  {"id": "2471",
   "name": "John Connally",
   "type": "http://www.lombardinetworks.net/lombardi.owl#Person"},
  {"id": "2323",
   "name": "Main Bank - Houston -",
   "type": "http://www.lombardinetworks.net/lombardi.owl#Institution"},
  {"id": "2292",
   "name": "[2]",
   "type": "http://www.lombardinetworks.net/lombardi.owl#Institution"},
  {"id": "2321",
   "name": "Osama bin Laden",
   "type": "http://www.lombardinetworks.net/lombardi.owl#Person"},
  {"id": "2322",
   "name": "Sheik Salim bin Laden",
   "type": "http://www.lombardinetworks.net/lombardi.owl#Person"},
  {"id": "2336",
   "name": "83/2",
   "type": "http://www.lombardinetworks.net/lombardi.owl#Year"},
  {"id": "2470",
   "name": "Saudi Arab Mkts.",
   "type": "http://www.lombardinetworks.net/lombardi.owl#Institution"},
  {"id": "2317",
   "name": "SWAPS - Houston -",
   "type": "http://www.lombardinetworks.net/lombardi.owl#Institution"},
  {"id": "2469",
   "name": "[1]",
   "type": "http://www.lombardinetworks.net/lombardi.owl#Institution"},
  {"id": "2468",
   "name": "Skyways Aircraft - Tex -",
   "type": "http://www.lombardinetworks.net/lombardi.owl#Institution"},
  {"id": "540",
   "name": "Farhad Azima",
   "type": "http://www.lombardinetworks.net/lombardi.owl#Person"},
  {"id": "2333",
   "name": "81/1",
   "type": "http://www.lombardinetworks.net/lombardi.owl#Year"},
  {"id": "2467",
   "name": "JBA - Houston -",
   "type": "http://www.lombardinetworks.net/lombardi.owl#Institution"},
  {"id": "2330",
   "name": "Cotopax - Caymans -",
   "type": "http://www.lombardinetworks.net/lombardi.owl#Institution"},
  {"id": "2331",
   "name": "80/1",
   "type": "http://www.lombardinetworks.net/lombardi.owl#Year"},
  {"id": "2466",
   "name": "Jim Bath",
   "type": "http://www.lombardinetworks.net/lombardi.owl#Person"},
  {"id": "2465",
   "name": "BBI - Houston",
   "type": "http://www.lombardinetworks.net/lombardi.owl#Institution"},
  {"id": "2464",
   "name": "Sen. Lloyd Bentson Jr.",
   "type": "http://www.lombardinetworks.net/lombardi.owl#Person"},
  {"id": "2328",
   "name": "Lan Bentson",
   "type": "http://www.lombardinetworks.net/lombardi.owl#Person"},
  {"id": "2463",
   "name": "Arbusto Energy - Tex -",
   "type": "http://www.lombardinetworks.net/lombardi.owl#Institution"},
  {"id": "2462",
   "name": "George W. Bush \"Jr\"",
   "type": "http://www.lombardinetworks.net/lombardi.owl#Person"}

   ],
   "links": [
   {"source": "2494",
   "target": "2283",
   "amount": "",
   "type": "http://www.lombardinetworks.net/lombardi.owl#InfluenceControl"},
  {"source": "2260",
   "target": "2283",
   "amount": "",
   "type": "http://www.lombardinetworks.net/lombardi.owl#FinancialTransaction"},
  {"source": "2283",
   "target": "2493",
   "amount": "",
   "type": "http://www.lombardinetworks.net/lombardi.owl#Association"},
  {"source": "2265",
   "target": "2263",
   "amount": "",
   "type": "http://www.lombardinetworks.net/lombardi.owl#InfluenceControl"},
  {"source": "2265",
   "target": "2262",
   "amount": "",
   "type": "http://www.lombardinetworks.net/lombardi.owl#InfluenceControl"},
  {"source": "2265",
   "target": "2492",
   "amount": "",
   "type": "http://www.lombardinetworks.net/lombardi.owl#InfluenceControl"},
  {"source": "2268",
   "target": "2265",
   "amount": "",
   "type": "http://www.lombardinetworks.net/lombardi.owl#InfluenceControl"},
  {"source": "2268",
   "target": "2490",
   "amount": "",
   "type": "http://www.lombardinetworks.net/lombardi.owl#InfluenceControl"},
  {"source": "2268",
   "target": "2270",
   "amount": "",
   "type": "http://www.lombardinetworks.net/lombardi.owl#InfluenceControl"},
  {"source": "2491",
   "target": "2283",
   "amount": "",
   "type": "http://www.lombardinetworks.net/lombardi.owl#FinancialTransaction"},
  {"source": "2491",
   "target": "2294",
   "amount": "",
   "type": "http://www.lombardinetworks.net/lombardi.owl#SaleProperty"},
  {"source": "2491",
   "target": "2270",
   "amount": "",
   "type": "http://www.lombardinetworks.net/lombardi.owl#FinancialTransaction"},
  {"source": "2269",
   "target": "2270",
   "amount": "",
   "type": "http://www.lombardinetworks.net/lombardi.owl#InfluenceControl"},
  {"source": "2490",
   "target": "2277",
   "amount": "",
   "type": "http://www.lombardinetworks.net/lombardi.owl#InfluenceControl"},
  {"source": "2276",
   "target": "2291",
   "amount": "",
   "type": "http://www.lombardinetworks.net/lombardi.owl#InfluenceControl"},
  {"source": "2277",
   "target": "2266",
   "amount": "",
   "type": "http://www.lombardinetworks.net/lombardi.owl#SaleProperty"},
  {"source": "2277",
   "target": "2276",
   "amount": "",
   "type": "http://www.lombardinetworks.net/lombardi.owl#InfluenceControl"},
  {"source": "2277",
   "target": "2484",
   "amount": "",
   "type": "http://www.lombardinetworks.net/lombardi.owl#InfluenceControl"},
  {"source": "2272",
   "target": "2270",
   "amount": "",
   "type": "http://www.lombardinetworks.net/lombardi.owl#InfluenceControl"},
  {"source": "2272",
   "target": "2271",
   "amount": "",
   "type": "http://www.lombardinetworks.net/lombardi.owl#BlockedFailed"},
  {"source": "2272",
   "target": "2277",
   "amount": "",
   "type": "http://www.lombardinetworks.net/lombardi.owl#InfluenceControl"},
  {"source": "2275",
   "target": "2277",
   "amount": "",
   "type": "http://www.lombardinetworks.net/lombardi.owl#InfluenceControl"},
  {"source": "2274",
   "target": "2272",
   "amount": "",
   "type": "http://www.lombardinetworks.net/lombardi.owl#Association"},
  {"source": "2274",
   "target": "2275",
   "amount": "",
   "type": "http://www.lombardinetworks.net/lombardi.owl#Association"},
  {"source": "2489",
   "target": "2274",
   "amount": "",
   "type": "http://www.lombardinetworks.net/lombardi.owl#Association"},
  {"source": "2487",
   "target": "2488",
   "amount": "",
   "type": "http://www.lombardinetworks.net/lombardi.owl#YearArrow"},
  {"source": "2279",
   "target": "2281",
   "amount": "",
   "type": "http://www.lombardinetworks.net/lombardi.owl#InfluenceControl"},
  {"source": "2288",
   "target": "2266",
   "amount": "",
   "type": "http://www.lombardinetworks.net/lombardi.owl#InfluenceControl"},
  {"source": "2288",
   "target": "2277",
   "amount": "",
   "type": "http://www.lombardinetworks.net/lombardi.owl#FinancialTransaction"},
  {"source": "2288",
   "target": "2311",
   "amount": "",
   "type": "http://www.lombardinetworks.net/lombardi.owl#YearArrow"},
  {"source": "2288",
   "target": "2287",
   "amount": "",
   "type": "http://www.lombardinetworks.net/lombardi.owl#InfluenceControl"},
  {"source": "2289",
   "target": "2291",
   "amount": "",
   "type": "http://www.lombardinetworks.net/lombardi.owl#InfluenceControl"},
  {"source": "2486",
   "target": "2291",
   "amount": "",
   "type": "http://www.lombardinetworks.net/lombardi.owl#InfluenceControl"},
  {"source": "2319",
   "target": "2336",
   "amount": "",
   "type": "http://www.lombardinetworks.net/lombardi.owl#InfluenceControl"},
  {"source": "2291",
   "target": "2288",
   "amount": "",
   "type": "http://www.lombardinetworks.net/lombardi.owl#YearArrow"},
  {"source": "2484",
   "target": "2291",
   "amount": "",
   "type": "http://www.lombardinetworks.net/lombardi.owl#InfluenceControl"},
  {"source": "2484",
   "target": "2485",
   "amount": "",
   "type": "http://www.lombardinetworks.net/lombardi.owl#InfluenceControl"},
  {"source": "2482",
   "target": "2483",
   "amount": "",
   "type": "http://www.lombardinetworks.net/lombardi.owl#YearArrow"},
  {"source": "2482",
   "target": "2292",
   "amount": "",
   "type": "http://www.lombardinetworks.net/lombardi.owl#InfluenceControl"},
  {"source": "2338",
   "target": "2339",
   "amount": "",
   "type": "http://www.lombardinetworks.net/lombardi.owl#InfluenceControl"},
  {"source": "2337",
   "target": "2339",
   "amount": "",
   "type": "http://www.lombardinetworks.net/lombardi.owl#InfluenceControl"},
  {"source": "2339",
   "target": "2336",
   "amount": "",
   "type": "http://www.lombardinetworks.net/lombardi.owl#YearArrow"},
  {"source": "2481",
   "target": "2339",
   "amount": "",
   "type": "http://www.lombardinetworks.net/lombardi.owl#InfluenceControl"},
  {"source": "2481",
   "target": "2278",
   "amount": "",
   "type": "http://www.lombardinetworks.net/lombardi.owl#InfluenceControl"},
  {"source": "2281",
   "target": "2487",
   "amount": "",
   "type": "http://www.lombardinetworks.net/lombardi.owl#YearArrow"},
  {"source": "2281",
   "target": "2280",
   "amount": "",
   "type": "http://www.lombardinetworks.net/lombardi.owl#FinancialTransaction"},
  {"source": "2281",
   "target": "2285",
   "amount": "",
   "type": "http://www.lombardinetworks.net/lombardi.owl#InfluenceControl"},
  {"source": "2284",
   "target": "2285",
   "amount": "",
   "type": "http://www.lombardinetworks.net/lombardi.owl#InfluenceControl"},
  {"source": "2480",
   "target": "2285",
   "amount": "",
   "type": "http://www.lombardinetworks.net/lombardi.owl#InfluenceControl"},
  {"source": "2479",
   "target": "2302",
   "amount": "",
   "type": "http://www.lombardinetworks.net/lombardi.owl#InfluenceControl"},
  {"source": "2478",
   "target": "2302",
   "amount": "",
   "type": "http://www.lombardinetworks.net/lombardi.owl#InfluenceControl"},
  {"source": "2294",
   "target": "2281",
   "amount": "",
   "type": "http://www.lombardinetworks.net/lombardi.owl#YearArrow"},
  {"source": "2297",
   "target": "2294",
   "amount": "",
   "type": "http://www.lombardinetworks.net/lombardi.owl#InfluenceControl"},
  {"source": "2297",
   "target": "2296",
   "amount": "",
   "type": "http://www.lombardinetworks.net/lombardi.owl#InfluenceControl"},
  {"source": "2296",
   "target": "2491",
   "amount": "",
   "type": "http://www.lombardinetworks.net/lombardi.owl#FinancialTransaction"},
  {"source": "2296",
   "target": "2294",
   "amount": "",
   "type": "http://www.lombardinetworks.net/lombardi.owl#InfluenceControl"},
  {"source": "2301",
   "target": "2297",
   "amount": "",
   "type": "http://www.lombardinetworks.net/lombardi.owl#InfluenceControl"},
  {"source": "2301",
   "target": "2296",
   "amount": "",
   "type": "http://www.lombardinetworks.net/lombardi.owl#InfluenceControl"},
  {"source": "2301",
   "target": "2295",
   "amount": "",
   "type": "http://www.lombardinetworks.net/lombardi.owl#InfluenceControl"},
  {"source": "2301",
   "target": "2298",
   "amount": "",
   "type": "http://www.lombardinetworks.net/lombardi.owl#InfluenceControl"},
  {"source": "2301",
   "target": "2299",
   "amount": "",
   "type": "http://www.lombardinetworks.net/lombardi.owl#InfluenceControl"},
  {"source": "2301",
   "target": "2300",
   "amount": "",
   "type": "http://www.lombardinetworks.net/lombardi.owl#InfluenceControl"},
  {"source": "2301",
   "target": "2320",
   "amount": "",
   "type": "http://www.lombardinetworks.net/lombardi.owl#InfluenceControl"},
  {"source": "2301",
   "target": "2477",
   "amount": "",
   "type": "http://www.lombardinetworks.net/lombardi.owl#InfluenceControl"},
  {"source": "2302",
   "target": "2283",
   "amount": "",
   "type": "http://www.lombardinetworks.net/lombardi.owl#Association"},
  {"source": "2302",
   "target": "2285",
   "amount": "",
   "type": "http://www.lombardinetworks.net/lombardi.owl#Association"},
  {"source": "2302",
   "target": "2294",
   "amount": "",
   "type": "http://www.lombardinetworks.net/lombardi.owl#Association"},
  {"source": "2302",
   "target": "2477",
   "amount": "",
   "type": "http://www.lombardinetworks.net/lombardi.owl#Association"},
  {"source": "2303",
   "target": "2477",
   "amount": "",
   "type": "http://www.lombardinetworks.net/lombardi.owl#InfluenceControl"},
  {"source": "929",
   "target": "2477",
   "amount": "",
   "type": "http://www.lombardinetworks.net/lombardi.owl#InfluenceControl"},
  {"source": "932",
   "target": "2477",
   "amount": "",
   "type": "http://www.lombardinetworks.net/lombardi.owl#InfluenceControl"},
  {"source": "932",
   "target": "2323",
   "amount": "",
   "type": "http://www.lombardinetworks.net/lombardi.owl#InfluenceControl"},
  {"source": "2476",
   "target": "2475",
   "amount": "",
   "type": "http://www.lombardinetworks.net/lombardi.owl#InfluenceControl"},
  {"source": "2475",
   "target": "2285",
   "amount": "",
   "type": "http://www.lombardinetworks.net/lombardi.owl#InfluenceControl"},
  {"source": "2309",
   "target": "2302",
   "amount": "",
   "type": "http://www.lombardinetworks.net/lombardi.owl#InfluenceControl"},
  {"source": "2309",
   "target": "2474",
   "amount": "",
   "type": "http://www.lombardinetworks.net/lombardi.owl#FinancialTransaction"},
  {"source": "2308",
   "target": "2475",
   "amount": "",
   "type": "http://www.lombardinetworks.net/lombardi.owl#InfluenceControl"},
  {"source": "2308",
   "target": "2307",
   "amount": "",
   "type": "http://www.lombardinetworks.net/lombardi.owl#InfluenceControl"},
  {"source": "2308",
   "target": "2474",
   "amount": "",
   "type": "http://www.lombardinetworks.net/lombardi.owl#FinancialTransaction"},
  {"source": "2311",
   "target": "2270",
   "amount": "",
   "type": "http://www.lombardinetworks.net/lombardi.owl#BlockedFailed"},
  {"source": "2311",
   "target": "2294",
   "amount": "",
   "type": "http://www.lombardinetworks.net/lombardi.owl#YearArrow"},
  {"source": "2311",
   "target": "2483",
   "amount": "",
   "type": "http://www.lombardinetworks.net/lombardi.owl#InfluenceControl"},
  {"source": "2473",
   "target": "2474",
   "amount": "",
   "type": "http://www.lombardinetworks.net/lombardi.owl#InfluenceControl"},
  {"source": "2471",
   "target": "2323",
   "amount": "",
   "type": "http://www.lombardinetworks.net/lombardi.owl#InfluenceControl"},
  {"source": "2321",
   "target": "2322",
   "amount": "",
   "type": "http://www.lombardinetworks.net/lombardi.owl#Association"},
  {"source": "2322",
   "target": "2320",
   "amount": "",
   "type": "http://www.lombardinetworks.net/lombardi.owl#InfluenceControl"},
  {"source": "2336",
   "target": "2482",
   "amount": "",
   "type": "http://www.lombardinetworks.net/lombardi.owl#YearArrow"},
  {"source": "2469",
   "target": "2292",
   "amount": "",
   "type": "http://www.lombardinetworks.net/lombardi.owl#YearArrow"},
  {"source": "540",
   "target": "2333",
   "amount": "",
   "type": "http://www.lombardinetworks.net/lombardi.owl#FinancialTransaction"},
  {"source": "2333",
   "target": "2333",
   "amount": "",
   "type": "http://www.lombardinetworks.net/lombardi.owl#YearArrow"},
  {"source": "2333",
   "target": "2469",
   "amount": "",
   "type": "http://www.lombardinetworks.net/lombardi.owl#YearArrow"},
  {"source": "2330",
   "target": "2331",
   "amount": "",
   "type": "http://www.lombardinetworks.net/lombardi.owl#FinancialTransaction"},
  {"source": "2466",
   "target": "2472",
   "amount": "",
   "type": "http://www.lombardinetworks.net/lombardi.owl#FinancialTransaction"},
  {"source": "2466",
   "target": "2462",
   "amount": "",
   "type": "http://www.lombardinetworks.net/lombardi.owl#Association"},
  {"source": "2466",
   "target": "2323",
   "amount": "",
   "type": "http://www.lombardinetworks.net/lombardi.owl#InfluenceControl"},
  {"source": "2466",
   "target": "2322",
   "amount": "",
   "type": "http://www.lombardinetworks.net/lombardi.owl#Association"},
  {"source": "2466",
   "target": "2336",
   "amount": "",
   "type": "http://www.lombardinetworks.net/lombardi.owl#FinancialTransaction"},
  {"source": "2466",
   "target": "2470",
   "amount": "",
   "type": "http://www.lombardinetworks.net/lombardi.owl#InfluenceControl"},
  {"source": "2466",
   "target": "2317",
   "amount": "",
   "type": "http://www.lombardinetworks.net/lombardi.owl#InfluenceControl"},
  {"source": "2466",
   "target": "2469",
   "amount": "",
   "type": "http://www.lombardinetworks.net/lombardi.owl#FinancialTransaction"},
  {"source": "2466",
   "target": "2468",
   "amount": "",
   "type": "http://www.lombardinetworks.net/lombardi.owl#InfluenceControl"},
  {"source": "2466",
   "target": "2333",
   "amount": "",
   "type": "http://www.lombardinetworks.net/lombardi.owl#FinancialTransaction"},
  {"source": "2466",
   "target": "2467",
   "amount": "",
   "type": "http://www.lombardinetworks.net/lombardi.owl#InfluenceControl"},
  {"source": "2466",
   "target": "2331",
   "amount": "",
   "type": "http://www.lombardinetworks.net/lombardi.owl#FinancialTransaction"},
  {"source": "2466",
   "target": "2465",
   "amount": "",
   "type": "http://www.lombardinetworks.net/lombardi.owl#InfluenceControl"},
  {"source": "2328",
   "target": "2465",
   "amount": "",
   "type": "http://www.lombardinetworks.net/lombardi.owl#InfluenceControl"},
  {"source": "2328",
   "target": "2464",
   "amount": "",
   "type": "http://www.lombardinetworks.net/lombardi.owl#Association"},
  {"source": "2462",
   "target": "2311",
   "amount": "",
   "type": "http://www.lombardinetworks.net/lombardi.owl#YearArrow"},
  {"source": "2462",
   "target": "2473",
   "amount": "",
   "type": "http://www.lombardinetworks.net/lombardi.owl#Association"},
  {"source": "2462",
   "target": "2472",
   "amount": "",
   "type": "http://www.lombardinetworks.net/lombardi.owl#InfluenceControl"},
  {"source": "2462",
   "target": "2463",
   "amount": "",
   "type": "http://www.lombardinetworks.net/lombardi.owl#InfluenceControl"}
 ]
}