
{
  "title": "George W. Bush, Harken Energy, Jackson Stephens. c. 1979-1990. 5th Version",
  "nodes": [
   {"id": "2340",
   "name": "Von Roll A.G. - Switz",
   "type": "http://www.lombardinetworks.net/lombardi.owl#Institution"},
  {"id": "2339",
   "name": "Ohio toxic incin.",
   "type": "http://www.lombardinetworks.net/lombardi.owl#Institution"},
  {"id": "2338",
   "name": "J.P. Morgan - NY -",
   "type": "http://www.lombardinetworks.net/lombardi.owl#Institution"},
  {"id": "2337",
   "name": "Union Bank of Switz",
   "type": "http://www.lombardinetworks.net/lombardi.owl#Institution"},
  {"id": "2336",
   "name": "Cartier Int'l",
   "type": "http://www.lombardinetworks.net/lombardi.owl#Institution"},
  {"id": "2335",
   "name": "Rothmann Int'l",
   "type": "http://www.lombardinetworks.net/lombardi.owl#Institution"},
  {"id": "2334",
   "name": "Mont Blanc Co.",
   "type": "http://www.lombardinetworks.net/lombardi.owl#Institution"},
  {"id": "2333",
   "name": "Rembrandt Group - So.Afr. -",
   "type": "http://www.lombardinetworks.net/lombardi.owl#Institution"},
  {"id": "2332",
   "name": "Hawaii real estate",
   "type": "http://www.lombardinetworks.net/lombardi.owl#Institution"},
  {"id": "2331",
   "name": "Richmont Group - Switz -",
   "type": "http://www.lombardinetworks.net/lombardi.owl#Institution"},
  {"id": "2330",
   "name": "Anton Rupert",
   "type": "http://www.lombardinetworks.net/lombardi.owl#Person"},
  {"id": "2329",
   "name": "Mikel Faulkner",
   "type": "http://www.lombardinetworks.net/lombardi.owl#Person"},
  {"id": "2328",
   "name": "Frontier Oil - Denver -",
   "type": "http://www.lombardinetworks.net/lombardi.owl#Institution"},
  {"id": "2327",
   "name": "Tesoro Oil",
   "type": "http://www.lombardinetworks.net/lombardi.owl#Institution"},
  {"id": "2326",
   "name": "Alan Quasha",
   "type": "http://www.lombardinetworks.net/lombardi.owl#Person"},
  {"id": "2325",
   "name": "Ferdinand Marcos pres Philippines 1965-86",
   "type": "http://www.lombardinetworks.net/lombardi.owl#Person"},
  {"id": "2324",
   "name": "William Quasha esq.",
   "type": "http://www.lombardinetworks.net/lombardi.owl#Person"},
  {"id": "2323",
   "name": "Wayne Quasha",
   "type": "http://www.lombardinetworks.net/lombardi.owl#Person"},
  {"id": "2322",
   "name": "Int'l Mins & Resources",
   "type": "http://www.lombardinetworks.net/lombardi.owl#Institution"},
  {"id": "2321",
   "name": "No. Amer. Resources - BWI -",
   "type": "http://www.lombardinetworks.net/lombardi.owl#Institution"},
  {"id": "2320",
   "name": "[3]",
   "type": "http://www.lombardinetworks.net/lombardi.owl#Institution"},
  {"id": "2319",
   "name": "Two weeks later Saddam Hussein invades Kuwait",
   "type": "http://www.lombardinetworks.net/lombardi.owl#FinalInfo"},
  {"id": "2318",
   "name": "July 1990: Bush bails out with profit",
   "type": "http://www.lombardinetworks.net/lombardi.owl#FinalInfo"},
  {"id": "2317",
   "name": "90/3",
   "type": "http://www.lombardinetworks.net/lombardi.owl#Year"},
  {"id": "2316",
   "name": "Sheik Isa bin Khalifah of Bahrain",
   "type": "http://www.lombardinetworks.net/lombardi.owl#Person"},
  {"id": "2315",
   "name": "Waste Tech Inc.",
   "type": "http://www.lombardinetworks.net/lombardi.owl#Institution"},
  {"id": "2314",
   "name": "Michael Ameen",
   "type": "http://www.lombardinetworks.net/lombardi.owl#Person"},
  {"id": "2313",
   "name": "Bahrain oil deal",
   "type": "http://www.lombardinetworks.net/lombardi.owl#Institution"},
  {"id": "2312",
   "name": "89/3",
   "type": "http://www.lombardinetworks.net/lombardi.owl#Year"},
  {"id": "2311",
   "name": "E-Z Serve - Houston -",
   "type": "http://www.lombardinetworks.net/lombardi.owl#Institution"},
  {"id": "2310",
   "name": "85/3",
   "type": "http://www.lombardinetworks.net/lombardi.owl#Year"},
  {"id": "2309",
   "name": "Theodore Brunn",
   "type": "http://www.lombardinetworks.net/lombardi.owl#Person"},
  {"id": "2308",
   "name": "Harvard Endowm't - Mass -",
   "type": "http://www.lombardinetworks.net/lombardi.owl#Institution"},
  {"id": "2307",
   "name": "84/3",
   "type": "http://www.lombardinetworks.net/lombardi.owl#Year"},
  {"id": "2306",
   "name": "[2]",
   "type": "http://www.lombardinetworks.net/lombardi.owl#Institution"},
  {"id": "2305",
   "name": "Harken Energy Corp. - Dallas -",
   "type": "http://www.lombardinetworks.net/lombardi.owl#Institution"},
  {"id": "2304",
   "name": "88/3",
   "type": "http://www.lombardinetworks.net/lombardi.owl#Year"},
  {"id": "2303",
   "name": "Worthen Nat Bk - Ark -",
   "type": "http://www.lombardinetworks.net/lombardi.owl#Institution"},
  {"id": "2302",
   "name": "Neth Antilles Co.",
   "type": "http://www.lombardinetworks.net/lombardi.owl#Institution"},
  {"id": "2301",
   "name": "Talat Othman",
   "type": "http://www.lombardinetworks.net/lombardi.owl#Person"},
  {"id": "2300",
   "name": "Saudi Arab Finance",
   "type": "http://www.lombardinetworks.net/lombardi.owl#Institution"},
  {"id": "2299",
   "name": "UBME - Dubai -",
   "type": "http://www.lombardinetworks.net/lombardi.owl#Institution"},
  {"id": "2298",
   "name": "Beirut Riyadh Bank",
   "type": "http://www.lombardinetworks.net/lombardi.owl#Institution"},
  {"id": "2297",
   "name": "Sheik Abdullah Taha Bakhsh",
   "type": "http://www.lombardinetworks.net/lombardi.owl#Person"},
  {"id": "2296",
   "name": "Stephens Inc. - Ark -",
   "type": "http://www.lombardinetworks.net/lombardi.owl#Institution"},
  {"id": "2295",
   "name": "Sheik Khalifah",
   "type": "http://www.lombardinetworks.net/lombardi.owl#Person"},
  {"id": "889",
   "name": "Agha Hasan Abedi",
   "type": "http://www.lombardinetworks.net/lombardi.owl#Person"},
  {"id": "2294",
   "name": "BCCI S.A. - Lux",
   "type": "http://www.lombardinetworks.net/lombardi.owl#Institution"},
  {"id": "886",
   "name": "Ghaith Pharaon",
   "type": "http://www.lombardinetworks.net/lombardi.owl#Person"},
  {"id": "2293",
   "name": "Sid R. Bass",
   "type": "http://www.lombardinetworks.net/lombardi.owl#Person"},
  {"id": "2292",
   "name": "Bass Bros Ents - FW -",
   "type": "http://www.lombardinetworks.net/lombardi.owl#Institution"},
  {"id": "2291",
   "name": "Amer S&L - Calif -",
   "type": "http://www.lombardinetworks.net/lombardi.owl#Institution"},
  {"id": "2290",
   "name": "Robert Bass",
   "type": "http://www.lombardinetworks.net/lombardi.owl#Person"},
  {"id": "2289",
   "name": "Jackson Stephens",
   "type": "http://www.lombardinetworks.net/lombardi.owl#Person"},
  {"id": "2288",
   "name": "Repub Nat Comm",
   "type": "http://www.lombardinetworks.net/lombardi.owl#Institution"},
  {"id": "2287",
   "name": "86/3",
   "type": "http://www.lombardinetworks.net/lombardi.owl#Year"},
  {"id": "2286",
   "name": "George H.W. Bush pres US 1989-93 vp US 1981-9",
   "type": "http://www.lombardinetworks.net/lombardi.owl#Person"},
  {"id": "2285",
   "name": "86/2",
   "type": "http://www.lombardinetworks.net/lombardi.owl#Year"},
  {"id": "2284",
   "name": "84/2",
   "type": "http://www.lombardinetworks.net/lombardi.owl#Year"},
  {"id": "2283",
   "name": "84/1",
   "type": "http://www.lombardinetworks.net/lombardi.owl#Year"},
  {"id": "2282",
   "name": "82/1",
   "type": "http://www.lombardinetworks.net/lombardi.owl#Year"},
  {"id": "2281",
   "name": "SWAPS - Houston -",
   "type": "http://www.lombardinetworks.net/lombardi.owl#Institution"},
  {"id": "2280",
   "name": "Saudi Arab Mkts - Houston -",
   "type": "http://www.lombardinetworks.net/lombardi.owl#Institution"},
  {"id": "2279",
   "name": "Phillip Uzielli",
   "type": "http://www.lombardinetworks.net/lombardi.owl#Person"},
  {"id": "2278",
   "name": "Saudi Bank - Paris -",
   "type": "http://www.lombardinetworks.net/lombardi.owl#Institution"},
  {"id": "2277",
   "name": "Osama bin Laden",
   "type": "http://www.lombardinetworks.net/lombardi.owl#Person"},
  {"id": "2276",
   "name": "Sheik Salim bin Laden",
   "type": "http://www.lombardinetworks.net/lombardi.owl#Person"},
  {"id": "2275",
   "name": "Main Bank - Houston -",
   "type": "http://www.lombardinetworks.net/lombardi.owl#Institution"},
  {"id": "2274",
   "name": "Arbusto Energy - Texas",
   "type": "http://www.lombardinetworks.net/lombardi.owl#Institution"},
  {"id": "2273",
   "name": "George W. Bush \"Jr\" gov TX 1996-",
   "type": "http://www.lombardinetworks.net/lombardi.owl#Person"},
  {"id": "2272",
   "name": "Bush Energy - Texas -",
   "type": "http://www.lombardinetworks.net/lombardi.owl#Institution"},
  {"id": "2271",
   "name": "Lloyd Bentsen US sen 1971-92",
   "type": "http://www.lombardinetworks.net/lombardi.owl#Person"},
  {"id": "2270",
   "name": "Lan Bentson",
   "type": "http://www.lombardinetworks.net/lombardi.owl#Person"},
  {"id": "2269",
   "name": "Bath Bentsen Ints. - Houston -",
   "type": "http://www.lombardinetworks.net/lombardi.owl#Institution"},
  {"id": "2268",
   "name": "Cotopax - Caymans -",
   "type": "http://www.lombardinetworks.net/lombardi.owl#Institution"},
  {"id": "2267",
   "name": "80/1",
   "type": "http://www.lombardinetworks.net/lombardi.owl#Year"},
  {"id": "2266",
   "name": "JB & Assocs. - Houston -",
   "type": "http://www.lombardinetworks.net/lombardi.owl#Institution"},
  {"id": "567",
   "name": "Farhad Azima",
   "type": "http://www.lombardinetworks.net/lombardi.owl#Person"},
  {"id": "2265",
   "name": "81/1",
   "type": "http://www.lombardinetworks.net/lombardi.owl#Year"},
  {"id": "2264",
   "name": "Skyways Aircraft - Texas -",
   "type": "http://www.lombardinetworks.net/lombardi.owl#Institution"},
  {"id": "2263",
   "name": "James R. Bath",
   "type": "http://www.lombardinetworks.net/lombardi.owl#Person"},
  {"id": "2262",
   "name": "83/2",
   "type": "http://www.lombardinetworks.net/lombardi.owl#Year"},
  {"id": "2261",
   "name": "William Dewitt",
   "type": "http://www.lombardinetworks.net/lombardi.owl#Person"},
  {"id": "2260",
   "name": "Mercer Reynolds",
   "type": "http://www.lombardinetworks.net/lombardi.owl#Person"},
  {"id": "2259",
   "name": "82/2",
   "type": "http://www.lombardinetworks.net/lombardi.owl#Year"},
  {"id": "2258",
   "name": "Spectrum7 Oil - Texas",
   "type": "http://www.lombardinetworks.net/lombardi.owl#Institution"}

   ],
   "links": [
   {"source": "2340",
   "target": "2315",
   "amount": "",
   "type": "http://www.lombardinetworks.net/lombardi.owl#InfluenceControl"},
  {"source": "2338",
   "target": "2315",
   "amount": "",
   "type": "http://www.lombardinetworks.net/lombardi.owl#FinancialTransaction"},
  {"source": "2337",
   "target": "2315",
   "amount": "",
   "type": "http://www.lombardinetworks.net/lombardi.owl#FinancialTransaction"},
  {"source": "2337",
   "target": "2304",
   "amount": "",
   "type": "http://www.lombardinetworks.net/lombardi.owl#SaleTransfer"},
  {"source": "2337",
   "target": "2328",
   "amount": "",
   "type": "http://www.lombardinetworks.net/lombardi.owl#FinancialTransaction"},
  {"source": "2333",
   "target": "2336",
   "amount": "",
   "type": "http://www.lombardinetworks.net/lombardi.owl#InfluenceControl"},
  {"source": "2333",
   "target": "2335",
   "amount": "",
   "type": "http://www.lombardinetworks.net/lombardi.owl#InfluenceControl"},
  {"source": "2333",
   "target": "2334",
   "amount": "",
   "type": "http://www.lombardinetworks.net/lombardi.owl#InfluenceControl"},
  {"source": "2331",
   "target": "2321",
   "amount": "",
   "type": "http://www.lombardinetworks.net/lombardi.owl#InfluenceControl"},
  {"source": "2330",
   "target": "2333",
   "amount": "",
   "type": "http://www.lombardinetworks.net/lombardi.owl#InfluenceControl"},
  {"source": "2330",
   "target": "2331",
   "amount": "",
   "type": "http://www.lombardinetworks.net/lombardi.owl#InfluenceControl"},
  {"source": "2330",
   "target": "2328",
   "amount": "",
   "type": "http://www.lombardinetworks.net/lombardi.owl#InfluenceControl"},
  {"source": "2329",
   "target": "2328",
   "amount": "",
   "type": "http://www.lombardinetworks.net/lombardi.owl#InfluenceControl"},
  {"source": "2326",
   "target": "2328",
   "amount": "",
   "type": "http://www.lombardinetworks.net/lombardi.owl#InfluenceControl"},
  {"source": "2326",
   "target": "2327",
   "amount": "",
   "type": "http://www.lombardinetworks.net/lombardi.owl#BlockedFailed"},
  {"source": "2326",
   "target": "2321",
   "amount": "",
   "type": "http://www.lombardinetworks.net/lombardi.owl#InfluenceControl"},
  {"source": "2324",
   "target": "2326",
   "amount": "",
   "type": "http://www.lombardinetworks.net/lombardi.owl#Association"},
  {"source": "2324",
   "target": "2325",
   "amount": "",
   "type": "http://www.lombardinetworks.net/lombardi.owl#Association"},
  {"source": "2324",
   "target": "2323",
   "amount": "",
   "type": "http://www.lombardinetworks.net/lombardi.owl#Association"},
  {"source": "2322",
   "target": "2307",
   "amount": "",
   "type": "http://www.lombardinetworks.net/lombardi.owl#YearArrow"},
  {"source": "2321",
   "target": "2332",
   "amount": "",
   "type": "http://www.lombardinetworks.net/lombardi.owl#SaleTransfer"},
  {"source": "2321",
   "target": "2323",
   "amount": "",
   "type": "http://www.lombardinetworks.net/lombardi.owl#InfluenceControl"},
  {"source": "2321",
   "target": "2305",
   "amount": "",
   "type": "http://www.lombardinetworks.net/lombardi.owl#InfluenceControl"},
  {"source": "2321",
   "target": "2322",
   "amount": "",
   "type": "http://www.lombardinetworks.net/lombardi.owl#InfluenceControl"},
  {"source": "2319",
   "target": "2317",
   "amount": "",
   "type": "http://www.lombardinetworks.net/lombardi.owl#YearArrow"},
  {"source": "2317",
   "target": "2320",
   "amount": "",
   "type": "http://www.lombardinetworks.net/lombardi.owl#YearArrow"},
  {"source": "2317",
   "target": "2318",
   "amount": "$ 848 k",
   "type": "http://www.lombardinetworks.net/lombardi.owl#FinancialTransaction"},
  {"source": "2317",
   "target": "2313",
   "amount": "",
   "type": "http://www.lombardinetworks.net/lombardi.owl#YearArrow"},
  {"source": "2316",
   "target": "2313",
   "amount": "",
   "type": "http://www.lombardinetworks.net/lombardi.owl#InfluenceControl"},
  {"source": "2315",
   "target": "2339",
   "amount": "",
   "type": "http://www.lombardinetworks.net/lombardi.owl#InfluenceControl"},
  {"source": "2314",
   "target": "2313",
   "amount": "",
   "type": "http://www.lombardinetworks.net/lombardi.owl#Association"},
  {"source": "2313",
   "target": "2296",
   "amount": "",
   "type": "http://www.lombardinetworks.net/lombardi.owl#Association"},
  {"source": "2312",
   "target": "2317",
   "amount": "",
   "type": "http://www.lombardinetworks.net/lombardi.owl#YearArrow"},
  {"source": "2310",
   "target": "2332",
   "amount": "",
   "type": "http://www.lombardinetworks.net/lombardi.owl#YearArrow"},
  {"source": "2310",
   "target": "2321",
   "amount": "",
   "type": "http://www.lombardinetworks.net/lombardi.owl#FinancialTransaction"},
  {"source": "2310",
   "target": "2287",
   "amount": "",
   "type": "http://www.lombardinetworks.net/lombardi.owl#YearArrow"},
  {"source": "2310",
   "target": "2311",
   "amount": "",
   "type": "http://www.lombardinetworks.net/lombardi.owl#YearArrow"},
  {"source": "2309",
   "target": "2307",
   "amount": "",
   "type": "http://www.lombardinetworks.net/lombardi.owl#YearArrow"},
  {"source": "2308",
   "target": "2307",
   "amount": "",
   "type": "http://www.lombardinetworks.net/lombardi.owl#YearArrow"},
  {"source": "2307",
   "target": "2310",
   "amount": "",
   "type": "http://www.lombardinetworks.net/lombardi.owl#YearArrow"},
  {"source": "2305",
   "target": "2307",
   "amount": "",
   "type": "http://www.lombardinetworks.net/lombardi.owl#YearArrow"},
  {"source": "2305",
   "target": "2306",
   "amount": "",
   "type": "http://www.lombardinetworks.net/lombardi.owl#InfluenceControl"},
  {"source": "2304",
   "target": "2312",
   "amount": "",
   "type": "http://www.lombardinetworks.net/lombardi.owl#YearArrow"},
  {"source": "2302",
   "target": "2337",
   "amount": "",
   "type": "http://www.lombardinetworks.net/lombardi.owl#FinancialTransaction"},
  {"source": "2302",
   "target": "2304",
   "amount": "",
   "type": "http://www.lombardinetworks.net/lombardi.owl#YearArrow"},
  {"source": "2301",
   "target": "2304",
   "amount": "",
   "type": "http://www.lombardinetworks.net/lombardi.owl#YearArrow"},
  {"source": "2301",
   "target": "2302",
   "amount": "",
   "type": "http://www.lombardinetworks.net/lombardi.owl#InfluenceControl"},
  {"source": "2297",
   "target": "2303",
   "amount": "",
   "type": "http://www.lombardinetworks.net/lombardi.owl#InfluenceControl"},
  {"source": "2297",
   "target": "2302",
   "amount": "",
   "type": "http://www.lombardinetworks.net/lombardi.owl#InfluenceControl"},
  {"source": "2297",
   "target": "2301",
   "amount": "",
   "type": "http://www.lombardinetworks.net/lombardi.owl#InfluenceControl"},
  {"source": "2297",
   "target": "2300",
   "amount": "",
   "type": "http://www.lombardinetworks.net/lombardi.owl#InfluenceControl"},
  {"source": "2297",
   "target": "2299",
   "amount": "",
   "type": "http://www.lombardinetworks.net/lombardi.owl#InfluenceControl"},
  {"source": "2297",
   "target": "2298",
   "amount": "",
   "type": "http://www.lombardinetworks.net/lombardi.owl#InfluenceControl"},
  {"source": "2297",
   "target": "2278",
   "amount": "",
   "type": "http://www.lombardinetworks.net/lombardi.owl#InfluenceControl"},
  {"source": "2297",
   "target": "2294",
   "amount": "",
   "type": "http://www.lombardinetworks.net/lombardi.owl#InfluenceControl"},
  {"source": "2296",
   "target": "2315",
   "amount": "",
   "type": "http://www.lombardinetworks.net/lombardi.owl#InfluenceControl"},
  {"source": "2296",
   "target": "2304",
   "amount": "",
   "type": "http://www.lombardinetworks.net/lombardi.owl#Association"},
  {"source": "2296",
   "target": "2303",
   "amount": "",
   "type": "http://www.lombardinetworks.net/lombardi.owl#InfluenceControl"},
  {"source": "2296",
   "target": "2294",
   "amount": "",
   "type": "http://www.lombardinetworks.net/lombardi.owl#Association"},
  {"source": "2295",
   "target": "2313",
   "amount": "",
   "type": "http://www.lombardinetworks.net/lombardi.owl#InfluenceControl"},
  {"source": "2295",
   "target": "2294",
   "amount": "",
   "type": "http://www.lombardinetworks.net/lombardi.owl#InfluenceControl"},
  {"source": "889",
   "target": "2294",
   "amount": "",
   "type": "http://www.lombardinetworks.net/lombardi.owl#InfluenceControl"},
  {"source": "886",
   "target": "2294",
   "amount": "",
   "type": "http://www.lombardinetworks.net/lombardi.owl#InfluenceControl"},
  {"source": "886",
   "target": "2275",
   "amount": "",
   "type": "http://www.lombardinetworks.net/lombardi.owl#InfluenceControl"},
  {"source": "2293",
   "target": "2292",
   "amount": "",
   "type": "http://www.lombardinetworks.net/lombardi.owl#InfluenceControl"},
  {"source": "2292",
   "target": "2313",
   "amount": "",
   "type": "http://www.lombardinetworks.net/lombardi.owl#InfluenceControl"},
  {"source": "2290",
   "target": "2292",
   "amount": "",
   "type": "http://www.lombardinetworks.net/lombardi.owl#InfluenceControl"},
  {"source": "2290",
   "target": "2291",
   "amount": "",
   "type": "http://www.lombardinetworks.net/lombardi.owl#InfluenceControl"},
  {"source": "2290",
   "target": "2288",
   "amount": "$ 100 k",
   "type": "http://www.lombardinetworks.net/lombardi.owl#FinancialTransaction"},
  {"source": "2289",
   "target": "2296",
   "amount": "",
   "type": "http://www.lombardinetworks.net/lombardi.owl#InfluenceControl"},
  {"source": "2288",
   "target": "2289",
   "amount": "$ 100 k",
   "type": "http://www.lombardinetworks.net/lombardi.owl#FinancialTransaction"},
  {"source": "2287",
   "target": "2328",
   "amount": "",
   "type": "http://www.lombardinetworks.net/lombardi.owl#BlockedFailed"},
  {"source": "2287",
   "target": "2304",
   "amount": "",
   "type": "http://www.lombardinetworks.net/lombardi.owl#YearArrow"},
  {"source": "2287",
   "target": "2285",
   "amount": "",
   "type": "http://www.lombardinetworks.net/lombardi.owl#YearArrow"},
  {"source": "2286",
   "target": "2288",
   "amount": "",
   "type": "http://www.lombardinetworks.net/lombardi.owl#InfluenceControl"},
  {"source": "2284",
   "target": "2285",
   "amount": "",
   "type": "http://www.lombardinetworks.net/lombardi.owl#YearArrow"},
  {"source": "2283",
   "target": "2284",
   "amount": "",
   "type": "http://www.lombardinetworks.net/lombardi.owl#YearArrow"},
  {"source": "2282",
   "target": "2283",
   "amount": "",
   "type": "http://www.lombardinetworks.net/lombardi.owl#YearArrow"},
  {"source": "2279",
   "target": "2262",
   "amount": "",
   "type": "http://www.lombardinetworks.net/lombardi.owl#YearArrow"},
  {"source": "2277",
   "target": "2276",
   "amount": "",
   "type": "http://www.lombardinetworks.net/lombardi.owl#Association"},
  {"source": "2276",
   "target": "2278",
   "amount": "",
   "type": "http://www.lombardinetworks.net/lombardi.owl#InfluenceControl"},
  {"source": "2274",
   "target": "2267",
   "amount": "",
   "type": "http://www.lombardinetworks.net/lombardi.owl#YearArrow"},
  {"source": "2273",
   "target": "2287",
   "amount": "",
   "type": "http://www.lombardinetworks.net/lombardi.owl#YearArrow"},
  {"source": "2273",
   "target": "2286",
   "amount": "",
   "type": "http://www.lombardinetworks.net/lombardi.owl#Association"},
  {"source": "2273",
   "target": "2284",
   "amount": "",
   "type": "http://www.lombardinetworks.net/lombardi.owl#YearArrow"},
  {"source": "2273",
   "target": "2274",
   "amount": "",
   "type": "http://www.lombardinetworks.net/lombardi.owl#InfluenceControl"},
  {"source": "2273",
   "target": "2272",
   "amount": "",
   "type": "http://www.lombardinetworks.net/lombardi.owl#InfluenceControl"},
  {"source": "2273",
   "target": "2263",
   "amount": "",
   "type": "http://www.lombardinetworks.net/lombardi.owl#Association"},
  {"source": "2270",
   "target": "2271",
   "amount": "",
   "type": "http://www.lombardinetworks.net/lombardi.owl#Association"},
  {"source": "2270",
   "target": "2269",
   "amount": "",
   "type": "http://www.lombardinetworks.net/lombardi.owl#InfluenceControl"},
  {"source": "2268",
   "target": "2267",
   "amount": "",
   "type": "http://www.lombardinetworks.net/lombardi.owl#FinancialTransaction"},
  {"source": "2267",
   "target": "2265",
   "amount": "",
   "type": "http://www.lombardinetworks.net/lombardi.owl#YearArrow"},
  {"source": "567",
   "target": "2265",
   "amount": "",
   "type": "http://www.lombardinetworks.net/lombardi.owl#FinancialTransaction"},
  {"source": "2265",
   "target": "2282",
   "amount": "",
   "type": "http://www.lombardinetworks.net/lombardi.owl#YearArrow"},
  {"source": "2263",
   "target": "2282",
   "amount": "",
   "type": "http://www.lombardinetworks.net/lombardi.owl#FinancialTransaction"},
  {"source": "2263",
   "target": "2281",
   "amount": "",
   "type": "http://www.lombardinetworks.net/lombardi.owl#InfluenceControl"},
  {"source": "2263",
   "target": "2280",
   "amount": "",
   "type": "http://www.lombardinetworks.net/lombardi.owl#InfluenceControl"},
  {"source": "2263",
   "target": "2262",
   "amount": "",
   "type": "http://www.lombardinetworks.net/lombardi.owl#FinancialTransaction"},
  {"source": "2263",
   "target": "2276",
   "amount": "",
   "type": "http://www.lombardinetworks.net/lombardi.owl#Association"},
  {"source": "2263",
   "target": "2275",
   "amount": "",
   "type": "http://www.lombardinetworks.net/lombardi.owl#InfluenceControl"},
  {"source": "2263",
   "target": "2272",
   "amount": "",
   "type": "http://www.lombardinetworks.net/lombardi.owl#FinancialTransaction"},
  {"source": "2263",
   "target": "2269",
   "amount": "",
   "type": "http://www.lombardinetworks.net/lombardi.owl#InfluenceControl"},
  {"source": "2263",
   "target": "2267",
   "amount": "",
   "type": "http://www.lombardinetworks.net/lombardi.owl#FinancialTransaction"},
  {"source": "2263",
   "target": "2266",
   "amount": "",
   "type": "http://www.lombardinetworks.net/lombardi.owl#InfluenceControl"},
  {"source": "2263",
   "target": "2265",
   "amount": "",
   "type": "http://www.lombardinetworks.net/lombardi.owl#FinancialTransaction"},
  {"source": "2263",
   "target": "2264",
   "amount": "",
   "type": "http://www.lombardinetworks.net/lombardi.owl#InfluenceControl"},
  {"source": "2263",
   "target": "2262",
   "amount": "",
   "type": "http://www.lombardinetworks.net/lombardi.owl#FinancialTransaction"},
  {"source": "2261",
   "target": "2259",
   "amount": "",
   "type": "http://www.lombardinetworks.net/lombardi.owl#InfluenceControl"},
  {"source": "2260",
   "target": "2259",
   "amount": "",
   "type": "http://www.lombardinetworks.net/lombardi.owl#InfluenceControl"},
  {"source": "2259",
   "target": "2262",
   "amount": "",
   "type": "http://www.lombardinetworks.net/lombardi.owl#YearArrow"},
  {"source": "2258",
   "target": "2259",
   "amount": "",
   "type": "http://www.lombardinetworks.net/lombardi.owl#InfluenceControl"}
 ]
}