
{
  "title": "Gerry Bull, Space Research and Armsor of Pretoria, South Africa c.1972-80 (4th version)",
  "nodes": [
   {"id": "745",
   "name": "Col. P.M. Lombard",
   "type": "http://www.lombardinetworks.net/lombardi.owl#Person"},
  {"id": "744",
   "name": "Armscor of South Africa - Pretoria -",
   "type": "http://www.lombardinetworks.net/lombardi.owl#Institution"},
  {"id": "743",
   "name": "Denys Zeederberg",
   "type": "http://www.lombardinetworks.net/lombardi.owl#Person"},
  {"id": "742",
   "name": "Piet Smith",
   "type": "http://www.lombardinetworks.net/lombardi.owl#Person"},
  {"id": "741",
   "name": "Cmdt. Piet Marais",
   "type": "http://www.lombardinetworks.net/lombardi.owl#Institution"},
  {"id": "740",
   "name": "Claude Ivy",
   "type": "http://www.lombardinetworks.net/lombardi.owl#Person"},
  {"id": "739",
   "name": "Volkskas Bank - Pretoria -",
   "type": "http://www.lombardinetworks.net/lombardi.owl#Institution"},
  {"id": "738",
   "name": "Holden Roberto cmdr Angolan FNLA 1960-",
   "type": "http://www.lombardinetworks.net/lombardi.owl#Institution"},
  {"id": "737",
   "name": "Mobutu Sese Seko r. Zaire 1964-",
   "type": "http://www.lombardinetworks.net/lombardi.owl#Person"},
  {"id": "736",
   "name": "South African Defense Ministry",
   "type": "http://www.lombardinetworks.net/lombardi.owl#Institution"},
  {"id": "735",
   "name": "P.W. Botha pm 1987-84",
   "type": "http://www.lombardinetworks.net/lombardi.owl#Person"},
  {"id": "734",
   "name": "P&E Eustice Ltd - J'berg -",
   "type": "http://www.lombardinetworks.net/lombardi.owl#Institution"},
  {"id": "733",
   "name": "Cementation Engineers - J'berg -",
   "type": "http://www.lombardinetworks.net/lombardi.owl#Institution"},
  {"id": "95",
   "name": "Mark Thatcher",
   "type": "http://www.lombardinetworks.net/lombardi.owl#Person"},
  {"id": "732",
   "name": "Steve Adams",
   "type": "http://www.lombardinetworks.net/lombardi.owl#Person"},
  {"id": "731",
   "name": "J. Swart",
   "type": "http://www.lombardinetworks.net/lombardi.owl#Person"},
  {"id": "730",
   "name": "M.J. Smith",
   "type": "http://www.lombardinetworks.net/lombardi.owl#Person"},
  {"id": "729",
   "name": "Int'l Signal & Control - Penn -",
   "type": "http://www.lombardinetworks.net/lombardi.owl#Institution"},
  {"id": "728",
   "name": "James Guerin",
   "type": "http://www.lombardinetworks.net/lombardi.owl#Person"},
  {"id": "727",
   "name": "Frank Nell",
   "type": "http://www.lombardinetworks.net/lombardi.owl#Person"},
  {"id": "726",
   "name": "Atlas Aircraft Corp - SoAfr -",
   "type": "http://www.lombardinetworks.net/lombardi.owl#Institution"},
  {"id": "725",
   "name": "Shefford Electronics - Quebec -",
   "type": "http://www.lombardinetworks.net/lombardi.owl#Institution"},
  {"id": "724",
   "name": "Space Capital Int'l - Amsterdam -",
   "type": "http://www.lombardinetworks.net/lombardi.owl#Institution"},
  {"id": "723",
   "name": "Barraros Hermanos Int'l - Barcelona -",
   "type": "http://www.lombardinetworks.net/lombardi.owl#Institution"},
  {"id": "722",
   "name": "South African Marine - NY -",
   "type": "http://www.lombardinetworks.net/lombardi.owl#Institution"},
  {"id": "721",
   "name": "Jacobus Coetzee",
   "type": "http://www.lombardinetworks.net/lombardi.owl#Person"},
  {"id": "720",
   "name": "Sommerset Chemicals - So Afr -",
   "type": "http://www.lombardinetworks.net/lombardi.owl#Institution"},
  {"id": "719",
   "name": "Colet Trading Est. - Liecht -",
   "type": "http://www.lombardinetworks.net/lombardi.owl#Institution"},
  {"id": "718",
   "name": "Commerce Int'l - Brussels -",
   "type": "http://www.lombardinetworks.net/lombardi.owl#Institution"},
  {"id": "717",
   "name": "Credite Bank - Brussels -",
   "type": "http://www.lombardinetworks.net/lombardi.owl#Institution"},
  {"id": "715",
   "name": "Israel Defense Ministry",
   "type": "http://www.lombardinetworks.net/lombardi.owl#Institution"},
  {"id": "714",
   "name": "Yitzhak Rabin",
   "type": "http://www.lombardinetworks.net/lombardi.owl#Person"},
  {"id": "713",
   "name": "Dov Peleg",
   "type": "http://www.lombardinetworks.net/lombardi.owl#Person"},
  {"id": "712",
   "name": "Shaul Eisenberg",
   "type": "http://www.lombardinetworks.net/lombardi.owl#Person"},
  {"id": "711",
   "name": "Saad Gabr",
   "type": "http://www.lombardinetworks.net/lombardi.owl#Person"},
  {"id": "710",
   "name": "Poudre Reunis de Belgique - Brussels -",
   "type": "http://www.lombardinetworks.net/lombardi.owl#Institution"},
  {"id": "709",
   "name": "H&FI - Belgium -",
   "type": "http://www.lombardinetworks.net/lombardi.owl#Institution"},
  {"id": "708",
   "name": "Joseph Severin",
   "type": "http://www.lombardinetworks.net/lombardi.owl#Person"},
  {"id": "707",
   "name": "Jacques Heymann",
   "type": "http://www.lombardinetworks.net/lombardi.owl#Person"},
  {"id": "706",
   "name": "Jack Frost",
   "type": "http://www.lombardinetworks.net/lombardi.owl#Person"},
  {"id": "705",
   "name": "FFE Int'l - Belgium -",
   "type": "http://www.lombardinetworks.net/lombardi.owl#Institution"},
  {"id": "704",
   "name": "Colet Trading Est. - Canada -",
   "type": "http://www.lombardinetworks.net/lombardi.owl#Institution"},
  {"id": "703",
   "name": "SIDEM",
   "type": "http://www.lombardinetworks.net/lombardi.owl#Institution"},
  {"id": "702",
   "name": "Heckler und Koch - W. Ger -",
   "type": "http://www.lombardinetworks.net/lombardi.owl#Institution"},
  {"id": "701",
   "name": "Tampella - Helsinki -",
   "type": "http://www.lombardinetworks.net/lombardi.owl#Institution"},
  {"id": "700",
   "name": "John Clancey CIA 1970s",
   "type": "http://www.lombardinetworks.net/lombardi.owl#Person"},
  {"id": "699",
   "name": "1st Penn Bank - Phila -",
   "type": "http://www.lombardinetworks.net/lombardi.owl#Institution"},
  {"id": "698",
   "name": "Albert Lusen",
   "type": "http://www.lombardinetworks.net/lombardi.owl#Person"},
  {"id": "697",
   "name": "John Siegrist",
   "type": "http://www.lombardinetworks.net/lombardi.owl#Person"},
  {"id": "696",
   "name": "Space Research Corp - US/Canada -",
   "type": "http://www.lombardinetworks.net/lombardi.owl#Institution"},
  {"id": "695",
   "name": "Canadian Commercial Corp",
   "type": "http://www.lombardinetworks.net/lombardi.owl#Institution"},
  {"id": "694",
   "name": "Gerry Bull founder chmn",
   "type": "http://www.lombardinetworks.net/lombardi.owl#Person"},
  {"id": "693",
   "name": "Richard Bissell dep dir CIA",
   "type": "http://www.lombardinetworks.net/lombardi.owl#Person"},
  {"id": "692",
   "name": "Robert Bennett",
   "type": "http://www.lombardinetworks.net/lombardi.owl#Person"},
  {"id": "691",
   "name": "Gen. Arthur Trudeau US Army (ret'd)",
   "type": "http://www.lombardinetworks.net/lombardi.owl#Person"},
  {"id": "690",
   "name": "Stanley Pottinger",
   "type": "http://www.lombardinetworks.net/lombardi.owl#Person"},
  {"id": "689",
   "name": "Sterling Cole dir AEC",
   "type": "http://www.lombardinetworks.net/lombardi.owl#Person"},
  {"id": "688",
   "name": "Memorial Drive Trust",
   "type": "http://www.lombardinetworks.net/lombardi.owl#Institution"},
  {"id": "687",
   "name": "Jean de Valpine",
   "type": "http://www.lombardinetworks.net/lombardi.owl#Person"},
  {"id": "686",
   "name": "Arthur S. Little Inc. - Cambridge - Mass",
   "type": "http://www.lombardinetworks.net/lombardi.owl#Institution"},
  {"id": "685",
   "name": "Gen. James Gavin",
   "type": "http://www.lombardinetworks.net/lombardi.owl#Person"},
  {"id": "684",
   "name": "Great West Saddlery - Canada",
   "type": "http://www.lombardinetworks.net/lombardi.owl#Institution"},
  {"id": "683",
   "name": "Jack Cockwell",
   "type": "http://www.lombardinetworks.net/lombardi.owl#Person"},
  {"id": "682",
   "name": "EDPER Corp. - Canada -",
   "type": "http://www.lombardinetworks.net/lombardi.owl#Institution"},
  {"id": "681",
   "name": "Peter Bronfman",
   "type": "http://www.lombardinetworks.net/lombardi.owl#Person"},
  {"id": "680",
   "name": "Seagrams - Montreal -",
   "type": "http://www.lombardinetworks.net/lombardi.owl#Institution"},
  {"id": "679",
   "name": "Ed Bronfman",
   "type": "http://www.lombardinetworks.net/lombardi.owl#Person"},
  {"id": "678",
   "name": "Klaus Urbatzka",
   "type": "http://www.lombardinetworks.net/lombardi.owl#Person"},
  {"id": "677",
   "name": "Canadian Technical Industries",
   "type": "http://www.lombardinetworks.net/lombardi.owl#Institution"},
  {"id": "676",
   "name": "Patrick Giles",
   "type": "http://www.lombardinetworks.net/lombardi.owl#Person"},
  {"id": "675",
   "name": "Global Reedesay - Hamburg",
   "type": "http://www.lombardinetworks.net/lombardi.owl#Institution"},
  {"id": "674",
   "name": "Crechem - Belgium - ",
   "type": "http://www.lombardinetworks.net/lombardi.owl#Institution"},
  {"id": "673",
   "name": "Jean Duronsoy",
   "type": "http://www.lombardinetworks.net/lombardi.owl#Person"},
  {"id": "672",
   "name": "Soc. Gen. De Belgique - Brussels",
   "type": "http://www.lombardinetworks.net/lombardi.owl#Institution"},
  {"id": "671",
   "name": "Eurosystems - Brussels -",
   "type": "http://www.lombardinetworks.net/lombardi.owl#Institution"},
  {"id": "670",
   "name": "Saudi National Guard",
   "type": "http://www.lombardinetworks.net/lombardi.owl#Institution"},
  {"id": "669",
   "name": "Eurometaal - Neth -",
   "type": "http://www.lombardinetworks.net/lombardi.owl#Institution"},
  {"id": "668",
   "name": "Paul Rigo",
   "type": "http://www.lombardinetworks.net/lombardi.owl#Person"},
  {"id": "667",
   "name": "SRC Int'l - Brussels -",
   "type": "http://www.lombardinetworks.net/lombardi.owl#Institution"},
  {"id": "666",
   "name": "Explosives Rio Tinto - Spain -",
   "type": "http://www.lombardinetworks.net/lombardi.owl#Institution"},
  {"id": "665",
   "name": "Luis Palacio",
   "type": "http://www.lombardinetworks.net/lombardi.owl#Person"},
  {"id": "664",
   "name": "Israeli Military Inds - Tel Aviv -",
   "type": "http://www.lombardinetworks.net/lombardi.owl#Institution"},
  {"id": "663",
   "name": "SRC US - N.Tray VT -",
   "type": "http://www.lombardinetworks.net/lombardi.owl#Institution"},
  {"id": "662",
   "name": "Chamberlain Manu. - Scranton -",
   "type": "http://www.lombardinetworks.net/lombardi.owl#Institution"},
  {"id": "661",
   "name": "Rodgers Gregory",
   "type": "http://www.lombardinetworks.net/lombardi.owl#Person"},
  {"id": "660",
   "name": "Dutch Defense Ministry",
   "type": "http://www.lombardinetworks.net/lombardi.owl#Institution"},
  {"id": "659",
   "name": "Paragon Holdings - Caymans -",
   "type": "http://www.lombardinetworks.net/lombardi.owl#Institution"},
  {"id": "658",
   "name": "1978: target of US Customs probe; dissolved; paid $105 k fine",
   "type": "http://www.lombardinetworks.net/lombardi.owl#FinalInfo"},
  {"id": "657",
   "name": "1980: target of US Customs probe",
   "type": "http://www.lombardinetworks.net/lombardi.owl#FinalInfo"},
  {"id": "656",
   "name": "1980: plead guilty to arms smuggling; 6 months",
   "type": "http://www.lombardinetworks.net/lombardi.owl#FinalInfo"},
  {"id": "655",
   "name": "1978: died after suspicious fall down staircase",
   "type": "http://www.lombardinetworks.net/lombardi.owl#FinalInfo"}

   ],
   "links": [
   {"source": "745",
   "target": "744",
   "amount": "",
   "type": "http://www.lombardinetworks.net/lombardi.owl#InfluenceControl"},
  {"source": "744",
   "target": "739",
   "amount": "",
   "type": "http://www.lombardinetworks.net/lombardi.owl#FinancialTransaction"},
  {"source": "744",
   "target": "738",
   "amount": "",
   "type": "http://www.lombardinetworks.net/lombardi.owl#Association"},
  {"source": "744",
   "target": "734",
   "amount": "",
   "type": "http://www.lombardinetworks.net/lombardi.owl#SaleTransfer"},
  {"source": "744",
   "target": "729",
   "amount": "",
   "type": "http://www.lombardinetworks.net/lombardi.owl#Association"},
  {"source": "744",
   "target": "724",
   "amount": "",
   "type": "http://www.lombardinetworks.net/lombardi.owl#InfluenceControl"},
  {"source": "744",
   "target": "723",
   "amount": "",
   "type": "http://www.lombardinetworks.net/lombardi.owl#Association"},
  {"source": "744",
   "target": "722",
   "amount": "",
   "type": "http://www.lombardinetworks.net/lombardi.owl#InfluenceControl"},
  {"source": "744",
   "target": "720",
   "amount": "",
   "type": "http://www.lombardinetworks.net/lombardi.owl#Association"},
  {"source": "744",
   "target": "719",
   "amount": "",
   "type": "http://www.lombardinetworks.net/lombardi.owl#InfluenceControl"},
  {"source": "744",
   "target": "718",
   "amount": "",
   "type": "http://www.lombardinetworks.net/lombardi.owl#Association"},
  {"source": "744",
   "target": "717",
   "amount": "",
   "type": "http://www.lombardinetworks.net/lombardi.owl#FinancialTransaction"},
  {"source": "743",
   "target": "744",
   "amount": "",
   "type": "http://www.lombardinetworks.net/lombardi.owl#InfluenceControl"},
  {"source": "742",
   "target": "744",
   "amount": "",
   "type": "http://www.lombardinetworks.net/lombardi.owl#InfluenceControl"},
  {"source": "741",
   "target": "744",
   "amount": "",
   "type": "http://www.lombardinetworks.net/lombardi.owl#InfluenceControl"},
  {"source": "740",
   "target": "744",
   "amount": "",
   "type": "http://www.lombardinetworks.net/lombardi.owl#Association"},
  {"source": "739",
   "target": "699",
   "amount": "",
   "type": "http://www.lombardinetworks.net/lombardi.owl#FinancialTransaction"},
  {"source": "737",
   "target": "738",
   "amount": "",
   "type": "http://www.lombardinetworks.net/lombardi.owl#Association"},
  {"source": "736",
   "target": "744",
   "amount": "",
   "type": "http://www.lombardinetworks.net/lombardi.owl#InfluenceControl"},
  {"source": "735",
   "target": "736",
   "amount": "",
   "type": "http://www.lombardinetworks.net/lombardi.owl#InfluenceControl"},
  {"source": "733",
   "target": "734",
   "amount": "",
   "type": "http://www.lombardinetworks.net/lombardi.owl#InfluenceControl"},
  {"source": "733",
   "target": "95",
   "amount": "",
   "type": "http://www.lombardinetworks.net/lombardi.owl#Association"},
  {"source": "732",
   "target": "733",
   "amount": "",
   "type": "http://www.lombardinetworks.net/lombardi.owl#InfluenceControl"},
  {"source": "732",
   "target": "677",
   "amount": "",
   "type": "http://www.lombardinetworks.net/lombardi.owl#InfluenceControl"},
  {"source": "731",
   "target": "733",
   "amount": "",
   "type": "http://www.lombardinetworks.net/lombardi.owl#InfluenceControl"},
  {"source": "730",
   "target": "733",
   "amount": "",
   "type": "http://www.lombardinetworks.net/lombardi.owl#InfluenceControl"},
  {"source": "728",
   "target": "729",
   "amount": "",
   "type": "http://www.lombardinetworks.net/lombardi.owl#InfluenceControl"},
  {"source": "727",
   "target": "744",
   "amount": "",
   "type": "http://www.lombardinetworks.net/lombardi.owl#InfluenceControl"},
  {"source": "727",
   "target": "726",
   "amount": "",
   "type": "http://www.lombardinetworks.net/lombardi.owl#InfluenceControl"},
  {"source": "727",
   "target": "725",
   "amount": "",
   "type": "http://www.lombardinetworks.net/lombardi.owl#InfluenceControl"},
  {"source": "724",
   "target": "677",
   "amount": "",
   "type": "http://www.lombardinetworks.net/lombardi.owl#InfluenceControl"},
  {"source": "723",
   "target": "696",
   "amount": "",
   "type": "http://www.lombardinetworks.net/lombardi.owl#InfluenceControl"},
  {"source": "723",
   "target": "675",
   "amount": "",
   "type": "http://www.lombardinetworks.net/lombardi.owl#Association"},
  {"source": "722",
   "target": "675",
   "amount": "",
   "type": "http://www.lombardinetworks.net/lombardi.owl#InfluenceControl"},
  {"source": "721",
   "target": "744",
   "amount": "",
   "type": "http://www.lombardinetworks.net/lombardi.owl#InfluenceControl"},
  {"source": "719",
   "target": "704",
   "amount": "",
   "type": "http://www.lombardinetworks.net/lombardi.owl#InfluenceControl"},
  {"source": "717",
   "target": "718",
   "amount": "",
   "type": "http://www.lombardinetworks.net/lombardi.owl#FinancialTransaction"},
  {"source": "715",
   "target": "664",
   "amount": "",
   "type": "http://www.lombardinetworks.net/lombardi.owl#InfluenceControl"},
  {"source": "714",
   "target": "715",
   "amount": "",
   "type": "http://www.lombardinetworks.net/lombardi.owl#InfluenceControl"},
  {"source": "713",
   "target": "715",
   "amount": "",
   "type": "http://www.lombardinetworks.net/lombardi.owl#InfluenceControl"},
  {"source": "712",
   "target": "715",
   "amount": "",
   "type": "http://www.lombardinetworks.net/lombardi.owl#InfluenceControl"},
  {"source": "712",
   "target": "711",
   "amount": "",
   "type": "http://www.lombardinetworks.net/lombardi.owl#Association"},
  {"source": "711",
   "target": "710",
   "amount": "",
   "type": "http://www.lombardinetworks.net/lombardi.owl#InfluenceControl"},
  {"source": "710",
   "target": "720",
   "amount": "",
   "type": "http://www.lombardinetworks.net/lombardi.owl#Association"},
  {"source": "709",
   "target": "710",
   "amount": "",
   "type": "http://www.lombardinetworks.net/lombardi.owl#Association"},
  {"source": "709",
   "target": "704",
   "amount": "",
   "type": "http://www.lombardinetworks.net/lombardi.owl#Association"},
  {"source": "709",
   "target": "667",
   "amount": "",
   "type": "http://www.lombardinetworks.net/lombardi.owl#Association"},
  {"source": "708",
   "target": "710",
   "amount": "",
   "type": "http://www.lombardinetworks.net/lombardi.owl#InfluenceControl"},
  {"source": "707",
   "target": "710",
   "amount": "",
   "type": "http://www.lombardinetworks.net/lombardi.owl#Association"},
  {"source": "706",
   "target": "707",
   "amount": "",
   "type": "http://www.lombardinetworks.net/lombardi.owl#Association"},
  {"source": "706",
   "target": "709",
   "amount": "",
   "type": "http://www.lombardinetworks.net/lombardi.owl#InfluenceControl"},
  {"source": "706",
   "target": "705",
   "amount": "",
   "type": "http://www.lombardinetworks.net/lombardi.owl#InfluenceControl"},
  {"source": "705",
   "target": "704",
   "amount": "",
   "type": "http://www.lombardinetworks.net/lombardi.owl#InfluenceControl"},
  {"source": "704",
   "target": "667",
   "amount": "",
   "type": "http://www.lombardinetworks.net/lombardi.owl#InfluenceControl"},
  {"source": "704",
   "target": "659",
   "amount": "",
   "type": "http://www.lombardinetworks.net/lombardi.owl#Association"},
  {"source": "703",
   "target": "718",
   "amount": "",
   "type": "http://www.lombardinetworks.net/lombardi.owl#InfluenceControl"},
  {"source": "702",
   "target": "718",
   "amount": "",
   "type": "http://www.lombardinetworks.net/lombardi.owl#Association"},
  {"source": "701",
   "target": "718",
   "amount": "",
   "type": "http://www.lombardinetworks.net/lombardi.owl#Association"},
  {"source": "700",
   "target": "718",
   "amount": "",
   "type": "http://www.lombardinetworks.net/lombardi.owl#Association"},
  {"source": "700",
   "target": "706",
   "amount": "",
   "type": "http://www.lombardinetworks.net/lombardi.owl#Association"},
  {"source": "699",
   "target": "696",
   "amount": "",
   "type": "http://www.lombardinetworks.net/lombardi.owl#FinancialTransaction"},
  {"source": "698",
   "target": "699",
   "amount": "",
   "type": "http://www.lombardinetworks.net/lombardi.owl#InfluenceControl"},
  {"source": "697",
   "target": "699",
   "amount": "",
   "type": "http://www.lombardinetworks.net/lombardi.owl#InfluenceControl"},
  {"source": "696",
   "target": "725",
   "amount": "",
   "type": "http://www.lombardinetworks.net/lombardi.owl#InfluenceControl"},
  {"source": "696",
   "target": "677",
   "amount": "",
   "type": "http://www.lombardinetworks.net/lombardi.owl#InfluenceControl"},
  {"source": "696",
   "target": "675",
   "amount": "",
   "type": "http://www.lombardinetworks.net/lombardi.owl#Association"},
  {"source": "696",
   "target": "720",
   "amount": "",
   "type": "http://www.lombardinetworks.net/lombardi.owl#Association"},
  {"source": "696",
   "target": "710",
   "amount": "",
   "type": "http://www.lombardinetworks.net/lombardi.owl#Association"},
  {"source": "696",
   "target": "660",
   "amount": "",
   "type": "http://www.lombardinetworks.net/lombardi.owl#Association"},
  {"source": "696",
   "target": "667",
   "amount": "",
   "type": "http://www.lombardinetworks.net/lombardi.owl#InfluenceControl"},
  {"source": "696",
   "target": "659",
   "amount": "",
   "type": "http://www.lombardinetworks.net/lombardi.owl#InfluenceControl"},
  {"source": "695",
   "target": "696",
   "amount": "",
   "type": "http://www.lombardinetworks.net/lombardi.owl#FinancialTransaction"},
  {"source": "694",
   "target": "696",
   "amount": "",
   "type": "http://www.lombardinetworks.net/lombardi.owl#InfluenceControl"},
  {"source": "693",
   "target": "696",
   "amount": "",
   "type": "http://www.lombardinetworks.net/lombardi.owl#InfluenceControl"},
  {"source": "692",
   "target": "696",
   "amount": "",
   "type": "http://www.lombardinetworks.net/lombardi.owl#Association"},
  {"source": "691",
   "target": "696",
   "amount": "",
   "type": "http://www.lombardinetworks.net/lombardi.owl#InfluenceControl"},
  {"source": "690",
   "target": "696",
   "amount": "",
   "type": "http://www.lombardinetworks.net/lombardi.owl#Association"},
  {"source": "689",
   "target": "696",
   "amount": "",
   "type": "http://www.lombardinetworks.net/lombardi.owl#InfluenceControl"},
  {"source": "688",
   "target": "696",
   "amount": "",
   "type": "http://www.lombardinetworks.net/lombardi.owl#InfluenceControl"},
  {"source": "687",
   "target": "688",
   "amount": "",
   "type": "http://www.lombardinetworks.net/lombardi.owl#InfluenceControl"},
  {"source": "686",
   "target": "688",
   "amount": "",
   "type": "http://www.lombardinetworks.net/lombardi.owl#InfluenceControl"},
  {"source": "685",
   "target": "686",
   "amount": "",
   "type": "http://www.lombardinetworks.net/lombardi.owl#InfluenceControl"},
  {"source": "684",
   "target": "696",
   "amount": "",
   "type": "http://www.lombardinetworks.net/lombardi.owl#InfluenceControl"},
  {"source": "683",
   "target": "684",
   "amount": "",
   "type": "http://www.lombardinetworks.net/lombardi.owl#InfluenceControl"},
  {"source": "682",
   "target": "684",
   "amount": "",
   "type": "http://www.lombardinetworks.net/lombardi.owl#InfluenceControl"},
  {"source": "682",
   "target": "680",
   "amount": "",
   "type": "http://www.lombardinetworks.net/lombardi.owl#InfluenceControl"},
  {"source": "681",
   "target": "682",
   "amount": "",
   "type": "http://www.lombardinetworks.net/lombardi.owl#InfluenceControl"},
  {"source": "679",
   "target": "682",
   "amount": "",
   "type": "http://www.lombardinetworks.net/lombardi.owl#InfluenceControl"},
  {"source": "678",
   "target": "725",
   "amount": "",
   "type": "http://www.lombardinetworks.net/lombardi.owl#InfluenceControl"},
  {"source": "676",
   "target": "677",
   "amount": "",
   "type": "http://www.lombardinetworks.net/lombardi.owl#Association"},
  {"source": "674",
   "target": "710",
   "amount": "",
   "type": "http://www.lombardinetworks.net/lombardi.owl#InfluenceControl"},
  {"source": "673",
   "target": "674",
   "amount": "",
   "type": "http://www.lombardinetworks.net/lombardi.owl#InfluenceControl"},
  {"source": "672",
   "target": "674",
   "amount": "",
   "type": "http://www.lombardinetworks.net/lombardi.owl#InfluenceControl"},
  {"source": "672",
   "target": "671",
   "amount": "",
   "type": "http://www.lombardinetworks.net/lombardi.owl#InfluenceControl"},
  {"source": "671",
   "target": "669",
   "amount": "",
   "type": "http://www.lombardinetworks.net/lombardi.owl#InfluenceControl"},
  {"source": "670",
   "target": "671",
   "amount": "",
   "type": "http://www.lombardinetworks.net/lombardi.owl#Association"},
  {"source": "669",
   "target": "667",
   "amount": "",
   "type": "http://www.lombardinetworks.net/lombardi.owl#Association"},
  {"source": "669",
   "target": "660",
   "amount": "",
   "type": "http://www.lombardinetworks.net/lombardi.owl#Association"},
  {"source": "668",
   "target": "710",
   "amount": "",
   "type": "http://www.lombardinetworks.net/lombardi.owl#InfluenceControl"},
  {"source": "668",
   "target": "667",
   "amount": "",
   "type": "http://www.lombardinetworks.net/lombardi.owl#InfluenceControl"},
  {"source": "666",
   "target": "667",
   "amount": "",
   "type": "http://www.lombardinetworks.net/lombardi.owl#Association"},
  {"source": "665",
   "target": "667",
   "amount": "",
   "type": "http://www.lombardinetworks.net/lombardi.owl#InfluenceControl"},
  {"source": "664",
   "target": "744",
   "amount": "",
   "type": "http://www.lombardinetworks.net/lombardi.owl#Association"},
  {"source": "664",
   "target": "667",
   "amount": "",
   "type": "http://www.lombardinetworks.net/lombardi.owl#Association"},
  {"source": "664",
   "target": "669",
   "amount": "",
   "type": "http://www.lombardinetworks.net/lombardi.owl#Association"},
  {"source": "664",
   "target": "663",
   "amount": "",
   "type": "http://www.lombardinetworks.net/lombardi.owl#Association"},
  {"source": "662",
   "target": "663",
   "amount": "",
   "type": "http://www.lombardinetworks.net/lombardi.owl#Association"},
  {"source": "661",
   "target": "663",
   "amount": "",
   "type": "http://www.lombardinetworks.net/lombardi.owl#InfluenceControl"},
  {"source": "658",
   "target": "696",
   "amount": "",
   "type": "http://www.lombardinetworks.net/lombardi.owl#Final"},
  {"source": "657",
   "target": "659",
   "amount": "",
   "type": "http://www.lombardinetworks.net/lombardi.owl#Final"},
  {"source": "657",
   "target": "719",
   "amount": "",
   "type": "http://www.lombardinetworks.net/lombardi.owl#Final"},
  {"source": "657",
   "target": "744",
   "amount": "",
   "type": "http://www.lombardinetworks.net/lombardi.owl#Final"},
  {"source": "656",
   "target": "661",
   "amount": "",
   "type": "http://www.lombardinetworks.net/lombardi.owl#Final"},
  {"source": "656",
   "target": "694",
   "amount": "",
   "type": "http://www.lombardinetworks.net/lombardi.owl#Final"},
  {"source": "655",
   "target": "708",
   "amount": "",
   "type": "http://www.lombardinetworks.net/lombardi.owl#Final"}
 ]
}