
{
  "title": "Global Int'l Airways and Indian Springs State Bank, Kansas City c.1977-83 (3rd version)",
  "nodes": [
   {"id": "578",
   "name": "IMTC",
   "type": "http://www.lombardinetworks.net/lombardi.owl#Institution"},
  {"id": "577",
   "name": "Steve Samos",
   "type": "http://www.lombardinetworks.net/lombardi.owl#Person"},
  {"id": "576",
   "name": "Mario Renda",
   "type": "http://www.lombardinetworks.net/lombardi.owl#Person"},
  {"id": "575",
   "name": "Cent Nat Bk",
   "type": "http://www.lombardinetworks.net/lombardi.owl#Institution"},
  {"id": "574",
   "name": "Arab Int'l Bk",
   "type": "http://www.lombardinetworks.net/lombardi.owl#Institution"},
  {"id": "573",
   "name": "Comm Credit Corp",
   "type": "http://www.lombardinetworks.net/lombardi.owl#Institution"},
  {"id": "572",
   "name": "Peter Wright",
   "type": "http://www.lombardinetworks.net/lombardi.owl#Person"},
  {"id": "571",
   "name": "1st United Fund",
   "type": "http://www.lombardinetworks.net/lombardi.owl#Institution"},
  {"id": "570",
   "name": "Ruben Marquez",
   "type": "http://www.lombardinetworks.net/lombardi.owl#Person"},
  {"id": "569",
   "name": "Coronado S&L",
   "type": "http://www.lombardinetworks.net/lombardi.owl#Institution"},
  {"id": "568",
   "name": "Sherbrook",
   "type": "http://www.lombardinetworks.net/lombardi.owl#Institution"},
  {"id": "567",
   "name": "Houston Holding",
   "type": "http://www.lombardinetworks.net/lombardi.owl#Institution"},
  {"id": "566",
   "name": "Lawrence Iorizzo",
   "type": "http://www.lombardinetworks.net/lombardi.owl#Person"},
  {"id": "565",
   "name": "Leslie Winkler",
   "type": "http://www.lombardinetworks.net/lombardi.owl#Person"},
  {"id": "564",
   "name": "Franklin Winkler",
   "type": "http://www.lombardinetworks.net/lombardi.owl#Person"},
  {"id": "563",
   "name": "Sam Daily",
   "type": "http://www.lombardinetworks.net/lombardi.owl#Person"},
  {"id": "562",
   "name": "Fred Figge",
   "type": "http://www.lombardinetworks.net/lombardi.owl#Person"},
  {"id": "561",
   "name": "Haiku Holding",
   "type": "http://www.lombardinetworks.net/lombardi.owl#Institution"},
  {"id": "560",
   "name": "Owen Cudney",
   "type": "http://www.lombardinetworks.net/lombardi.owl#Person"},
  {"id": "559",
   "name": "Samuel Doe",
   "type": "http://www.lombardinetworks.net/lombardi.owl#Person"},
  {"id": "558",
   "name": "Tony Russo",
   "type": "http://www.lombardinetworks.net/lombardi.owl#Person"},
  {"id": "557",
   "name": "William Lemaster",
   "type": "http://www.lombardinetworks.net/lombardi.owl#Person"},
  {"id": "556",
   "name": "Ed Wilson",
   "type": "http://www.lombardinetworks.net/lombardi.owl#Person"},
  {"id": "555",
   "name": "Arcadia",
   "type": "http://www.lombardinetworks.net/lombardi.owl#Institution"},
  {"id": "554",
   "name": "Ted Shackley",
   "type": "http://www.lombardinetworks.net/lombardi.owl#Person"},
  {"id": "553",
   "name": "Gen Richard Secord",
   "type": "http://www.lombardinetworks.net/lombardi.owl#Person"},
  {"id": "552",
   "name": "SSI",
   "type": "http://www.lombardinetworks.net/lombardi.owl#Institution"},
  {"id": "551",
   "name": "Tom Clines",
   "type": "http://www.lombardinetworks.net/lombardi.owl#Person"},
  {"id": "550",
   "name": "EATSCO",
   "type": "http://www.lombardinetworks.net/lombardi.owl#Institution"},
  {"id": "549",
   "name": "Evergreen Air",
   "type": "http://www.lombardinetworks.net/lombardi.owl#Institution"},
  {"id": "548",
   "name": "So Air Trans",
   "type": "http://www.lombardinetworks.net/lombardi.owl#Institution"},
  {"id": "547",
   "name": "Iran Contra ops",
   "type": "http://www.lombardinetworks.net/lombardi.owl#Institution"},
  {"id": "546",
   "name": "Race Aviation",
   "type": "http://www.lombardinetworks.net/lombardi.owl#Institution"},
  {"id": "545",
   "name": "Global HK",
   "type": "http://www.lombardinetworks.net/lombardi.owl#Institution"},
  {"id": "544",
   "name": "Fariborz Azima",
   "type": "http://www.lombardinetworks.net/lombardi.owl#Person"},
  {"id": "543",
   "name": "Farzin Azima",
   "type": "http://www.lombardinetworks.net/lombardi.owl#Person"},
  {"id": "542",
   "name": "Global Int'l Air",
   "type": "http://www.lombardinetworks.net/lombardi.owl#Institution"},
  {"id": "541",
   "name": "Capitol Air",
   "type": "http://www.lombardinetworks.net/lombardi.owl#Institution"},
  {"id": "540",
   "name": "Farhad Azima",
   "type": "http://www.lombardinetworks.net/lombardi.owl#Person"},
  {"id": "539",
   "name": "Carl Caruso",
   "type": "http://www.lombardinetworks.net/lombardi.owl#Person"},
  {"id": "538",
   "name": "Trop. Vegas",
   "type": "http://www.lombardinetworks.net/lombardi.owl#Institution"},
  {"id": "537",
   "name": "Carmen Civella",
   "type": "http://www.lombardinetworks.net/lombardi.owl#Person"},
  {"id": "536",
   "name": "Gas Co.",
   "type": "http://www.lombardinetworks.net/lombardi.owl#Institution"},
  {"id": "535",
   "name": "Jay Finn",
   "type": "http://www.lombardinetworks.net/lombardi.owl#Person"},
  {"id": "534",
   "name": "Indian Springs St Bk",
   "type": "http://www.lombardinetworks.net/lombardi.owl#Institution"},
  {"id": "533",
   "name": "Joey \"Doves\" Aiuppa",
   "type": "http://www.lombardinetworks.net/lombardi.owl#Person"},
  {"id": "532",
   "name": "Allen Dorfman",
   "type": "http://www.lombardinetworks.net/lombardi.owl#Person"},
  {"id": "531",
   "name": "Morris Shenker",
   "type": "http://www.lombardinetworks.net/lombardi.owl#Person"},
  {"id": "530",
   "name": "Dunes Vegas",
   "type": "http://www.lombardinetworks.net/lombardi.owl#Institution"},
  {"id": "529",
   "name": "TCSPF",
   "type": "http://www.lombardinetworks.net/lombardi.owl#Institution"}

   ],
   "links": [
   {"source": "577",
   "target": "578",
   "amount": "",
   "type": "http://www.lombardinetworks.net/lombardi.owl#InfluenceControl"},
  {"source": "576",
   "target": "574",
   "amount": "",
   "type": "http://www.lombardinetworks.net/lombardi.owl#InfluenceControl"},
  {"source": "576",
   "target": "568",
   "amount": "",
   "type": "http://www.lombardinetworks.net/lombardi.owl#InfluenceControl"},
  {"source": "576",
   "target": "571",
   "amount": "",
   "type": "http://www.lombardinetworks.net/lombardi.owl#InfluenceControl"},
  {"source": "575",
   "target": "567",
   "amount": "",
   "type": "http://www.lombardinetworks.net/lombardi.owl#FinancialTransaction"},
  {"source": "574",
   "target": "542",
   "amount": "",
   "type": "http://www.lombardinetworks.net/lombardi.owl#FinancialTransaction"},
  {"source": "573",
   "target": "542",
   "amount": "",
   "type": "http://www.lombardinetworks.net/lombardi.owl#FinancialTransaction"},
  {"source": "572",
   "target": "534",
   "amount": "",
   "type": "http://www.lombardinetworks.net/lombardi.owl#InfluenceControl"},
  {"source": "571",
   "target": "575",
   "amount": "",
   "type": "http://www.lombardinetworks.net/lombardi.owl#FinancialTransaction"},
  {"source": "571",
   "target": "534",
   "amount": "",
   "type": "http://www.lombardinetworks.net/lombardi.owl#FinancialTransaction"},
  {"source": "571",
   "target": "569",
   "amount": "",
   "type": "http://www.lombardinetworks.net/lombardi.owl#FinancialTransaction"},
  {"source": "570",
   "target": "569",
   "amount": "",
   "type": "http://www.lombardinetworks.net/lombardi.owl#InfluenceControl"},
  {"source": "569",
   "target": "542",
   "amount": "",
   "type": "http://www.lombardinetworks.net/lombardi.owl#FinancialTransaction"},
  {"source": "569",
   "target": "561",
   "amount": "",
   "type": "http://www.lombardinetworks.net/lombardi.owl#FinancialTransaction"},
  {"source": "568",
   "target": "561",
   "amount": "",
   "type": "http://www.lombardinetworks.net/lombardi.owl#InfluenceControl"},
  {"source": "567",
   "target": "577",
   "amount": "",
   "type": "http://www.lombardinetworks.net/lombardi.owl#Association"},
  {"source": "566",
   "target": "567",
   "amount": "",
   "type": "http://www.lombardinetworks.net/lombardi.owl#InfluenceControl"},
  {"source": "565",
   "target": "566",
   "amount": "",
   "type": "http://www.lombardinetworks.net/lombardi.owl#Association"},
  {"source": "565",
   "target": "561",
   "amount": "",
   "type": "http://www.lombardinetworks.net/lombardi.owl#InfluenceControl"},
  {"source": "564",
   "target": "561",
   "amount": "",
   "type": "http://www.lombardinetworks.net/lombardi.owl#InfluenceControl"},
  {"source": "563",
   "target": "561",
   "amount": "",
   "type": "http://www.lombardinetworks.net/lombardi.owl#InfluenceControl"},
  {"source": "562",
   "target": "561",
   "amount": "",
   "type": "http://www.lombardinetworks.net/lombardi.owl#InfluenceControl"},
  {"source": "560",
   "target": "534",
   "amount": "",
   "type": "http://www.lombardinetworks.net/lombardi.owl#InfluenceControl"},
  {"source": "559",
   "target": "542",
   "amount": "",
   "type": "http://www.lombardinetworks.net/lombardi.owl#InfluenceControl"},
  {"source": "558",
   "target": "559",
   "amount": "",
   "type": "http://www.lombardinetworks.net/lombardi.owl#Association"},
  {"source": "558",
   "target": "542",
   "amount": "",
   "type": "http://www.lombardinetworks.net/lombardi.owl#InfluenceControl"},
  {"source": "558",
   "target": "534",
   "amount": "",
   "type": "http://www.lombardinetworks.net/lombardi.owl#InfluenceControl"},
  {"source": "557",
   "target": "542",
   "amount": "",
   "type": "http://www.lombardinetworks.net/lombardi.owl#InfluenceControl"},
  {"source": "557",
   "target": "534",
   "amount": "",
   "type": "http://www.lombardinetworks.net/lombardi.owl#InfluenceControl"},
  {"source": "556",
   "target": "555",
   "amount": "",
   "type": "http://www.lombardinetworks.net/lombardi.owl#InfluenceControl"},
  {"source": "555",
   "target": "552",
   "amount": "",
   "type": "http://www.lombardinetworks.net/lombardi.owl#InfluenceControl"},
  {"source": "554",
   "target": "552",
   "amount": "",
   "type": "http://www.lombardinetworks.net/lombardi.owl#InfluenceControl"},
  {"source": "553",
   "target": "552",
   "amount": "",
   "type": "http://www.lombardinetworks.net/lombardi.owl#InfluenceControl"},
  {"source": "552",
   "target": "550",
   "amount": "",
   "type": "http://www.lombardinetworks.net/lombardi.owl#InfluenceControl"},
  {"source": "551",
   "target": "552",
   "amount": "",
   "type": "http://www.lombardinetworks.net/lombardi.owl#InfluenceControl"},
  {"source": "551",
   "target": "550",
   "amount": "",
   "type": "http://www.lombardinetworks.net/lombardi.owl#InfluenceControl"},
  {"source": "546",
   "target": "547",
   "amount": "",
   "type": "http://www.lombardinetworks.net/lombardi.owl#Association"},
  {"source": "544",
   "target": "546",
   "amount": "",
   "type": "http://www.lombardinetworks.net/lombardi.owl#InfluenceControl"},
  {"source": "544",
   "target": "542",
   "amount": "",
   "type": "http://www.lombardinetworks.net/lombardi.owl#InfluenceControl"},
  {"source": "543",
   "target": "546",
   "amount": "",
   "type": "http://www.lombardinetworks.net/lombardi.owl#InfluenceControl"},
  {"source": "543",
   "target": "545",
   "amount": "",
   "type": "http://www.lombardinetworks.net/lombardi.owl#InfluenceControl"},
  {"source": "542",
   "target": "550",
   "amount": "",
   "type": "http://www.lombardinetworks.net/lombardi.owl#Association"},
  {"source": "542",
   "target": "549",
   "amount": "",
   "type": "http://www.lombardinetworks.net/lombardi.owl#Association"},
  {"source": "542",
   "target": "548",
   "amount": "",
   "type": "http://www.lombardinetworks.net/lombardi.owl#Association"},
  {"source": "542",
   "target": "545",
   "amount": "",
   "type": "http://www.lombardinetworks.net/lombardi.owl#InfluenceControl"},
  {"source": "540",
   "target": "544",
   "amount": "",
   "type": "http://www.lombardinetworks.net/lombardi.owl#Association"},
  {"source": "540",
   "target": "543",
   "amount": "",
   "type": "http://www.lombardinetworks.net/lombardi.owl#Association"},
  {"source": "540",
   "target": "542",
   "amount": "",
   "type": "http://www.lombardinetworks.net/lombardi.owl#InfluenceControl"},
  {"source": "540",
   "target": "541",
   "amount": "",
   "type": "http://www.lombardinetworks.net/lombardi.owl#InfluenceControl"},
  {"source": "540",
   "target": "534",
   "amount": "",
   "type": "http://www.lombardinetworks.net/lombardi.owl#InfluenceControl"},
  {"source": "539",
   "target": "534",
   "amount": "",
   "type": "http://www.lombardinetworks.net/lombardi.owl#FinancialTransaction"},
  {"source": "537",
   "target": "539",
   "amount": "",
   "type": "http://www.lombardinetworks.net/lombardi.owl#InfluenceControl"},
  {"source": "537",
   "target": "538",
   "amount": "",
   "type": "http://www.lombardinetworks.net/lombardi.owl#InfluenceControl"},
  {"source": "535",
   "target": "536",
   "amount": "",
   "type": "http://www.lombardinetworks.net/lombardi.owl#InfluenceControl"},
  {"source": "534",
   "target": "561",
   "amount": "",
   "type": "http://www.lombardinetworks.net/lombardi.owl#FinancialTransaction"},
  {"source": "534",
   "target": "542",
   "amount": "",
   "type": "http://www.lombardinetworks.net/lombardi.owl#FinancialTransaction"},
  {"source": "534",
   "target": "537",
   "amount": "",
   "type": "http://www.lombardinetworks.net/lombardi.owl#FinancialTransaction"},
  {"source": "534",
   "target": "530",
   "amount": "",
   "type": "http://www.lombardinetworks.net/lombardi.owl#FinancialTransaction"},
  {"source": "534",
   "target": "536",
   "amount": "",
   "type": "http://www.lombardinetworks.net/lombardi.owl#FinancialTransaction"},
  {"source": "534",
   "target": "533",
   "amount": "",
   "type": "http://www.lombardinetworks.net/lombardi.owl#FinancialTransaction"},
  {"source": "533",
   "target": "532",
   "amount": "",
   "type": "http://www.lombardinetworks.net/lombardi.owl#InfluenceControl"},
  {"source": "532",
   "target": "529",
   "amount": "",
   "type": "http://www.lombardinetworks.net/lombardi.owl#InfluenceControl"},
  {"source": "531",
   "target": "535",
   "amount": "",
   "type": "http://www.lombardinetworks.net/lombardi.owl#Association"},
  {"source": "531",
   "target": "530",
   "amount": "",
   "type": "http://www.lombardinetworks.net/lombardi.owl#InfluenceControl"},
  {"source": "529",
   "target": "531",
   "amount": "",
   "type": "http://www.lombardinetworks.net/lombardi.owl#FinancialTransaction"},
  {"source": "529",
   "target": "530",
   "amount": "",
   "type": "http://www.lombardinetworks.net/lombardi.owl#FinancialTransaction"}
 ]
}