
{
  "title": "Global International Airways and Indian Springs State Bank, Kansas City c.1977-83 (4th version)",
  "nodes": [
   {"id": "1933",
   "name": "1986: target of probe in US",
   "type": "http://www.lombardinetworks.net/lombardi.owl#FinalInfo"},
  {"id": "1932",
   "name": "White House/NSC staff operations",
   "type": "http://www.lombardinetworks.net/lombardi.owl#Institution"},
  {"id": "1931",
   "name": "1982: convicted of arms dealing etc.; sentenced to life",
   "type": "http://www.lombardinetworks.net/lombardi.owl#FinalInfo"},
  {"id": "1930",
   "name": "Edwin Wilson CIA 1951-?",
   "type": "http://www.lombardinetworks.net/lombardi.owl#Person"},
  {"id": "1929",
   "name": "Arcadia Ltd. - Liberia -",
   "type": "http://www.lombardinetworks.net/lombardi.owl#Institution"},
  {"id": "1928",
   "name": "Theodore Shackley CIA 1951-79",
   "type": "http://www.lombardinetworks.net/lombardi.owl#Person"},
  {"id": "1927",
   "name": "1989: forced to resign post",
   "type": "http://www.lombardinetworks.net/lombardi.owl#FinalInfo"},
  {"id": "1926",
   "name": "Gen. Richard Secord (USAF) dep asst sec Defence 1981-3",
   "type": "http://www.lombardinetworks.net/lombardi.owl#Person"},
  {"id": "1925",
   "name": "1983: plead guilty to fraud; finded; paid $ 10 k",
   "type": "http://www.lombardinetworks.net/lombardi.owl#FinalInfo"},
  {"id": "1924",
   "name": "Security Systems International - Bermuda -",
   "type": "http://www.lombardinetworks.net/lombardi.owl#Institution"},
  {"id": "1923",
   "name": "Thomas Clines CIA 1949-78",
   "type": "http://www.lombardinetworks.net/lombardi.owl#Person"},
  {"id": "1922",
   "name": "1983: plead guilty to fraud; finded; paid $ 3 mil+",
   "type": "http://www.lombardinetworks.net/lombardi.owl#FinalInfo"},
  {"id": "1921",
   "name": "Egyptian American Transport Service Co. - Va -",
   "type": "http://www.lombardinetworks.net/lombardi.owl#Institution"},
  {"id": "1920",
   "name": "George Selman",
   "type": "http://www.lombardinetworks.net/lombardi.owl#Person"},
  {"id": "1919",
   "name": "Southern Air Transport - Miami -",
   "type": "http://www.lombardinetworks.net/lombardi.owl#Institution"},
  {"id": "1918",
   "name": "Evergreen International Airlines - Marana AZ -",
   "type": "http://www.lombardinetworks.net/lombardi.owl#Institution"},
  {"id": "1917",
   "name": "David Gann",
   "type": "http://www.lombardinetworks.net/lombardi.owl#Person"},
  {"id": "1916",
   "name": "Robert Rase",
   "type": "http://www.lombardinetworks.net/lombardi.owl#Person"},
  {"id": "1915",
   "name": "1984: bankrupt",
   "type": "http://www.lombardinetworks.net/lombardi.owl#FinalInfo"},
  {"id": "1914",
   "name": "Republic Bank - Kansas City -",
   "type": "http://www.lombardinetworks.net/lombardi.owl#Institution"},
  {"id": "1913",
   "name": "1983: bankrupt",
   "type": "http://www.lombardinetworks.net/lombardi.owl#FinalInfo"},
  {"id": "1912",
   "name": "Mansoor Rasnavad",
   "type": "http://www.lombardinetworks.net/lombardi.owl#Person"},
  {"id": "1911",
   "name": "1989: failed; net worth $ 63 mil",
   "type": "http://www.lombardinetworks.net/lombardi.owl#FinalInfo"},
  {"id": "570",
   "name": "Ruben Marquez",
   "type": "http://www.lombardinetworks.net/lombardi.owl#Person"},
  {"id": "1910",
   "name": "Coronado Savings & Loan - Kansas City -",
   "type": "http://www.lombardinetworks.net/lombardi.owl#Institution"},
  {"id": "1909",
   "name": "1989: collapsed",
   "type": "http://www.lombardinetworks.net/lombardi.owl#FinalInfo"},
  {"id": "1908",
   "name": "Utica National Bank - Tulsa -",
   "type": "http://www.lombardinetworks.net/lombardi.owl#Institution"},
  {"id": "1907",
   "name": "Sherbrook Inc. - New York -",
   "type": "http://www.lombardinetworks.net/lombardi.owl#Institution"},
  {"id": "1906",
   "name": "Arab International Bank - Riyadh -",
   "type": "http://www.lombardinetworks.net/lombardi.owl#Institution"},
  {"id": "1905",
   "name": "Int'l Mgmt & Trust - Panama -",
   "type": "http://www.lombardinetworks.net/lombardi.owl#Institution"},
  {"id": "577",
   "name": "Steve Samos",
   "type": "http://www.lombardinetworks.net/lombardi.owl#Person"},
  {"id": "1904",
   "name": "1987: convicted of conspiracy",
   "type": "http://www.lombardinetworks.net/lombardi.owl#FinalInfo"},
  {"id": "563",
   "name": "Sam Daily",
   "type": "http://www.lombardinetworks.net/lombardi.owl#Person"},
  {"id": "1903",
   "name": "1990: plead guilty to fraud",
   "type": "http://www.lombardinetworks.net/lombardi.owl#FinalInfo"},
  {"id": "564",
   "name": "Franklin Winkler",
   "type": "http://www.lombardinetworks.net/lombardi.owl#Person"},
  {"id": "1902",
   "name": "1984: collapsed",
   "type": "http://www.lombardinetworks.net/lombardi.owl#FinalInfo"},
  {"id": "1901",
   "name": "Rexford State Bank - Kansas -",
   "type": "http://www.lombardinetworks.net/lombardi.owl#Institution"},
  {"id": "1900",
   "name": "1989: indicted for fraud; fled to Israel",
   "type": "http://www.lombardinetworks.net/lombardi.owl#FinalInfo"},
  {"id": "565",
   "name": "Leslie Winkler",
   "type": "http://www.lombardinetworks.net/lombardi.owl#Person"},
  {"id": "1899",
   "name": "c. 1978: indicted for racketeering",
   "type": "http://www.lombardinetworks.net/lombardi.owl#FinalInfo"},
  {"id": "566",
   "name": "Lawrence Iorizzo",
   "type": "http://www.lombardinetworks.net/lombardi.owl#Person"},
  {"id": "1898",
   "name": "Houston Holdings - Panama -",
   "type": "http://www.lombardinetworks.net/lombardi.owl#Institution"},
  {"id": "1897",
   "name": "1989: plead guilty to fraud; paid $ 10 mil",
   "type": "http://www.lombardinetworks.net/lombardi.owl#FinalInfo"},
  {"id": "576",
   "name": "Mario Renda",
   "type": "http://www.lombardinetworks.net/lombardi.owl#Person"},
  {"id": "1896",
   "name": "Central National Bank - New York -",
   "type": "http://www.lombardinetworks.net/lombardi.owl#Institution"},
  {"id": "1895",
   "name": "1983: target of probe in US",
   "type": "http://www.lombardinetworks.net/lombardi.owl#FinalInfo"},
  {"id": "1894",
   "name": "1978: FBI opens racketeering probe",
   "type": "http://www.lombardinetworks.net/lombardi.owl#FinalInfo"},
  {"id": "1893",
   "name": "Tropicana Casino - Vegas -",
   "type": "http://www.lombardinetworks.net/lombardi.owl#Institution"},
  {"id": "1892",
   "name": "1983: convicted of basketeering",
   "type": "http://www.lombardinetworks.net/lombardi.owl#FinalInfo"},
  {"id": "1891",
   "name": "1983: convicted of skimming casinos",
   "type": "http://www.lombardinetworks.net/lombardi.owl#FinalInfo"},
  {"id": "539",
   "name": "Carl Caruso",
   "type": "http://www.lombardinetworks.net/lombardi.owl#Person"},
  {"id": "1890",
   "name": "Carl Civella",
   "type": "http://www.lombardinetworks.net/lombardi.owl#Person"},
  {"id": "537",
   "name": "Carmen Civella",
   "type": "http://www.lombardinetworks.net/lombardi.owl#Person"},
  {"id": "1889",
   "name": "First United Fund - NY -",
   "type": "http://www.lombardinetworks.net/lombardi.owl#Institution"},
  {"id": "572",
   "name": "Peter Wright",
   "type": "http://www.lombardinetworks.net/lombardi.owl#Person"},
  {"id": "1888",
   "name": "Haiku Holdings - Honolulu -",
   "type": "http://www.lombardinetworks.net/lombardi.owl#Institution"},
  {"id": "560",
   "name": "Owen Cudney",
   "type": "http://www.lombardinetworks.net/lombardi.owl#Person"},
  {"id": "1887",
   "name": "1984: convicted of bribery & pimping; served 16 months 1989: sued by FDIC",
   "type": "http://www.lombardinetworks.net/lombardi.owl#FinalInfo"},
  {"id": "1886",
   "name": "Samuel Doe r. Liberia 1980-90",
   "type": "http://www.lombardinetworks.net/lombardi.owl#Person"},
  {"id": "1885",
   "name": "Anthony Russo",
   "type": "http://www.lombardinetworks.net/lombardi.owl#Person"},
  {"id": "1884",
   "name": "1984: collapsed; net worth -$20 mil",
   "type": "http://www.lombardinetworks.net/lombardi.owl#FinalInfo"},
  {"id": "1883",
   "name": "1983: died in mysterious car crash",
   "type": "http://www.lombardinetworks.net/lombardi.owl#FinalInfo"},
  {"id": "557",
   "name": "William Lemaster",
   "type": "http://www.lombardinetworks.net/lombardi.owl#Person"},
  {"id": "1882",
   "name": "Global International Airways - Hongkong -",
   "type": "http://www.lombardinetworks.net/lombardi.owl#Institution"},
  {"id": "1881",
   "name": "Race Aviation - Miami -",
   "type": "http://www.lombardinetworks.net/lombardi.owl#Institution"},
  {"id": "1880",
   "name": "Fariborz Azima",
   "type": "http://www.lombardinetworks.net/lombardi.owl#Person"},
  {"id": "543",
   "name": "Farzin Azima",
   "type": "http://www.lombardinetworks.net/lombardi.owl#Person"},
  {"id": "1879",
   "name": "1985: sued by FDIC; settled",
   "type": "http://www.lombardinetworks.net/lombardi.owl#FinalInfo"},
  {"id": "1878",
   "name": "1989: bankrupt",
   "type": "http://www.lombardinetworks.net/lombardi.owl#FinalInfo"},
  {"id": "1877",
   "name": "Capitol Air - Smyrna TN -",
   "type": "http://www.lombardinetworks.net/lombardi.owl#Institution"},
  {"id": "540",
   "name": "Farhad Azima",
   "type": "http://www.lombardinetworks.net/lombardi.owl#Person"},
  {"id": "1876",
   "name": "Global International Airways - Kansas City -",
   "type": "http://www.lombardinetworks.net/lombardi.owl#Institution"},
  {"id": "1875",
   "name": "jat fuel brokerage",
   "type": "http://www.lombardinetworks.net/lombardi.owl#Institution"},
  {"id": "1874",
   "name": "Jay Finn",
   "type": "http://www.lombardinetworks.net/lombardi.owl#Person"},
  {"id": "1873",
   "name": "1984: bankrupt; net work -$197 mil",
   "type": "http://www.lombardinetworks.net/lombardi.owl#FinalInfo"},
  {"id": "533",
   "name": "Joey \"Doves\" Aiuppa",
   "type": "http://www.lombardinetworks.net/lombardi.owl#Person"},
  {"id": "1872",
   "name": "1988: bankrupt; net workth -$117 mil",
   "type": "http://www.lombardinetworks.net/lombardi.owl#FinalInfo"},
  {"id": "1871",
   "name": "Indian Springs State Bank - Kansas City -",
   "type": "http://www.lombardinetworks.net/lombardi.owl#Institution"},
  {"id": "532",
   "name": "Allen Dorfman",
   "type": "http://www.lombardinetworks.net/lombardi.owl#Person"},
  {"id": "531",
   "name": "Morris Shenker",
   "type": "http://www.lombardinetworks.net/lombardi.owl#Person"},
  {"id": "1870",
   "name": "Dunes hotel & Casino - Vegas -",
   "type": "http://www.lombardinetworks.net/lombardi.owl#Institution"},
  {"id": "1869",
   "name": "Teamsters Central States Pension Fund",
   "type": "http://www.lombardinetworks.net/lombardi.owl#Institution"}

   ],
   "links": [
   {"source": "1933",
   "target": "1881",
   "amount": "",
   "type": "http://www.lombardinetworks.net/lombardi.owl#Final"},
  {"source": "1932",
   "target": "1881",
   "amount": "",
   "type": "http://www.lombardinetworks.net/lombardi.owl#Association"},
  {"source": "1931",
   "target": "1930",
   "amount": "",
   "type": "http://www.lombardinetworks.net/lombardi.owl#Final"},
  {"source": "1930",
   "target": "1929",
   "amount": "",
   "type": "http://www.lombardinetworks.net/lombardi.owl#InfluenceControl"},
  {"source": "1929",
   "target": "1924",
   "amount": "",
   "type": "http://www.lombardinetworks.net/lombardi.owl#InfluenceControl"},
  {"source": "1928",
   "target": "1924",
   "amount": "",
   "type": "http://www.lombardinetworks.net/lombardi.owl#Association"},
  {"source": "1927",
   "target": "1926",
   "amount": "",
   "type": "http://www.lombardinetworks.net/lombardi.owl#Final"},
  {"source": "1926",
   "target": "1924",
   "amount": "",
   "type": "http://www.lombardinetworks.net/lombardi.owl#InfluenceControl"},
  {"source": "1925",
   "target": "1923",
   "amount": "",
   "type": "http://www.lombardinetworks.net/lombardi.owl#Final"},
  {"source": "1924",
   "target": "1921",
   "amount": "",
   "type": "http://www.lombardinetworks.net/lombardi.owl#InfluenceControl"},
  {"source": "1923",
   "target": "1924",
   "amount": "",
   "type": "http://www.lombardinetworks.net/lombardi.owl#InfluenceControl"},
  {"source": "1923",
   "target": "1921",
   "amount": "",
   "type": "http://www.lombardinetworks.net/lombardi.owl#InfluenceControl"},
  {"source": "1922",
   "target": "1921",
   "amount": "",
   "type": "http://www.lombardinetworks.net/lombardi.owl#Final"},
  {"source": "1920",
   "target": "1876",
   "amount": "",
   "type": "http://www.lombardinetworks.net/lombardi.owl#InfluenceControl"},
  {"source": "1919",
   "target": "1876",
   "amount": "",
   "type": "http://www.lombardinetworks.net/lombardi.owl#Association"},
  {"source": "1918",
   "target": "1876",
   "amount": "",
   "type": "http://www.lombardinetworks.net/lombardi.owl#Association"},
  {"source": "1917",
   "target": "1876",
   "amount": "",
   "type": "http://www.lombardinetworks.net/lombardi.owl#InfluenceControl"},
  {"source": "1916",
   "target": "1876",
   "amount": "",
   "type": "http://www.lombardinetworks.net/lombardi.owl#InfluenceControl"},
  {"source": "1915",
   "target": "1914",
   "amount": "",
   "type": "http://www.lombardinetworks.net/lombardi.owl#Final"},
  {"source": "1914",
   "target": "1876",
   "amount": "",
   "type": "http://www.lombardinetworks.net/lombardi.owl#FinancialTransaction"},
  {"source": "1913",
   "target": "1876",
   "amount": "",
   "type": "http://www.lombardinetworks.net/lombardi.owl#Final"},
  {"source": "1912",
   "target": "1876",
   "amount": "",
   "type": "http://www.lombardinetworks.net/lombardi.owl#InfluenceControl"},
  {"source": "1911",
   "target": "1910",
   "amount": "",
   "type": "http://www.lombardinetworks.net/lombardi.owl#Final"},
  {"source": "570",
   "target": "1910",
   "amount": "",
   "type": "http://www.lombardinetworks.net/lombardi.owl#InfluenceControl"},
  {"source": "1910",
   "target": "1876",
   "amount": "",
   "type": "http://www.lombardinetworks.net/lombardi.owl#FinancialTransaction"},
  {"source": "1910",
   "target": "1888",
   "amount": "",
   "type": "http://www.lombardinetworks.net/lombardi.owl#FinancialTransaction"},
  {"source": "1909",
   "target": "1908",
   "amount": "",
   "type": "http://www.lombardinetworks.net/lombardi.owl#Final"},
  {"source": "1908",
   "target": "1876",
   "amount": "",
   "type": "http://www.lombardinetworks.net/lombardi.owl#FinancialTransaction"},
  {"source": "1907",
   "target": "1888",
   "amount": "",
   "type": "http://www.lombardinetworks.net/lombardi.owl#InfluenceControl"},
  {"source": "1906",
   "target": "1876",
   "amount": "",
   "type": "http://www.lombardinetworks.net/lombardi.owl#FinancialTransaction"},
  {"source": "577",
   "target": "1905",
   "amount": "",
   "type": "http://www.lombardinetworks.net/lombardi.owl#InfluenceControl"},
  {"source": "577",
   "target": "1898",
   "amount": "",
   "type": "http://www.lombardinetworks.net/lombardi.owl#Association"},
  {"source": "1904",
   "target": "563",
   "amount": "",
   "type": "http://www.lombardinetworks.net/lombardi.owl#Final"},
  {"source": "563",
   "target": "1888",
   "amount": "",
   "type": "http://www.lombardinetworks.net/lombardi.owl#InfluenceControl"},
  {"source": "1903",
   "target": "564",
   "amount": "",
   "type": "http://www.lombardinetworks.net/lombardi.owl#Final"},
  {"source": "564",
   "target": "1888",
   "amount": "",
   "type": "http://www.lombardinetworks.net/lombardi.owl#InfluenceControl"},
  {"source": "1902",
   "target": "1901",
   "amount": "",
   "type": "http://www.lombardinetworks.net/lombardi.owl#Final"},
  {"source": "1901",
   "target": "1888",
   "amount": "",
   "type": "http://www.lombardinetworks.net/lombardi.owl#FinancialTransaction"},
  {"source": "1900",
   "target": "565",
   "amount": "",
   "type": "http://www.lombardinetworks.net/lombardi.owl#Final"},
  {"source": "565",
   "target": "1888",
   "amount": "",
   "type": "http://www.lombardinetworks.net/lombardi.owl#InfluenceControl"},
  {"source": "1899",
   "target": "566",
   "amount": "",
   "type": "http://www.lombardinetworks.net/lombardi.owl#Final"},
  {"source": "566",
   "target": "565",
   "amount": "",
   "type": "http://www.lombardinetworks.net/lombardi.owl#Association"},
  {"source": "566",
   "target": "1898",
   "amount": "",
   "type": "http://www.lombardinetworks.net/lombardi.owl#InfluenceControl"},
  {"source": "1897",
   "target": "576",
   "amount": "",
   "type": "http://www.lombardinetworks.net/lombardi.owl#Final"},
  {"source": "576",
   "target": "1907",
   "amount": "",
   "type": "http://www.lombardinetworks.net/lombardi.owl#InfluenceControl"},
  {"source": "576",
   "target": "1906",
   "amount": "",
   "type": "http://www.lombardinetworks.net/lombardi.owl#InfluenceControl"},
  {"source": "576",
   "target": "1889",
   "amount": "",
   "type": "http://www.lombardinetworks.net/lombardi.owl#InfluenceControl"},
  {"source": "1896",
   "target": "1898",
   "amount": "",
   "type": "http://www.lombardinetworks.net/lombardi.owl#FinancialTransaction"},
  {"source": "1895",
   "target": "1889",
   "amount": "",
   "type": "http://www.lombardinetworks.net/lombardi.owl#Final"},
  {"source": "1894",
   "target": "1893",
   "amount": "",
   "type": "http://www.lombardinetworks.net/lombardi.owl#Final"},
  {"source": "1892",
   "target": "1890",
   "amount": "",
   "type": "http://www.lombardinetworks.net/lombardi.owl#Final"},
  {"source": "1891",
   "target": "539",
   "amount": "",
   "type": "http://www.lombardinetworks.net/lombardi.owl#Final"},
  {"source": "539",
   "target": "1871",
   "amount": "",
   "type": "http://www.lombardinetworks.net/lombardi.owl#FinancialTransaction"},
  {"source": "1890",
   "target": "1893",
   "amount": "",
   "type": "http://www.lombardinetworks.net/lombardi.owl#InfluenceControl"},
  {"source": "1890",
   "target": "539",
   "amount": "",
   "type": "http://www.lombardinetworks.net/lombardi.owl#InfluenceControl"},
  {"source": "1890",
   "target": "537",
   "amount": "",
   "type": "http://www.lombardinetworks.net/lombardi.owl#Association"},
  {"source": "1889",
   "target": "1910",
   "amount": "",
   "type": "http://www.lombardinetworks.net/lombardi.owl#FinancialTransaction"},
  {"source": "1889",
   "target": "1896",
   "amount": "",
   "type": "http://www.lombardinetworks.net/lombardi.owl#FinancialTransaction"},
  {"source": "1889",
   "target": "1871",
   "amount": "",
   "type": "http://www.lombardinetworks.net/lombardi.owl#FinancialTransaction"},
  {"source": "572",
   "target": "1871",
   "amount": "",
   "type": "http://www.lombardinetworks.net/lombardi.owl#InfluenceControl"},
  {"source": "560",
   "target": "1871",
   "amount": "",
   "type": "http://www.lombardinetworks.net/lombardi.owl#InfluenceControl"},
  {"source": "1887",
   "target": "1885",
   "amount": "",
   "type": "http://www.lombardinetworks.net/lombardi.owl#Final"},
  {"source": "1885",
   "target": "1876",
   "amount": "",
   "type": "http://www.lombardinetworks.net/lombardi.owl#InfluenceControl"},
  {"source": "1885",
   "target": "1886",
   "amount": "",
   "type": "http://www.lombardinetworks.net/lombardi.owl#Association"},
  {"source": "1885",
   "target": "1871",
   "amount": "",
   "type": "http://www.lombardinetworks.net/lombardi.owl#InfluenceControl"},
  {"source": "1884",
   "target": "1871",
   "amount": "",
   "type": "http://www.lombardinetworks.net/lombardi.owl#Final"},
  {"source": "1883",
   "target": "557",
   "amount": "",
   "type": "http://www.lombardinetworks.net/lombardi.owl#Final"},
  {"source": "557",
   "target": "1876",
   "amount": "",
   "type": "http://www.lombardinetworks.net/lombardi.owl#InfluenceControl"},
  {"source": "557",
   "target": "1871",
   "amount": "",
   "type": "http://www.lombardinetworks.net/lombardi.owl#InfluenceControl"},
  {"source": "1880",
   "target": "1881",
   "amount": "",
   "type": "http://www.lombardinetworks.net/lombardi.owl#InfluenceControl"},
  {"source": "1880",
   "target": "1876",
   "amount": "",
   "type": "http://www.lombardinetworks.net/lombardi.owl#InfluenceControl"},
  {"source": "1880",
   "target": "540",
   "amount": "",
   "type": "http://www.lombardinetworks.net/lombardi.owl#Association"},
  {"source": "543",
   "target": "1882",
   "amount": "",
   "type": "http://www.lombardinetworks.net/lombardi.owl#InfluenceControl"},
  {"source": "543",
   "target": "1881",
   "amount": "",
   "type": "http://www.lombardinetworks.net/lombardi.owl#InfluenceControl"},
  {"source": "543",
   "target": "540",
   "amount": "",
   "type": "http://www.lombardinetworks.net/lombardi.owl#Association"},
  {"source": "1879",
   "target": "540",
   "amount": "",
   "type": "http://www.lombardinetworks.net/lombardi.owl#Final"},
  {"source": "1878",
   "target": "1877",
   "amount": "",
   "type": "http://www.lombardinetworks.net/lombardi.owl#Final"},
  {"source": "540",
   "target": "1876",
   "amount": "",
   "type": "http://www.lombardinetworks.net/lombardi.owl#InfluenceControl"},
  {"source": "540",
   "target": "1877",
   "amount": "",
   "type": "http://www.lombardinetworks.net/lombardi.owl#InfluenceControl"},
  {"source": "540",
   "target": "1871",
   "amount": "",
   "type": "http://www.lombardinetworks.net/lombardi.owl#InfluenceControl"},
  {"source": "1876",
   "target": "1921",
   "amount": "",
   "type": "http://www.lombardinetworks.net/lombardi.owl#Association"},
  {"source": "1876",
   "target": "1886",
   "amount": "",
   "type": "http://www.lombardinetworks.net/lombardi.owl#Association"},
  {"source": "1876",
   "target": "1882",
   "amount": "",
   "type": "http://www.lombardinetworks.net/lombardi.owl#InfluenceControl"},
  {"source": "1876",
   "target": "1875",
   "amount": "",
   "type": "http://www.lombardinetworks.net/lombardi.owl#Association"},
  {"source": "1874",
   "target": "1875",
   "amount": "",
   "type": "http://www.lombardinetworks.net/lombardi.owl#InfluenceControl"},
  {"source": "1873",
   "target": "531",
   "amount": "",
   "type": "http://www.lombardinetworks.net/lombardi.owl#Final"},
  {"source": "533",
   "target": "532",
   "amount": "",
   "type": "http://www.lombardinetworks.net/lombardi.owl#InfluenceControl"},
  {"source": "1872",
   "target": "1870",
   "amount": "",
   "type": "http://www.lombardinetworks.net/lombardi.owl#Final"},
  {"source": "1871",
   "target": "1890",
   "amount": "",
   "type": "http://www.lombardinetworks.net/lombardi.owl#FinancialTransaction"},
  {"source": "1871",
   "target": "537",
   "amount": "",
   "type": "http://www.lombardinetworks.net/lombardi.owl#FinancialTransaction"},
  {"source": "1871",
   "target": "1888",
   "amount": "",
   "type": "http://www.lombardinetworks.net/lombardi.owl#FinancialTransaction"},
  {"source": "1871",
   "target": "1876",
   "amount": "",
   "type": "http://www.lombardinetworks.net/lombardi.owl#FinancialTransaction"},
  {"source": "1871",
   "target": "1875",
   "amount": "",
   "type": "http://www.lombardinetworks.net/lombardi.owl#FinancialTransaction"},
  {"source": "1871",
   "target": "533",
   "amount": "",
   "type": "http://www.lombardinetworks.net/lombardi.owl#FinancialTransaction"},
  {"source": "1871",
   "target": "1870",
   "amount": "",
   "type": "http://www.lombardinetworks.net/lombardi.owl#FinancialTransaction"},
  {"source": "532",
   "target": "1869",
   "amount": "",
   "type": "http://www.lombardinetworks.net/lombardi.owl#InfluenceControl"},
  {"source": "531",
   "target": "1874",
   "amount": "",
   "type": "http://www.lombardinetworks.net/lombardi.owl#Association"},
  {"source": "1869",
   "target": "531",
   "amount": "",
   "type": "http://www.lombardinetworks.net/lombardi.owl#FinancialTransaction"},
  {"source": "1869",
   "target": "1870",
   "amount": "",
   "type": "http://www.lombardinetworks.net/lombardi.owl#FinancialTransaction"}
 ]
}