
{
  "title": "Nugan Hand Bank Sydney, Australia c. 1974-80, 1995",
  "nodes": [
   {"id": "2750",
   "name": "\"Mr. Asia\" heroin ring",
   "type": "http://www.lombardinetworks.net/lombardi.owl#Institution"},
  {"id": "2749",
   "name": "Reid and Priest NY",
   "type": "http://www.lombardinetworks.net/lombardi.owl#Institution"},
  {"id": "2748",
   "name": "WM. Colby OSS WWII CIA 1947-? DCI 1973-5",
   "type": "http://www.lombardinetworks.net/lombardi.owl#Person"},
  {"id": "2747",
   "name": "NH Panama",
   "type": "http://www.lombardinetworks.net/lombardi.owl#Institution"},
  {"id": "2746",
   "name": "Walter McDonald CIA 1952-? dep. dir.economic research 1970s",
   "type": "http://www.lombardinetworks.net/lombardi.owl#Person"},
  {"id": "2745",
   "name": "Civil Air Transport",
   "type": "http://www.lombardinetworks.net/lombardi.owl#Institution"},
  {"id": "2744",
   "name": "Dale Holmgren",
   "type": "http://www.lombardinetworks.net/lombardi.owl#Person"},
  {"id": "2743",
   "name": "NH Taiwan",
   "type": "http://www.lombardinetworks.net/lombardi.owl#Institution"},
  {"id": "1250",
   "name": "BCCI Cayman Islands",
   "type": "http://www.lombardinetworks.net/lombardi.owl#Institution"},
  {"id": "2742",
   "name": "Bruce Campbell, registered agent",
   "type": "http://www.lombardinetworks.net/lombardi.owl#Person"},
  {"id": "2741",
   "name": "FA Neubauer Bank W.Germany",
   "type": "http://www.lombardinetworks.net/lombardi.owl#Institution"},
  {"id": "2740",
   "name": "Swiss Pacific Ltd. NH Cayman Islands",
   "type": "http://www.lombardinetworks.net/lombardi.owl#MergedInstitution"},
  {"id": "2739",
   "name": "77/2",
   "type": "http://www.lombardinetworks.net/lombardi.owl#Year"},
  {"id": "2738",
   "name": "Deak and Co. LA",
   "type": "http://www.lombardinetworks.net/lombardi.owl#Institution"},
  {"id": "2737",
   "name": "Roger Pulger-Frame",
   "type": "http://www.lombardinetworks.net/lombardi.owl#Person"},
  {"id": "2736",
   "name": "John McArthur",
   "type": "http://www.lombardinetworks.net/lombardi.owl#Person"},
  {"id": "2735",
   "name": "Les Collings",
   "type": "http://www.lombardinetworks.net/lombardi.owl#Person"},
  {"id": "2734",
   "name": "Albert Kwok",
   "type": "http://www.lombardinetworks.net/lombardi.owl#Person"},
  {"id": "2733",
   "name": "Alwyn Kwok",
   "type": "http://www.lombardinetworks.net/lombardi.owl#Person"},
  {"id": "2732",
   "name": "Wing On Bank Hong Kong",
   "type": "http://www.lombardinetworks.net/lombardi.owl#Institution"},
  {"id": "2731",
   "name": "Australia and New Zealand Bank",
   "type": "http://www.lombardinetworks.net/lombardi.owl#Institution"},
  {"id": "2730",
   "name": "75/2",
   "type": "http://www.lombardinetworks.net/lombardi.owl#Year"},
  {"id": "2729",
   "name": "NH Hong Kong",
   "type": "http://www.lombardinetworks.net/lombardi.owl#Institution"},
  {"id": "2728",
   "name": "Suvit Djevaikol",
   "type": "http://www.lombardinetworks.net/lombardi.owl#Person"},
  {"id": "2727",
   "name": "Thai finance minister",
   "type": "http://www.lombardinetworks.net/lombardi.owl#Person"},
  {"id": "2726",
   "name": "Thanam Kittikachorn P.M. Thailand 1963-73",
   "type": "http://www.lombardinetworks.net/lombardi.owl#Person"},
  {"id": "2725",
   "name": "Hilton Hotel Chiang Mai",
   "type": "http://www.lombardinetworks.net/lombardi.owl#Institution"},
  {"id": "2724",
   "name": "Gen. Sanya Kittikachorn Thai Army",
   "type": "http://www.lombardinetworks.net/lombardi.owl#Person"},
  {"id": "2723",
   "name": "Prince Panya Souvanna Phouma of Laos",
   "type": "http://www.lombardinetworks.net/lombardi.owl#Person"},
  {"id": "2469",
   "name": "[1]",
   "type": "http://www.lombardinetworks.net/lombardi.owl#Institution"},
  {"id": "2722",
   "name": "Thai Military Bank",
   "type": "http://www.lombardinetworks.net/lombardi.owl#Institution"},
  {"id": "2721",
   "name": "John Owen",
   "type": "http://www.lombardinetworks.net/lombardi.owl#Person"},
  {"id": "2720",
   "name": "Sky of Siam Airlines Bangkok",
   "type": "http://www.lombardinetworks.net/lombardi.owl#Institution"},
  {"id": "2719",
   "name": "NH Thailand",
   "type": "http://www.lombardinetworks.net/lombardi.owl#Institution"},
  {"id": "2718",
   "name": "Brunei Central Bank",
   "type": "http://www.lombardinetworks.net/lombardi.owl#Institution"},
  {"id": "2717",
   "name": "(o)/1",
   "type": "http://www.lombardinetworks.net/lombardi.owl#YearFinal"},
  {"id": "2716",
   "name": "Hong Kong bank",
   "type": "http://www.lombardinetworks.net/lombardi.owl#Institution"},
  {"id": "2715",
   "name": "Fidelity Bank Phila.",
   "type": "http://www.lombardinetworks.net/lombardi.owl#Institution"},
  {"id": "2714",
   "name": "Peru airline",
   "type": "http://www.lombardinetworks.net/lombardi.owl#Institution"},
  {"id": "2713",
   "name": "Delta Airlines",
   "type": "http://www.lombardinetworks.net/lombardi.owl#Institution"},
  {"id": "2712",
   "name": "Gen. Edwin Black (USA) OSS WWII NSC staff 1950s cmdr. Green Berets 1960s",
   "type": "http://www.lombardinetworks.net/lombardi.owl#Person"},
  {"id": "2711",
   "name": "Gen. S.K.Yee cmdr. Chinese Kuomintang Army",
   "type": "http://www.lombardinetworks.net/lombardi.owl#Person"},
  {"id": "2710",
   "name": "Hawaii Trust Co. Honolulu",
   "type": "http://www.lombardinetworks.net/lombardi.owl#Institution"},
  {"id": "2709",
   "name": "NH Hawaii",
   "type": "http://www.lombardinetworks.net/lombardi.owl#Institution"},
  {"id": "2708",
   "name": "LTV Dallas",
   "type": "http://www.lombardinetworks.net/lombardi.owl#Institution"},
  {"id": "2707",
   "name": "Triad Est. Licht.",
   "type": "http://www.lombardinetworks.net/lombardi.owl#Institution"},
  {"id": "2706",
   "name": "Adnan Khashoggi",
   "type": "http://www.lombardinetworks.net/lombardi.owl#Person"},
  {"id": "2705",
   "name": "Cocke and Phillips Wash. DC",
   "type": "http://www.lombardinetworks.net/lombardi.owl#Institution"},
  {"id": "2704",
   "name": "Adm. E. \"Bud\" Yates (USN) 1943-74 cmdr. USS JFK COS P/P Pacific Command",
   "type": "http://www.lombardinetworks.net/lombardi.owl#Person"},
  {"id": "2703",
   "name": "Gen. Erle Cocke (USA) OSS WWII exec dir World Bank cmdr. Amer. Legion",
   "type": "http://www.lombardinetworks.net/lombardi.owl#Person"},
  {"id": "2702",
   "name": "NH Wash. DC",
   "type": "http://www.lombardinetworks.net/lombardi.owl#Institution"},
  {"id": "2701",
   "name": "77/1",
   "type": "http://www.lombardinetworks.net/lombardi.owl#Year"},
  {"id": "2700",
   "name": "Irving Trust Dallas",
   "type": "http://www.lombardinetworks.net/lombardi.owl#Institution"},
  {"id": "2699",
   "name": "CIA",
   "type": "http://www.lombardinetworks.net/lombardi.owl#Institution"},
  {"id": "2698",
   "name": "76/1",
   "type": "http://www.lombardinetworks.net/lombardi.owl#Year"},
  {"id": "2697",
   "name": "75/1",
   "type": "http://www.lombardinetworks.net/lombardi.owl#Year"},
  {"id": "2696",
   "name": "74/1",
   "type": "http://www.lombardinetworks.net/lombardi.owl#Year"},
  {"id": "2695",
   "name": "(o)/2",
   "type": "http://www.lombardinetworks.net/lombardi.owl#YearFinal"},
  {"id": "2694",
   "name": "Ludwig Rocka",
   "type": "http://www.lombardinetworks.net/lombardi.owl#Person"},
  {"id": "2693",
   "name": "Elizabeth Marcos-Rocka",
   "type": "http://www.lombardinetworks.net/lombardi.owl#Person"},
  {"id": "2692",
   "name": "Int'l Plan&Dev Manila",
   "type": "http://www.lombardinetworks.net/lombardi.owl#Institution"},
  {"id": "2691",
   "name": "Wm. Quasha",
   "type": "http://www.lombardinetworks.net/lombardi.owl#Person"},
  {"id": "2690",
   "name": "Wilf Gregory",
   "type": "http://www.lombardinetworks.net/lombardi.owl#Person"},
  {"id": "2689",
   "name": "Gen. LeRoy Manor (USA) chief of staff US Pacific Coimmand",
   "type": "http://www.lombardinetworks.net/lombardi.owl#Person"},
  {"id": "2688",
   "name": "79/2",
   "type": "http://www.lombardinetworks.net/lombardi.owl#Year"},
  {"id": "2687",
   "name": "80/2",
   "type": "http://www.lombardinetworks.net/lombardi.owl#Year"},
  {"id": "2686",
   "name": "Ferdinand Marcos pres. Philippines 1965-86",
   "type": "http://www.lombardinetworks.net/lombardi.owl#Person"},
  {"id": "2685",
   "name": "NH Manila",
   "type": "http://www.lombardinetworks.net/lombardi.owl#Institution"},
  {"id": "2684",
   "name": "78/2",
   "type": "http://www.lombardinetworks.net/lombardi.owl#Year"},
  {"id": "2683",
   "name": "Anastasio Somoza pres. Nicaragua 1967-79",
   "type": "http://www.lombardinetworks.net/lombardi.owl#Person"},
  {"id": "2682",
   "name": "Dennis Mosselson",
   "type": "http://www.lombardinetworks.net/lombardi.owl#Person"},
  {"id": "892",
   "name": "John Stonehouse",
   "type": "http://www.lombardinetworks.net/lombardi.owl#Person"},
  {"id": "2681",
   "name": "proposed merger",
   "type": "http://www.lombardinetworks.net/lombardi.owl#MergedInstitution"},
  {"id": "903",
   "name": "Donald Beazley",
   "type": "http://www.lombardinetworks.net/lombardi.owl#Person"},
  {"id": "2680",
   "name": "Marvin Warner",
   "type": "http://www.lombardinetworks.net/lombardi.owl#Person"},
  {"id": "2679",
   "name": "Great American Bank Fla",
   "type": "http://www.lombardinetworks.net/lombardi.owl#Institution"},
  {"id": "2678",
   "name": "2nd National Bank Homestead Fla",
   "type": "http://www.lombardinetworks.net/lombardi.owl#Institution"},
  {"id": "2677",
   "name": "London Capital Securities UK",
   "type": "http://www.lombardinetworks.net/lombardi.owl#Institution"},
  {"id": "2331",
   "name": "80/1",
   "type": "http://www.lombardinetworks.net/lombardi.owl#Year"},
  {"id": "2676",
   "name": "Karl Schuller",
   "type": "http://www.lombardinetworks.net/lombardi.owl#Person"},
  {"id": "2675",
   "name": "79/1",
   "type": "http://www.lombardinetworks.net/lombardi.owl#Year"},
  {"id": "2674",
   "name": "Chase Manhattan Bank NY",
   "type": "http://www.lombardinetworks.net/lombardi.owl#Institution"},
  {"id": "2673",
   "name": "David Rockefeller",
   "type": "http://www.lombardinetworks.net/lombardi.owl#Person"},
  {"id": "2672",
   "name": "Peter Busse",
   "type": "http://www.lombardinetworks.net/lombardi.owl#Person"},
  {"id": "2671",
   "name": "Shah Mohammed Reza Pahlavi r. 1942-52,53-79",
   "type": "http://www.lombardinetworks.net/lombardi.owl#Person"},
  {"id": "2670",
   "name": "Theodore Shackley CIAO 1950s-? ADDO 1976-9",
   "type": "http://www.lombardinetworks.net/lombardi.owl#Person"},
  {"id": "2669",
   "name": "Thomas Clines CIA 1950s-?",
   "type": "http://www.lombardinetworks.net/lombardi.owl#Person"},
  {"id": "2668",
   "name": "Gov't of Iran",
   "type": "http://www.lombardinetworks.net/lombardi.owl#Institution"},
  {"id": "2667",
   "name": "Edwin Wilson CIA 1951-80? USN ONI #157",
   "type": "http://www.lombardinetworks.net/lombardi.owl#Person"},
  {"id": "2666",
   "name": "Gov't of Egypt",
   "type": "http://www.lombardinetworks.net/lombardi.owl#Institution"},
  {"id": "2665",
   "name": "Angolan rebels",
   "type": "http://www.lombardinetworks.net/lombardi.owl#Institution"},
  {"id": "2664",
   "name": "76/2",
   "type": "http://www.lombardinetworks.net/lombardi.owl#Year"},
  {"id": "2663",
   "name": "Gov't of Libya",
   "type": "http://www.lombardinetworks.net/lombardi.owl#Institution"},
  {"id": "2662",
   "name": "James Haws CIA 1950s-?",
   "type": "http://www.lombardinetworks.net/lombardi.owl#Person"},
  {"id": "2661",
   "name": "78/1",
   "type": "http://www.lombardinetworks.net/lombardi.owl#Year"},
  {"id": "2660",
   "name": "Al-Raji Money Hous Dhahran",
   "type": "http://www.lombardinetworks.net/lombardi.owl#Institution"},
  {"id": "2659",
   "name": "?/2",
   "type": "http://www.lombardinetworks.net/lombardi.owl#Person"},
  {"id": "2658",
   "name": "(.)",
   "type": "http://www.lombardinetworks.net/lombardi.owl#Institution"},
  {"id": "2657",
   "name": "Gen. Richard Secord (USAF)",
   "type": "http://www.lombardinetworks.net/lombardi.owl#Person"},
  {"id": "2656",
   "name": "Ricardo Chavez CIA 1961-?",
   "type": "http://www.lombardinetworks.net/lombardi.owl#Person"},
  {"id": "2655",
   "name": "API Distributions Houston",
   "type": "http://www.lombardinetworks.net/lombardi.owl#Institution"},
  {"id": "2654",
   "name": "(2)",
   "type": "http://www.lombardinetworks.net/lombardi.owl#Institution"},
  {"id": "2653",
   "name": "Al-Kemal Bangkok",
   "type": "http://www.lombardinetworks.net/lombardi.owl#Institution"},
  {"id": "2652",
   "name": "Bourbon and Beed-steak Sydney",
   "type": "http://www.lombardinetworks.net/lombardi.owl#Institution"},
  {"id": "2651",
   "name": "HC Beck Construction Dallas",
   "type": "http://www.lombardinetworks.net/lombardi.owl#Institution"},
  {"id": "2650",
   "name": "Parke Developm't Sydney",
   "type": "http://www.lombardinetworks.net/lombardi.owl#Institution"},
  {"id": "2649",
   "name": "Tirath Khemlani",
   "type": "http://www.lombardinetworks.net/lombardi.owl#Person"},
  {"id": "2648",
   "name": "Union Bank of Switzerland",
   "type": "http://www.lombardinetworks.net/lombardi.owl#Institution"},
  {"id": "2647",
   "name": "Bechtel SF",
   "type": "http://www.lombardinetworks.net/lombardi.owl#Institution"},
  {"id": "2646",
   "name": "Sultan Bolkiah of Brunei r. 1971-",
   "type": "http://www.lombardinetworks.net/lombardi.owl#Person"},
  {"id": "2645",
   "name": "proposed transaction",
   "type": "http://www.lombardinetworks.net/lombardi.owl#Institution"},
  {"id": "2644",
   "name": "74/2",
   "type": "http://www.lombardinetworks.net/lombardi.owl#Year"},
  {"id": "2643",
   "name": "Singapore penthouse",
   "type": "http://www.lombardinetworks.net/lombardi.owl#Institution"},
  {"id": "2642",
   "name": "Indonesian General",
   "type": "http://www.lombardinetworks.net/lombardi.owl#Person"},
  {"id": "2641",
   "name": "NH Singapore",
   "type": "http://www.lombardinetworks.net/lombardi.owl#Institution"},
  {"id": "2640",
   "name": "Wilhelmus Hans",
   "type": "http://www.lombardinetworks.net/lombardi.owl#Person"},
  {"id": "2639",
   "name": "arms trading company",
   "type": "http://www.lombardinetworks.net/lombardi.owl#Institution"},
  {"id": "2638",
   "name": "Michael Hand US Army Spec. Forces 1964-6 CIA 1966-?",
   "type": "http://www.lombardinetworks.net/lombardi.owl#Person"},
  {"id": "2637",
   "name": "Las Vegas casino",
   "type": "http://www.lombardinetworks.net/lombardi.owl#Institution"},
  {"id": "2636",
   "name": "Geo. \"Duke\" Countis",
   "type": "http://www.lombardinetworks.net/lombardi.owl#Person"},
  {"id": "2635",
   "name": "\"Jimmy the Weasel\" Fratianno",
   "type": "http://www.lombardinetworks.net/lombardi.owl#Person"},
  {"id": "2634",
   "name": "Sir Paul Strasser",
   "type": "http://www.lombardinetworks.net/lombardi.owl#Person"},
  {"id": "2633",
   "name": "Frank Sinatra",
   "type": "http://www.lombardinetworks.net/lombardi.owl#Person"},
  {"id": "2632",
   "name": "?/1",
   "type": "http://www.lombardinetworks.net/lombardi.owl#Person"},
  {"id": "2631",
   "name": "\"Bonny Eggs\"",
   "type": "http://www.lombardinetworks.net/lombardi.owl#Person"},
  {"id": "2630",
   "name": "\"Little Ralph\"",
   "type": "http://www.lombardinetworks.net/lombardi.owl#Person"},
  {"id": "2629",
   "name": "(1)",
   "type": "http://www.lombardinetworks.net/lombardi.owl#Institution"},
  {"id": "2628",
   "name": "Cayman Islands Co.",
   "type": "http://www.lombardinetworks.net/lombardi.owl#Institution"},
  {"id": "2627",
   "name": "Rupert Murdoch",
   "type": "http://www.lombardinetworks.net/lombardi.owl#Person"},
  {"id": "2626",
   "name": "Ansetl Airlines Australia",
   "type": "http://www.lombardinetworks.net/lombardi.owl#Institution"},
  {"id": "2625",
   "name": "Sir Peter Abeles",
   "type": "http://www.lombardinetworks.net/lombardi.owl#Person"},
  {"id": "2624",
   "name": "TNT Transport Sydney",
   "type": "http://www.lombardinetworks.net/lombardi.owl#Institution"},
  {"id": "2623",
   "name": "Fred Millar",
   "type": "http://www.lombardinetworks.net/lombardi.owl#Person"},
  {"id": "884",
   "name": "Daniel K. Ludwig",
   "type": "http://www.lombardinetworks.net/lombardi.owl#Person"},
  {"id": "2622",
   "name": "Pat Boone",
   "type": "http://www.lombardinetworks.net/lombardi.owl#Person"},
  {"id": "2621",
   "name": "Ocean shores/Wendell West Aust.",
   "type": "http://www.lombardinetworks.net/lombardi.owl#Institution"},
  {"id": "2620",
   "name": "Australian and Pacific Holdings Sydney",
   "type": "http://www.lombardinetworks.net/lombardi.owl#Institution"},
  {"id": "891",
   "name": "Bernie Houghton",
   "type": "http://www.lombardinetworks.net/lombardi.owl#Person"},
  {"id": "2619",
   "name": "Murray Riley",
   "type": "http://www.lombardinetworks.net/lombardi.owl#Person"},
  {"id": "2618",
   "name": "Nugan Hand Ltd. Sydney",
   "type": "http://www.lombardinetworks.net/lombardi.owl#Institution"},
  {"id": "2617",
   "name": "Meeka Minerals Sydney",
   "type": "http://www.lombardinetworks.net/lombardi.owl#Institution"},
  {"id": "2616",
   "name": "Nugan Fruit",
   "type": "http://www.lombardinetworks.net/lombardi.owl#Institution"},
  {"id": "896",
   "name": "Frank Nugan",
   "type": "http://www.lombardinetworks.net/lombardi.owl#Person"}

   ],
   "links": [
   {"source": "2750",
   "target": "2730",
   "amount": "",
   "type": "http://www.lombardinetworks.net/lombardi.owl#FinancialTransaction"},
  {"source": "2748",
   "target": "2749",
   "amount": "",
   "type": "http://www.lombardinetworks.net/lombardi.owl#InfluenceControl"},
  {"source": "2748",
   "target": "2747",
   "amount": "",
   "type": "http://www.lombardinetworks.net/lombardi.owl#InfluenceControl"},
  {"source": "2748",
   "target": "2746",
   "amount": "",
   "type": "http://www.lombardinetworks.net/lombardi.owl#Association"},
  {"source": "2744",
   "target": "2745",
   "amount": "",
   "type": "http://www.lombardinetworks.net/lombardi.owl#InfluenceControl"},
  {"source": "2744",
   "target": "2743",
   "amount": "",
   "type": "http://www.lombardinetworks.net/lombardi.owl#InfluenceControl"},
  {"source": "2742",
   "target": "1250",
   "amount": "",
   "type": "http://www.lombardinetworks.net/lombardi.owl#InfluenceControl"},
  {"source": "2742",
   "target": "2740",
   "amount": "",
   "type": "http://www.lombardinetworks.net/lombardi.owl#InfluenceControl"},
  {"source": "2739",
   "target": "2684",
   "amount": "",
   "type": "http://www.lombardinetworks.net/lombardi.owl#YearArrow"},
  {"source": "2739",
   "target": "2741",
   "amount": "",
   "type": "http://www.lombardinetworks.net/lombardi.owl#InfluenceControl"},
  {"source": "2739",
   "target": "2740",
   "amount": "",
   "type": "http://www.lombardinetworks.net/lombardi.owl#InfluenceControl"},
  {"source": "2737",
   "target": "2738",
   "amount": "",
   "type": "http://www.lombardinetworks.net/lombardi.owl#InfluenceControl"},
  {"source": "2737",
   "target": "2729",
   "amount": "",
   "type": "http://www.lombardinetworks.net/lombardi.owl#InfluenceControl"},
  {"source": "2736",
   "target": "2729",
   "amount": "",
   "type": "http://www.lombardinetworks.net/lombardi.owl#InfluenceControl"},
  {"source": "2735",
   "target": "2729",
   "amount": "",
   "type": "http://www.lombardinetworks.net/lombardi.owl#InfluenceControl"},
  {"source": "2734",
   "target": "2735",
   "amount": "",
   "type": "http://www.lombardinetworks.net/lombardi.owl#Association"},
  {"source": "2734",
   "target": "2733",
   "amount": "",
   "type": "http://www.lombardinetworks.net/lombardi.owl#Association"},
  {"source": "2734",
   "target": "2732",
   "amount": "",
   "type": "http://www.lombardinetworks.net/lombardi.owl#InfluenceControl"},
  {"source": "2733",
   "target": "2732",
   "amount": "",
   "type": "http://www.lombardinetworks.net/lombardi.owl#InfluenceControl"},
  {"source": "2731",
   "target": "2730",
   "amount": "",
   "type": "http://www.lombardinetworks.net/lombardi.owl#Association"},
  {"source": "2730",
   "target": "2732",
   "amount": "",
   "type": "http://www.lombardinetworks.net/lombardi.owl#FinancialAssociation"},
  {"source": "2728",
   "target": "2729",
   "amount": "",
   "type": "http://www.lombardinetworks.net/lombardi.owl#FinancialTransaction"},
  {"source": "2728",
   "target": "2727",
   "amount": "",
   "type": "http://www.lombardinetworks.net/lombardi.owl#Association"},
  {"source": "2726",
   "target": "2727",
   "amount": "",
   "type": "http://www.lombardinetworks.net/lombardi.owl#InfluenceControl"},
  {"source": "2724",
   "target": "2726",
   "amount": "",
   "type": "http://www.lombardinetworks.net/lombardi.owl#Association"},
  {"source": "2724",
   "target": "2725",
   "amount": "",
   "type": "http://www.lombardinetworks.net/lombardi.owl#InfluenceControl"},
  {"source": "2723",
   "target": "2720",
   "amount": "",
   "type": "http://www.lombardinetworks.net/lombardi.owl#InfluenceControl"},
  {"source": "2469",
   "target": "2644",
   "amount": "",
   "type": "http://www.lombardinetworks.net/lombardi.owl#YearArrow"},
  {"source": "2722",
   "target": "2724",
   "amount": "",
   "type": "http://www.lombardinetworks.net/lombardi.owl#FinancialTransaction"},
  {"source": "2721",
   "target": "2719",
   "amount": "",
   "type": "http://www.lombardinetworks.net/lombardi.owl#InfluenceControl"},
  {"source": "2719",
   "target": "2724",
   "amount": "",
   "type": "http://www.lombardinetworks.net/lombardi.owl#FinancialTransaction"},
  {"source": "2719",
   "target": "2722",
   "amount": "",
   "type": "http://www.lombardinetworks.net/lombardi.owl#Association"},
  {"source": "2719",
   "target": "2720",
   "amount": "",
   "type": "http://www.lombardinetworks.net/lombardi.owl#FinancialTransaction"},
  {"source": "2717",
   "target": "2659",
   "amount": "",
   "type": "http://www.lombardinetworks.net/lombardi.owl#FinancialTransaction"},
  {"source": "2715",
   "target": "2331",
   "amount": "",
   "type": "http://www.lombardinetworks.net/lombardi.owl#FinancialAssociation"},
  {"source": "2712",
   "target": "2714",
   "amount": "",
   "type": "http://www.lombardinetworks.net/lombardi.owl#Association"},
  {"source": "2712",
   "target": "2713",
   "amount": "",
   "type": "http://www.lombardinetworks.net/lombardi.owl#Association"},
  {"source": "2712",
   "target": "2710",
   "amount": "",
   "type": "http://www.lombardinetworks.net/lombardi.owl#FinancialTransaction"},
  {"source": "2712",
   "target": "2709",
   "amount": "",
   "type": "http://www.lombardinetworks.net/lombardi.owl#InfluenceControl"},
  {"source": "2711",
   "target": "2716",
   "amount": "",
   "type": "http://www.lombardinetworks.net/lombardi.owl#InfluenceControl"},
  {"source": "2710",
   "target": "2331",
   "amount": "",
   "type": "http://www.lombardinetworks.net/lombardi.owl#FinancialTransaction"},
  {"source": "2706",
   "target": "2707",
   "amount": "",
   "type": "http://www.lombardinetworks.net/lombardi.owl#InfluenceControl"},
  {"source": "2706",
   "target": "2705",
   "amount": "",
   "type": "http://www.lombardinetworks.net/lombardi.owl#Association"},
  {"source": "2704",
   "target": "2711",
   "amount": "",
   "type": "http://www.lombardinetworks.net/lombardi.owl#Association"},
  {"source": "2704",
   "target": "2710",
   "amount": "",
   "type": "http://www.lombardinetworks.net/lombardi.owl#FinancialTransaction"},
  {"source": "2704",
   "target": "2709",
   "amount": "",
   "type": "http://www.lombardinetworks.net/lombardi.owl#InfluenceControl"},
  {"source": "2704",
   "target": "2646",
   "amount": "",
   "type": "http://www.lombardinetworks.net/lombardi.owl#Association"},
  {"source": "2704",
   "target": "2708",
   "amount": "",
   "type": "http://www.lombardinetworks.net/lombardi.owl#Association"},
  {"source": "2704",
   "target": "2702",
   "amount": "",
   "type": "http://www.lombardinetworks.net/lombardi.owl#InfluenceControl"},
  {"source": "2703",
   "target": "2705",
   "amount": "",
   "type": "http://www.lombardinetworks.net/lombardi.owl#InfluenceControl"},
  {"source": "2703",
   "target": "2702",
   "amount": "",
   "type": "http://www.lombardinetworks.net/lombardi.owl#InfluenceControl"},
  {"source": "2701",
   "target": "2661",
   "amount": "",
   "type": "http://www.lombardinetworks.net/lombardi.owl#YearArrow"},
  {"source": "2701",
   "target": "2702",
   "amount": "",
   "type": "http://www.lombardinetworks.net/lombardi.owl#InfluenceControl"},
  {"source": "2700",
   "target": "2698",
   "amount": "",
   "type": "http://www.lombardinetworks.net/lombardi.owl#FinancialTransaction"},
  {"source": "2699",
   "target": "2698",
   "amount": "",
   "type": "http://www.lombardinetworks.net/lombardi.owl#FinancialTransaction"},
  {"source": "2698",
   "target": "2701",
   "amount": "",
   "type": "http://www.lombardinetworks.net/lombardi.owl#YearArrow"},
  {"source": "2697",
   "target": "2718",
   "amount": "",
   "type": "http://www.lombardinetworks.net/lombardi.owl#Association"},
  {"source": "2697",
   "target": "2698",
   "amount": "",
   "type": "http://www.lombardinetworks.net/lombardi.owl#YearArrow"},
  {"source": "2696",
   "target": "2697",
   "amount": "",
   "type": "http://www.lombardinetworks.net/lombardi.owl#YearArrow"},
  {"source": "2695",
   "target": "2748",
   "amount": "",
   "type": "http://www.lombardinetworks.net/lombardi.owl#Association"},
  {"source": "2695",
   "target": "2694",
   "amount": "",
   "type": "http://www.lombardinetworks.net/lombardi.owl#FinancialTransaction"},
  {"source": "2694",
   "target": "2692",
   "amount": "",
   "type": "http://www.lombardinetworks.net/lombardi.owl#InfluenceControl"},
  {"source": "2694",
   "target": "2693",
   "amount": "",
   "type": "http://www.lombardinetworks.net/lombardi.owl#Association"},
  {"source": "2691",
   "target": "2689",
   "amount": "",
   "type": "http://www.lombardinetworks.net/lombardi.owl#Association"},
  {"source": "2690",
   "target": "2692",
   "amount": "",
   "type": "http://www.lombardinetworks.net/lombardi.owl#Association"},
  {"source": "2690",
   "target": "2691",
   "amount": "",
   "type": "http://www.lombardinetworks.net/lombardi.owl#Association"},
  {"source": "2690",
   "target": "2685",
   "amount": "",
   "type": "http://www.lombardinetworks.net/lombardi.owl#InfluenceControl"},
  {"source": "2688",
   "target": "2747",
   "amount": "",
   "type": "http://www.lombardinetworks.net/lombardi.owl#InfluenceControl"},
  {"source": "2688",
   "target": "2746",
   "amount": "",
   "type": "http://www.lombardinetworks.net/lombardi.owl#Association"},
  {"source": "2688",
   "target": "2687",
   "amount": "",
   "type": "http://www.lombardinetworks.net/lombardi.owl#YearArrow"},
  {"source": "2687",
   "target": "2695",
   "amount": "",
   "type": "http://www.lombardinetworks.net/lombardi.owl#YearArrow"},
  {"source": "2686",
   "target": "2693",
   "amount": "",
   "type": "http://www.lombardinetworks.net/lombardi.owl#Association"},
  {"source": "2686",
   "target": "2691",
   "amount": "",
   "type": "http://www.lombardinetworks.net/lombardi.owl#Association"},
  {"source": "2686",
   "target": "2689",
   "amount": "",
   "type": "http://www.lombardinetworks.net/lombardi.owl#Association"},
  {"source": "2686",
   "target": "2685",
   "amount": "",
   "type": "http://www.lombardinetworks.net/lombardi.owl#FinancialTransaction"},
  {"source": "2685",
   "target": "2689",
   "amount": "",
   "type": "http://www.lombardinetworks.net/lombardi.owl#InfluenceControl"},
  {"source": "2685",
   "target": "2687",
   "amount": "",
   "type": "http://www.lombardinetworks.net/lombardi.owl#FinancialTransaction"},
  {"source": "2684",
   "target": "2743",
   "amount": "",
   "type": "http://www.lombardinetworks.net/lombardi.owl#InfluenceControl"},
  {"source": "2684",
   "target": "2688",
   "amount": "",
   "type": "http://www.lombardinetworks.net/lombardi.owl#YearArrow"},
  {"source": "2684",
   "target": "2685",
   "amount": "",
   "type": "http://www.lombardinetworks.net/lombardi.owl#InfluenceControl"},
  {"source": "2683",
   "target": "2677",
   "amount": "",
   "type": "http://www.lombardinetworks.net/lombardi.owl#FinancialTransaction"},
  {"source": "2682",
   "target": "2677",
   "amount": "",
   "type": "http://www.lombardinetworks.net/lombardi.owl#InfluenceControl"},
  {"source": "903",
   "target": "2677",
   "amount": "",
   "type": "http://www.lombardinetworks.net/lombardi.owl#FinancialTransaction"},
  {"source": "903",
   "target": "2331",
   "amount": "",
   "type": "http://www.lombardinetworks.net/lombardi.owl#InfluenceControl"},
  {"source": "903",
   "target": "2679",
   "amount": "",
   "type": "http://www.lombardinetworks.net/lombardi.owl#InfluenceControl"},
  {"source": "2680",
   "target": "2679",
   "amount": "",
   "type": "http://www.lombardinetworks.net/lombardi.owl#InfluenceControl"},
  {"source": "2679",
   "target": "2678",
   "amount": "",
   "type": "http://www.lombardinetworks.net/lombardi.owl#InfluenceControl"},
  {"source": "2677",
   "target": "892",
   "amount": "",
   "type": "http://www.lombardinetworks.net/lombardi.owl#InfluenceControl"},
  {"source": "2677",
   "target": "2681",
   "amount": "",
   "type": "http://www.lombardinetworks.net/lombardi.owl#InfluenceControl"},
  {"source": "2331",
   "target": "2717",
   "amount": "",
   "type": "http://www.lombardinetworks.net/lombardi.owl#YearArrow"},
  {"source": "2331",
   "target": "2681",
   "amount": "",
   "type": "http://www.lombardinetworks.net/lombardi.owl#InfluenceControl"},
  {"source": "2331",
   "target": "2716",
   "amount": "",
   "type": "http://www.lombardinetworks.net/lombardi.owl#FinancialTransaction"},
  {"source": "2331",
   "target": "2681",
   "amount": "",
   "type": "http://www.lombardinetworks.net/lombardi.owl#InfluenceControl"},
  {"source": "2331",
   "target": "2678",
   "amount": "",
   "type": "http://www.lombardinetworks.net/lombardi.owl#FinancialTransaction"},
  {"source": "2676",
   "target": "2645",
   "amount": "",
   "type": "http://www.lombardinetworks.net/lombardi.owl#InfluenceControl"},
  {"source": "2676",
   "target": "2675",
   "amount": "",
   "type": "http://www.lombardinetworks.net/lombardi.owl#Association"},
  {"source": "2675",
   "target": "2331",
   "amount": "",
   "type": "http://www.lombardinetworks.net/lombardi.owl#YearArrow"},
  {"source": "2674",
   "target": "2675",
   "amount": "",
   "type": "http://www.lombardinetworks.net/lombardi.owl#FinancialTransaction"},
  {"source": "2673",
   "target": "2674",
   "amount": "",
   "type": "http://www.lombardinetworks.net/lombardi.owl#InfluenceControl"},
  {"source": "2672",
   "target": "2645",
   "amount": "",
   "type": "http://www.lombardinetworks.net/lombardi.owl#InfluenceControl"},
  {"source": "2671",
   "target": "2673",
   "amount": "",
   "type": "http://www.lombardinetworks.net/lombardi.owl#Association"},
  {"source": "2671",
   "target": "2672",
   "amount": "",
   "type": "http://www.lombardinetworks.net/lombardi.owl#InfluenceControl"},
  {"source": "2671",
   "target": "2668",
   "amount": "",
   "type": "http://www.lombardinetworks.net/lombardi.owl#InfluenceControl"},
  {"source": "2671",
   "target": "2657",
   "amount": "",
   "type": "http://www.lombardinetworks.net/lombardi.owl#Association"},
  {"source": "2670",
   "target": "2655",
   "amount": "",
   "type": "http://www.lombardinetworks.net/lombardi.owl#InfluenceControl"},
  {"source": "2669",
   "target": "2655",
   "amount": "",
   "type": "http://www.lombardinetworks.net/lombardi.owl#InfluenceControl"},
  {"source": "2668",
   "target": "2654",
   "amount": "",
   "type": "http://www.lombardinetworks.net/lombardi.owl#Association"},
  {"source": "2667",
   "target": "2669",
   "amount": "",
   "type": "http://www.lombardinetworks.net/lombardi.owl#FinancialTransaction"},
  {"source": "2667",
   "target": "2657",
   "amount": "",
   "type": "http://www.lombardinetworks.net/lombardi.owl#Association"},
  {"source": "2667",
   "target": "2654",
   "amount": "",
   "type": "http://www.lombardinetworks.net/lombardi.owl#InfluenceControl"},
  {"source": "2666",
   "target": "2655",
   "amount": "",
   "type": "http://www.lombardinetworks.net/lombardi.owl#Association"},
  {"source": "2666",
   "target": "2654",
   "amount": "",
   "type": "http://www.lombardinetworks.net/lombardi.owl#Association"},
  {"source": "2665",
   "target": "2654",
   "amount": "",
   "type": "http://www.lombardinetworks.net/lombardi.owl#Association"},
  {"source": "2664",
   "target": "2739",
   "amount": "",
   "type": "http://www.lombardinetworks.net/lombardi.owl#YearArrow"},
  {"source": "2664",
   "target": "2729",
   "amount": "",
   "type": "http://www.lombardinetworks.net/lombardi.owl#InfluenceControl"},
  {"source": "2664",
   "target": "2654",
   "amount": "",
   "type": "http://www.lombardinetworks.net/lombardi.owl#FinancialTransaction"},
  {"source": "2663",
   "target": "2654",
   "amount": "",
   "type": "http://www.lombardinetworks.net/lombardi.owl#Association"},
  {"source": "2662",
   "target": "2654",
   "amount": "",
   "type": "http://www.lombardinetworks.net/lombardi.owl#InfluenceControl"},
  {"source": "2661",
   "target": "2709",
   "amount": "",
   "type": "http://www.lombardinetworks.net/lombardi.owl#InfluenceControl"},
  {"source": "2661",
   "target": "2675",
   "amount": "",
   "type": "http://www.lombardinetworks.net/lombardi.owl#YearArrow"},
  {"source": "2660",
   "target": "2661",
   "amount": "",
   "type": "http://www.lombardinetworks.net/lombardi.owl#FinancialTransaction"},
  {"source": "2659",
   "target": "2658",
   "amount": "",
   "type": "http://www.lombardinetworks.net/lombardi.owl#FinancialTransaction"},
  {"source": "2658",
   "target": "2660",
   "amount": "",
   "type": "http://www.lombardinetworks.net/lombardi.owl#FinancialTransaction"},
  {"source": "2657",
   "target": "2656",
   "amount": "",
   "type": "http://www.lombardinetworks.net/lombardi.owl#InfluenceControl"},
  {"source": "2656",
   "target": "2677",
   "amount": "",
   "type": "http://www.lombardinetworks.net/lombardi.owl#FinancialTransaction"},
  {"source": "2656",
   "target": "2655",
   "amount": "",
   "type": "http://www.lombardinetworks.net/lombardi.owl#InfluenceControl"},
  {"source": "2651",
   "target": "891",
   "amount": "",
   "type": "http://www.lombardinetworks.net/lombardi.owl#Association"},
  {"source": "2650",
   "target": "891",
   "amount": "",
   "type": "http://www.lombardinetworks.net/lombardi.owl#InfluenceControl"},
  {"source": "2649",
   "target": "2648",
   "amount": "",
   "type": "http://www.lombardinetworks.net/lombardi.owl#InfluenceControl"},
  {"source": "2648",
   "target": "891",
   "amount": "",
   "type": "http://www.lombardinetworks.net/lombardi.owl#Association"},
  {"source": "2647",
   "target": "891",
   "amount": "",
   "type": "http://www.lombardinetworks.net/lombardi.owl#Association"},
  {"source": "2646",
   "target": "2718",
   "amount": "",
   "type": "http://www.lombardinetworks.net/lombardi.owl#InfluenceControl"},
  {"source": "2646",
   "target": "2661",
   "amount": "",
   "type": "http://www.lombardinetworks.net/lombardi.owl#FinancialTransaction"},
  {"source": "2645",
   "target": "2331",
   "amount": "",
   "type": "http://www.lombardinetworks.net/lombardi.owl#FinancialTransaction"},
  {"source": "2644",
   "target": "2730",
   "amount": "",
   "type": "http://www.lombardinetworks.net/lombardi.owl#YearArrow"},
  {"source": "2644",
   "target": "2722",
   "amount": "",
   "type": "http://www.lombardinetworks.net/lombardi.owl#FinancialTransaction"},
  {"source": "2644",
   "target": "2719",
   "amount": "",
   "type": "http://www.lombardinetworks.net/lombardi.owl#InfluenceControl"},
  {"source": "2644",
   "target": "2643",
   "amount": "",
   "type": "http://www.lombardinetworks.net/lombardi.owl#InfluenceControl"},
  {"source": "2642",
   "target": "2643",
   "amount": "",
   "type": "http://www.lombardinetworks.net/lombardi.owl#InfluenceControl"},
  {"source": "2642",
   "target": "2641",
   "amount": "",
   "type": "http://www.lombardinetworks.net/lombardi.owl#FinancialTransaction"},
  {"source": "2640",
   "target": "2639",
   "amount": "",
   "type": "http://www.lombardinetworks.net/lombardi.owl#InfluenceControl"},
  {"source": "2638",
   "target": "2646",
   "amount": "",
   "type": "http://www.lombardinetworks.net/lombardi.owl#Association"},
  {"source": "2638",
   "target": "2645",
   "amount": "",
   "type": "http://www.lombardinetworks.net/lombardi.owl#InfluenceControl"},
  {"source": "2638",
   "target": "891",
   "amount": "",
   "type": "http://www.lombardinetworks.net/lombardi.owl#Association"},
  {"source": "2638",
   "target": "2643",
   "amount": "",
   "type": "http://www.lombardinetworks.net/lombardi.owl#InfluenceControl"},
  {"source": "2638",
   "target": "2641",
   "amount": "",
   "type": "http://www.lombardinetworks.net/lombardi.owl#InfluenceControl"},
  {"source": "2638",
   "target": "2621",
   "amount": "",
   "type": "http://www.lombardinetworks.net/lombardi.owl#InfluenceControl"},
  {"source": "2638",
   "target": "2639",
   "amount": "",
   "type": "http://www.lombardinetworks.net/lombardi.owl#InfluenceControl"},
  {"source": "2638",
   "target": "2618",
   "amount": "",
   "type": "http://www.lombardinetworks.net/lombardi.owl#InfluenceControl"},
  {"source": "2638",
   "target": "2620",
   "amount": "",
   "type": "http://www.lombardinetworks.net/lombardi.owl#InfluenceControl"},
  {"source": "2638",
   "target": "2637",
   "amount": "",
   "type": "http://www.lombardinetworks.net/lombardi.owl#FinancialTransaction"},
  {"source": "2636",
   "target": "2637",
   "amount": "",
   "type": "http://www.lombardinetworks.net/lombardi.owl#FinancialTransaction"},
  {"source": "2635",
   "target": "2636",
   "amount": "",
   "type": "http://www.lombardinetworks.net/lombardi.owl#InfluenceControl"},
  {"source": "2634",
   "target": "2650",
   "amount": "",
   "type": "http://www.lombardinetworks.net/lombardi.owl#InfluenceControl"},
  {"source": "2633",
   "target": "2632",
   "amount": "",
   "type": "http://www.lombardinetworks.net/lombardi.owl#Association"},
  {"source": "2629",
   "target": "2635",
   "amount": "",
   "type": "http://www.lombardinetworks.net/lombardi.owl#FinancialTransaction"},
  {"source": "2628",
   "target": "2632",
   "amount": "",
   "type": "http://www.lombardinetworks.net/lombardi.owl#FinancialTransaction"},
  {"source": "2628",
   "target": "2631",
   "amount": "",
   "type": "http://www.lombardinetworks.net/lombardi.owl#FinancialTransaction"},
  {"source": "2628",
   "target": "2630",
   "amount": "",
   "type": "http://www.lombardinetworks.net/lombardi.owl#FinancialTransaction"},
  {"source": "2627",
   "target": "2626",
   "amount": "",
   "type": "http://www.lombardinetworks.net/lombardi.owl#InfluenceControl"},
  {"source": "2625",
   "target": "891",
   "amount": "",
   "type": "http://www.lombardinetworks.net/lombardi.owl#Association"},
  {"source": "2625",
   "target": "2634",
   "amount": "",
   "type": "http://www.lombardinetworks.net/lombardi.owl#Association"},
  {"source": "2625",
   "target": "2629",
   "amount": "",
   "type": "http://www.lombardinetworks.net/lombardi.owl#InfluenceControl"},
  {"source": "2625",
   "target": "2628",
   "amount": "",
   "type": "http://www.lombardinetworks.net/lombardi.owl#InfluenceControl"},
  {"source": "2625",
   "target": "2626",
   "amount": "",
   "type": "http://www.lombardinetworks.net/lombardi.owl#InfluenceControl"},
  {"source": "2625",
   "target": "2624",
   "amount": "",
   "type": "http://www.lombardinetworks.net/lombardi.owl#InfluenceControl"},
  {"source": "2623",
   "target": "2624",
   "amount": "",
   "type": "http://www.lombardinetworks.net/lombardi.owl#Association"},
  {"source": "2623",
   "target": "884",
   "amount": "",
   "type": "http://www.lombardinetworks.net/lombardi.owl#Association"},
  {"source": "2623",
   "target": "2621",
   "amount": "",
   "type": "http://www.lombardinetworks.net/lombardi.owl#InfluenceControl"},
  {"source": "884",
   "target": "2621",
   "amount": "",
   "type": "http://www.lombardinetworks.net/lombardi.owl#InfluenceControl"},
  {"source": "2622",
   "target": "2621",
   "amount": "",
   "type": "http://www.lombardinetworks.net/lombardi.owl#InfluenceControl"},
  {"source": "2621",
   "target": "2620",
   "amount": "",
   "type": "http://www.lombardinetworks.net/lombardi.owl#SaleProperty"},
  {"source": "2620",
   "target": "2618",
   "amount": "",
   "type": "http://www.lombardinetworks.net/lombardi.owl#FinancialTransaction"},
  {"source": "891",
   "target": "2658",
   "amount": "",
   "type": "http://www.lombardinetworks.net/lombardi.owl#InfluenceControl"},
  {"source": "891",
   "target": "2657",
   "amount": "",
   "type": "http://www.lombardinetworks.net/lombardi.owl#InfluenceControl"},
  {"source": "891",
   "target": "2656",
   "amount": "",
   "type": "http://www.lombardinetworks.net/lombardi.owl#FinancialTransaction"},
  {"source": "891",
   "target": "2655",
   "amount": "",
   "type": "http://www.lombardinetworks.net/lombardi.owl#InfluenceControl"},
  {"source": "891",
   "target": "2654",
   "amount": "",
   "type": "http://www.lombardinetworks.net/lombardi.owl#InfluenceControl"},
  {"source": "891",
   "target": "2653",
   "amount": "",
   "type": "http://www.lombardinetworks.net/lombardi.owl#Association"},
  {"source": "891",
   "target": "2652",
   "amount": "",
   "type": "http://www.lombardinetworks.net/lombardi.owl#InfluenceControl"},
  {"source": "2619",
   "target": "2637",
   "amount": "",
   "type": "http://www.lombardinetworks.net/lombardi.owl#FinancialTransaction"},
  {"source": "2618",
   "target": "2696",
   "amount": "",
   "type": "http://www.lombardinetworks.net/lombardi.owl#YearArrow"},
  {"source": "2617",
   "target": "2618",
   "amount": "",
   "type": "http://www.lombardinetworks.net/lombardi.owl#FinancialTransaction"},
  {"source": "896",
   "target": "2620",
   "amount": "",
   "type": "http://www.lombardinetworks.net/lombardi.owl#Connection"},
  {"source": "896",
   "target": "891",
   "amount": "",
   "type": "http://www.lombardinetworks.net/lombardi.owl#Association"},
  {"source": "896",
   "target": "2619",
   "amount": "",
   "type": "http://www.lombardinetworks.net/lombardi.owl#Association"},
  {"source": "896",
   "target": "2618",
   "amount": "",
   "type": "http://www.lombardinetworks.net/lombardi.owl#InfluenceControl"},
  {"source": "896",
   "target": "2617",
   "amount": "",
   "type": "http://www.lombardinetworks.net/lombardi.owl#InfluenceControl"},
  {"source": "896",
   "target": "2616",
   "amount": "",
   "type": "http://www.lombardinetworks.net/lombardi.owl#InfluenceControl"}
 ]
}