
{
  "title": "Lincoln, Silverado (I)",
  "nodes": [
   {"id": "3593",
   "name": "Centrust",
   "type": "http://www.lombardinetworks.net/lombardi.owl#Institution"},
  {"id": "3592",
   "name": "Barkers Trust $ 300 mil",
   "type": "http://www.lombardinetworks.net/lombardi.owl#Person"},
  {"id": "3591",
   "name": "[13]",
   "type": "http://www.lombardinetworks.net/lombardi.owl#Person"},
  {"id": "3590",
   "name": "[12]",
   "type": "http://www.lombardinetworks.net/lombardi.owl#Person"},
  {"id": "3589",
   "name": "[11]",
   "type": "http://www.lombardinetworks.net/lombardi.owl#Institution"},
  {"id": "3588",
   "name": "Boesky",
   "type": "http://www.lombardinetworks.net/lombardi.owl#Institution"},
  {"id": "3587",
   "name": "[10]",
   "type": "http://www.lombardinetworks.net/lombardi.owl#Person"},
  {"id": "3586",
   "name": "[9]",
   "type": "http://www.lombardinetworks.net/lombardi.owl#Institution"},
  {"id": "3585",
   "name": "Keating ptshp",
   "type": "http://www.lombardinetworks.net/lombardi.owl#Institution"},
  {"id": "3584",
   "name": "San Jac",
   "type": "http://www.lombardinetworks.net/lombardi.owl#Institution"},
  {"id": "3583",
   "name": "[8]",
   "type": "http://www.lombardinetworks.net/lombardi.owl#Person"},
  {"id": "3582",
   "name": "Pac Standard life",
   "type": "http://www.lombardinetworks.net/lombardi.owl#Institution"},
  {"id": "3581",
   "name": "Somark/2",
   "type": "http://www.lombardinetworks.net/lombardi.owl#Institution"},
  {"id": "3580",
   "name": "DeConcini",
   "type": "http://www.lombardinetworks.net/lombardi.owl#Institution"},
  {"id": "3579",
   "name": "Katz",
   "type": "http://www.lombardinetworks.net/lombardi.owl#Institution"},
  {"id": "2488",
   "name": "[7]",
   "type": "http://www.lombardinetworks.net/lombardi.owl#Institution"},
  {"id": "3578",
   "name": "Ober",
   "type": "http://www.lombardinetworks.net/lombardi.owl#Institution"},
  {"id": "2485",
   "name": "[6]",
   "type": "http://www.lombardinetworks.net/lombardi.owl#Institution"},
  {"id": "3577",
   "name": "Intercapital Savings",
   "type": "http://www.lombardinetworks.net/lombardi.owl#Institution"},
  {"id": "3387",
   "name": "Roy Norton",
   "type": "http://www.lombardinetworks.net/lombardi.owl#Institution"},
  {"id": "3576",
   "name": "John Anderson",
   "type": "http://www.lombardinetworks.net/lombardi.owl#Institution"},
  {"id": "3575",
   "name": "Richard Beneouti",
   "type": "http://www.lombardinetworks.net/lombardi.owl#Institution"},
  {"id": "3574",
   "name": "Kuweit Investmt",
   "type": "http://www.lombardinetworks.net/lombardi.owl#Institution"},
  {"id": "3573",
   "name": "Phoenician",
   "type": "http://www.lombardinetworks.net/lombardi.owl#Institution"},
  {"id": "2483",
   "name": "[5]",
   "type": "http://www.lombardinetworks.net/lombardi.owl#Institution"},
  {"id": "3435",
   "name": "Bobby Ginn",
   "type": "http://www.lombardinetworks.net/lombardi.owl#Institution"},
  {"id": "3433",
   "name": "Hilton Head",
   "type": "http://www.lombardinetworks.net/lombardi.owl#Institution"},
  {"id": "3572",
   "name": "Barnes Connally $ 97 mil",
   "type": "http://www.lombardinetworks.net/lombardi.owl#Institution"},
  {"id": "3571",
   "name": "P Schwab",
   "type": "http://www.lombardinetworks.net/lombardi.owl#Institution"},
  {"id": "3570",
   "name": "had $ 45 mil passacct's $ 2.1 bil jumbo CDS",
   "type": "http://www.lombardinetworks.net/lombardi.owl#Person"},
  {"id": "3569",
   "name": "Lee Henkel $ 55 mil on ga RE",
   "type": "http://www.lombardinetworks.net/lombardi.owl#Person"},
  {"id": "3568",
   "name": "Lee Henkel & partners $ 45 mil",
   "type": "http://www.lombardinetworks.net/lombardi.owl#Person"},
  {"id": "3567",
   "name": "DBL and others",
   "type": "http://www.lombardinetworks.net/lombardi.owl#Institution"},
  {"id": "2482",
   "name": "[4]",
   "type": "http://www.lombardinetworks.net/lombardi.owl#Institution"},
  {"id": "3566",
   "name": "Sam Ware",
   "type": "http://www.lombardinetworks.net/lombardi.owl#Institution"},
  {"id": "1587",
   "name": "Sunbelt",
   "type": "http://www.lombardinetworks.net/lombardi.owl#Institution"},
  {"id": "3565",
   "name": "Ed McBirney",
   "type": "http://www.lombardinetworks.net/lombardi.owl#Institution"},
  {"id": "3564",
   "name": "Somark",
   "type": "http://www.lombardinetworks.net/lombardi.owl#Institution"},
  {"id": "3563",
   "name": "Rick Strauss",
   "type": "http://www.lombardinetworks.net/lombardi.owl#Institution"},
  {"id": "3562",
   "name": "Robt Strauss",
   "type": "http://www.lombardinetworks.net/lombardi.owl#Institution"},
  {"id": "3561",
   "name": "First Tx",
   "type": "http://www.lombardinetworks.net/lombardi.owl#Institution"},
  {"id": "3560",
   "name": "Alan Greenspan",
   "type": "http://www.lombardinetworks.net/lombardi.owl#Institution"},
  {"id": "2278",
   "name": "[3]",
   "type": "http://www.lombardinetworks.net/lombardi.owl#Institution"},
  {"id": "3559",
   "name": "Imperial",
   "type": "http://www.lombardinetworks.net/lombardi.owl#Institution"},
  {"id": "2292",
   "name": "[2]",
   "type": "http://www.lombardinetworks.net/lombardi.owl#Institution"},
  {"id": "3558",
   "name": "Smark Sub S.A.",
   "type": "http://www.lombardinetworks.net/lombardi.owl#Institution"},
  {"id": "3557",
   "name": "MDC",
   "type": "http://www.lombardinetworks.net/lombardi.owl#Institution"},
  {"id": "3556",
   "name": "Amcor",
   "type": "http://www.lombardinetworks.net/lombardi.owl#Institution"},
  {"id": "2469",
   "name": "[1]",
   "type": "http://www.lombardinetworks.net/lombardi.owl#Institution"},
  {"id": "3555",
   "name": "$ 5 mil junk bonds",
   "type": "http://www.lombardinetworks.net/lombardi.owl#Person"},
  {"id": "3554",
   "name": "$ 2.1 mil in oil co",
   "type": "http://www.lombardinetworks.net/lombardi.owl#Person"},
  {"id": "3553",
   "name": "$ 18 mil investment in Saudi bank",
   "type": "http://www.lombardinetworks.net/lombardi.owl#Person"},
  {"id": "3552",
   "name": "$ 19.5 mil in hotel",
   "type": "http://www.lombardinetworks.net/lombardi.owl#Person"},
  {"id": "3551",
   "name": "$ 132 mil  in takeover bid",
   "type": "http://www.lombardinetworks.net/lombardi.owl#Person"},
  {"id": "3550",
   "name": "Linco",
   "type": "http://www.lombardinetworks.net/lombardi.owl#Institution"},
  {"id": "3549",
   "name": "Mark Connally",
   "type": "http://www.lombardinetworks.net/lombardi.owl#Institution"},
  {"id": "3548",
   "name": "ACC",
   "type": "http://www.lombardinetworks.net/lombardi.owl#Institution"},
  {"id": "3547",
   "name": "DBL",
   "type": "http://www.lombardinetworks.net/lombardi.owl#Institution"}

   ],
   "links": [
   {"source": "3593",
   "target": "3587",
   "amount": "Playtax",
   "type": "http://www.lombardinetworks.net/lombardi.owl#FinancialTransaction"},
  {"source": "3589",
   "target": "3592",
   "amount": "",
   "type": "http://www.lombardinetworks.net/lombardi.owl#InfluenceControl"},
  {"source": "3589",
   "target": "3591",
   "amount": "",
   "type": "http://www.lombardinetworks.net/lombardi.owl#InfluenceControl"},
  {"source": "3589",
   "target": "3590",
   "amount": "",
   "type": "http://www.lombardinetworks.net/lombardi.owl#InfluenceControl"},
  {"source": "3587",
   "target": "3593",
   "amount": "Beman",
   "type": "http://www.lombardinetworks.net/lombardi.owl#FinancialTransaction"},
  {"source": "3587",
   "target": "3589",
   "amount": "",
   "type": "http://www.lombardinetworks.net/lombardi.owl#Connection"},
  {"source": "3586",
   "target": "3587",
   "amount": "",
   "type": "http://www.lombardinetworks.net/lombardi.owl#Connection"},
  {"source": "3586",
   "target": "3557",
   "amount": "15 mil loc",
   "type": "http://www.lombardinetworks.net/lombardi.owl#FinancialTransaction"},
  {"source": "3586",
   "target": "3588",
   "amount": "$ 700 mil early 86",
   "type": "http://www.lombardinetworks.net/lombardi.owl#FinancialTransaction"},
  {"source": "3586",
   "target": "3587",
   "amount": "$ 98 mil \"taxes\"",
   "type": "http://www.lombardinetworks.net/lombardi.owl#FinancialTransaction"},
  {"source": "3584",
   "target": "3585",
   "amount": "$ 35 mil",
   "type": "http://www.lombardinetworks.net/lombardi.owl#FinancialTransaction"},
  {"source": "3582",
   "target": "3583",
   "amount": "900k ACC junk",
   "type": "http://www.lombardinetworks.net/lombardi.owl#FinancialTransaction"},
  {"source": "3582",
   "target": "2485",
   "amount": "$ 27,9 mill loan",
   "type": "http://www.lombardinetworks.net/lombardi.owl#FinancialTransaction"},
  {"source": "3581",
   "target": "3584",
   "amount": "",
   "type": "http://www.lombardinetworks.net/lombardi.owl#Connection"},
  {"source": "3581",
   "target": "3582",
   "amount": "",
   "type": "http://www.lombardinetworks.net/lombardi.owl#Connection"},
  {"source": "3580",
   "target": "3578",
   "amount": "",
   "type": "http://www.lombardinetworks.net/lombardi.owl#Connection"},
  {"source": "3580",
   "target": "3579",
   "amount": "",
   "type": "http://www.lombardinetworks.net/lombardi.owl#Connection"},
  {"source": "2488",
   "target": "3579",
   "amount": "",
   "type": "http://www.lombardinetworks.net/lombardi.owl#Connection"},
  {"source": "2485",
   "target": "3586",
   "amount": "",
   "type": "http://www.lombardinetworks.net/lombardi.owl#Connection"},
  {"source": "2485",
   "target": "3581",
   "amount": "$ 129 mil 11/85-1/86",
   "type": "http://www.lombardinetworks.net/lombardi.owl#FinancialTransaction"},
  {"source": "2485",
   "target": "2488",
   "amount": "$ 3.5 mil",
   "type": "http://www.lombardinetworks.net/lombardi.owl#FinancialTransaction"},
  {"source": "2485",
   "target": "3578",
   "amount": "$ 50 mil",
   "type": "http://www.lombardinetworks.net/lombardi.owl#FinancialTransaction"},
  {"source": "3577",
   "target": "3387",
   "amount": "",
   "type": "http://www.lombardinetworks.net/lombardi.owl#Connection"},
  {"source": "3575",
   "target": "3576",
   "amount": "",
   "type": "http://www.lombardinetworks.net/lombardi.owl#Connection"},
  {"source": "3574",
   "target": "3573",
   "amount": "",
   "type": "http://www.lombardinetworks.net/lombardi.owl#FinancialTransaction"},
  {"source": "2483",
   "target": "2485",
   "amount": "",
   "type": "http://www.lombardinetworks.net/lombardi.owl#Connection"},
  {"source": "2483",
   "target": "3387",
   "amount": "",
   "type": "http://www.lombardinetworks.net/lombardi.owl#FinancialTransaction"},
  {"source": "2483",
   "target": "3566",
   "amount": "",
   "type": "http://www.lombardinetworks.net/lombardi.owl#FinancialTransaction"},
  {"source": "2483",
   "target": "3575",
   "amount": "",
   "type": "http://www.lombardinetworks.net/lombardi.owl#FinancialTransaction"},
  {"source": "2483",
   "target": "3573",
   "amount": "$ 265 mil",
   "type": "http://www.lombardinetworks.net/lombardi.owl#FinancialTransaction"},
  {"source": "3433",
   "target": "3435",
   "amount": "",
   "type": "http://www.lombardinetworks.net/lombardi.owl#FinancialTransaction"},
  {"source": "3571",
   "target": "3433",
   "amount": "",
   "type": "http://www.lombardinetworks.net/lombardi.owl#FinancialTransaction"},
  {"source": "2482",
   "target": "2483",
   "amount": "",
   "type": "http://www.lombardinetworks.net/lombardi.owl#Connection"},
  {"source": "2482",
   "target": "3572",
   "amount": "",
   "type": "http://www.lombardinetworks.net/lombardi.owl#FinancialTransaction"},
  {"source": "2482",
   "target": "3571",
   "amount": "20 mil",
   "type": "http://www.lombardinetworks.net/lombardi.owl#FinancialTransaction"},
  {"source": "2482",
   "target": "3570",
   "amount": "",
   "type": "http://www.lombardinetworks.net/lombardi.owl#InfluenceControl"},
  {"source": "2482",
   "target": "3569",
   "amount": "",
   "type": "http://www.lombardinetworks.net/lombardi.owl#FinancialTransaction"},
  {"source": "2482",
   "target": "3568",
   "amount": "",
   "type": "http://www.lombardinetworks.net/lombardi.owl#FinancialTransaction"},
  {"source": "2482",
   "target": "3567",
   "amount": "$ 800 mil junk",
   "type": "http://www.lombardinetworks.net/lombardi.owl#FinancialTransaction"},
  {"source": "3566",
   "target": "3565",
   "amount": "",
   "type": "http://www.lombardinetworks.net/lombardi.owl#Connection"},
  {"source": "1587",
   "target": "3565",
   "amount": "",
   "type": "http://www.lombardinetworks.net/lombardi.owl#Connection"},
  {"source": "3564",
   "target": "3565",
   "amount": "",
   "type": "http://www.lombardinetworks.net/lombardi.owl#FinancialTransaction"},
  {"source": "3561",
   "target": "3563",
   "amount": "",
   "type": "http://www.lombardinetworks.net/lombardi.owl#Connection"},
  {"source": "3561",
   "target": "3562",
   "amount": "",
   "type": "http://www.lombardinetworks.net/lombardi.owl#Connection"},
  {"source": "3560",
   "target": "2278",
   "amount": "",
   "type": "http://www.lombardinetworks.net/lombardi.owl#Connection"},
  {"source": "2278",
   "target": "2482",
   "amount": "",
   "type": "http://www.lombardinetworks.net/lombardi.owl#Connection"},
  {"source": "2278",
   "target": "3564",
   "amount": "$ 20 mil",
   "type": "http://www.lombardinetworks.net/lombardi.owl#FinancialTransaction"},
  {"source": "2278",
   "target": "3561",
   "amount": "$ 5 mil junk",
   "type": "http://www.lombardinetworks.net/lombardi.owl#FinancialTransaction"},
  {"source": "3559",
   "target": "3556",
   "amount": "$ 55 mil",
   "type": "http://www.lombardinetworks.net/lombardi.owl#FinancialTransaction"},
  {"source": "3558",
   "target": "3559",
   "amount": "Collateral",
   "type": "http://www.lombardinetworks.net/lombardi.owl#FinancialTransaction"},
  {"source": "3556",
   "target": "2292",
   "amount": "",
   "type": "http://www.lombardinetworks.net/lombardi.owl#Connection"},
  {"source": "3556",
   "target": "3558",
   "amount": "10 mil",
   "type": "http://www.lombardinetworks.net/lombardi.owl#FinancialTransaction"},
  {"source": "3556",
   "target": "3557",
   "amount": "land",
   "type": "http://www.lombardinetworks.net/lombardi.owl#FinancialTransaction"},
  {"source": "2469",
   "target": "3556",
   "amount": "",
   "type": "http://www.lombardinetworks.net/lombardi.owl#Connection"},
  {"source": "3550",
   "target": "2278",
   "amount": "",
   "type": "http://www.lombardinetworks.net/lombardi.owl#Connection"},
  {"source": "3550",
   "target": "3555",
   "amount": "",
   "type": "http://www.lombardinetworks.net/lombardi.owl#FinancialTransaction"},
  {"source": "3550",
   "target": "3554",
   "amount": "",
   "type": "http://www.lombardinetworks.net/lombardi.owl#FinancialTransaction"},
  {"source": "3550",
   "target": "3553",
   "amount": "",
   "type": "http://www.lombardinetworks.net/lombardi.owl#FinancialTransaction"},
  {"source": "3550",
   "target": "3552",
   "amount": "",
   "type": "http://www.lombardinetworks.net/lombardi.owl#FinancialTransaction"},
  {"source": "3550",
   "target": "3551",
   "amount": "",
   "type": "http://www.lombardinetworks.net/lombardi.owl#FinancialTransaction"},
  {"source": "3549",
   "target": "3548",
   "amount": "",
   "type": "http://www.lombardinetworks.net/lombardi.owl#Connection"},
  {"source": "3548",
   "target": "2469",
   "amount": "",
   "type": "http://www.lombardinetworks.net/lombardi.owl#Connection"},
  {"source": "3548",
   "target": "3550",
   "amount": "2/84",
   "type": "http://www.lombardinetworks.net/lombardi.owl#Connection"},
  {"source": "3547",
   "target": "3548",
   "amount": "100 mil",
   "type": "http://www.lombardinetworks.net/lombardi.owl#FinancialTransaction"}
 ]
}