
{
  "title": "First United, CB Fin",
  "nodes": [
   {"id": "11982",
   "name": "AK",
   "type": "http://www.lombardinetworks.net/lombardi.owl#Person"},
  {"id": "11802",
   "name": "US & European banks",
   "type": "http://www.lombardinetworks.net/lombardi.owl#Institution"},
  {"id": "567",
   "name": "Houston Holding",
   "type": "http://www.lombardinetworks.net/lombardi.owl#Institution"},
  {"id": "11798",
   "name": "L. Iorizzo",
   "type": "http://www.lombardinetworks.net/lombardi.owl#Person"},
  {"id": "11796",
   "name": "Steve Samos req agent?",
   "type": "http://www.lombardinetworks.net/lombardi.owl#Person"},
  {"id": "11794",
   "name": "Vantage Petroleum",
   "type": "http://www.lombardinetworks.net/lombardi.owl#Institution"},
  {"id": "11792",
   "name": "?/4",
   "type": "http://www.lombardinetworks.net/lombardi.owl#Institution"},
  {"id": "11790",
   "name": "Central Bk NY",
   "type": "http://www.lombardinetworks.net/lombardi.owl#Institution"},
  {"id": "4363",
   "name": "81/2",
   "type": "http://www.lombardinetworks.net/lombardi.owl#Year"},
  {"id": "11788",
   "name": "AK/2 ?",
   "type": "http://www.lombardinetworks.net/lombardi.owl#Person"},
  {"id": "11786",
   "name": "?/3",
   "type": "http://www.lombardinetworks.net/lombardi.owl#Person"},
  {"id": "2659",
   "name": "?/2",
   "type": "http://www.lombardinetworks.net/lombardi.owl#Person"},
  {"id": "11783",
   "name": "Switz/2",
   "type": "http://www.lombardinetworks.net/lombardi.owl#Institution"},
  {"id": "11781",
   "name": "Brazil",
   "type": "http://www.lombardinetworks.net/lombardi.owl#Institution"},
  {"id": "11779",
   "name": "1st B&T Duncan Ok",
   "type": "http://www.lombardinetworks.net/lombardi.owl#Institution"},
  {"id": "11776",
   "name": "Renda/2",
   "type": "http://www.lombardinetworks.net/lombardi.owl#Person"},
  {"id": "11774",
   "name": "85/2",
   "type": "http://www.lombardinetworks.net/lombardi.owl#Year"},
  {"id": "3416",
   "name": "Fl Ctr Bank",
   "type": "http://www.lombardinetworks.net/lombardi.owl#Institution"},
  {"id": "11771",
   "name": "Bazarian",
   "type": "http://www.lombardinetworks.net/lombardi.owl#Institution"},
  {"id": "11769",
   "name": "Rapp",
   "type": "http://www.lombardinetworks.net/lombardi.owl#Person"},
  {"id": "2699",
   "name": "CIA",
   "type": "http://www.lombardinetworks.net/lombardi.owl#Institution"},
  {"id": "11766",
   "name": "Smith",
   "type": "http://www.lombardinetworks.net/lombardi.owl#Person"},
  {"id": "11764",
   "name": "CBFin",
   "type": "http://www.lombardinetworks.net/lombardi.owl#Institution"},
  {"id": "11762",
   "name": "Bank of Irvine",
   "type": "http://www.lombardinetworks.net/lombardi.owl#Institution"},
  {"id": "1673",
   "name": "San Marino S&L",
   "type": "http://www.lombardinetworks.net/lombardi.owl#Institution"},
  {"id": "11759",
   "name": "Shenker ?",
   "type": "http://www.lombardinetworks.net/lombardi.owl#Person"},
  {"id": "11757",
   "name": "Mainland",
   "type": "http://www.lombardinetworks.net/lombardi.owl#Institution"},
  {"id": "11755",
   "name": "BofA ?",
   "type": "http://www.lombardinetworks.net/lombardi.owl#Institution"},
  {"id": "2632",
   "name": "?/1",
   "type": "http://www.lombardinetworks.net/lombardi.owl#Person"},
  {"id": "11751",
   "name": "1st United Fin Corp",
   "type": "http://www.lombardinetworks.net/lombardi.owl#Institution"},
  {"id": "2292",
   "name": "[2]",
   "type": "http://www.lombardinetworks.net/lombardi.owl#Institution"},
  {"id": "11747",
   "name": "1st United Partners 4",
   "type": "http://www.lombardinetworks.net/lombardi.owl#Institution"},
  {"id": "11744",
   "name": "Coronado",
   "type": "http://www.lombardinetworks.net/lombardi.owl#Institution"},
  {"id": "11742",
   "name": "Flushing Fed",
   "type": "http://www.lombardinetworks.net/lombardi.owl#Institution"},
  {"id": "11740",
   "name": "Bureau of Indian Affairs??",
   "type": "http://www.lombardinetworks.net/lombardi.owl#Institution"},
  {"id": "11738",
   "name": "Paul Castellano?",
   "type": "http://www.lombardinetworks.net/lombardi.owl#Person"},
  {"id": "11736",
   "name": "Empire S&L",
   "type": "http://www.lombardinetworks.net/lombardi.owl#Institution"},
  {"id": "11734",
   "name": "F Winkler",
   "type": "http://www.lombardinetworks.net/lombardi.owl#Person"},
  {"id": "11732",
   "name": "L Winkler",
   "type": "http://www.lombardinetworks.net/lombardi.owl#Person"},
  {"id": "563",
   "name": "Sam Daily",
   "type": "http://www.lombardinetworks.net/lombardi.owl#Person"},
  {"id": "11728",
   "name": "Straw borrowers $ 3.7 mil",
   "type": "http://www.lombardinetworks.net/lombardi.owl#Institution"},
  {"id": "11726",
   "name": "Lemaster",
   "type": "http://www.lombardinetworks.net/lombardi.owl#Person"},
  {"id": "11724",
   "name": "Russo",
   "type": "http://www.lombardinetworks.net/lombardi.owl#Person"},
  {"id": "11722",
   "name": "Indian Springs",
   "type": "http://www.lombardinetworks.net/lombardi.owl#Institution"},
  {"id": "11720",
   "name": "Saudis?",
   "type": "http://www.lombardinetworks.net/lombardi.owl#Institution"},
  {"id": "11718",
   "name": "Sid Shah",
   "type": "http://www.lombardinetworks.net/lombardi.owl#Person"},
  {"id": "11716",
   "name": "Piombo",
   "type": "http://www.lombardinetworks.net/lombardi.owl#Person"},
  {"id": "11714",
   "name": "Hansen",
   "type": "http://www.lombardinetworks.net/lombardi.owl#Person"},
  {"id": "11712",
   "name": "Centennial",
   "type": "http://www.lombardinetworks.net/lombardi.owl#Institution"},
  {"id": "11709",
   "name": "Hawaii RE",
   "type": "http://www.lombardinetworks.net/lombardi.owl#Institution"},
  {"id": "11707",
   "name": "Switz",
   "type": "http://www.lombardinetworks.net/lombardi.owl#Institution"},
  {"id": "11705",
   "name": "Palace Hotel & Casino PR",
   "type": "http://www.lombardinetworks.net/lombardi.owl#Institution"},
  {"id": "11703",
   "name": "Sea Side",
   "type": "http://www.lombardinetworks.net/lombardi.owl#Institution"},
  {"id": "3411",
   "name": "Robt Ferrante",
   "type": "http://www.lombardinetworks.net/lombardi.owl#Person"},
  {"id": "11700",
   "name": "Consolid",
   "type": "http://www.lombardinetworks.net/lombardi.owl#Institution"},
  {"id": "11698",
   "name": "Prudential Bach",
   "type": "http://www.lombardinetworks.net/lombardi.owl#Institution"},
  {"id": "11696",
   "name": "AG Becker?",
   "type": "http://www.lombardinetworks.net/lombardi.owl#Institution"},
  {"id": "11694",
   "name": "Haiku",
   "type": "http://www.lombardinetworks.net/lombardi.owl#Institution"},
  {"id": "11692",
   "name": "Sheetmetal workers Local 38",
   "type": "http://www.lombardinetworks.net/lombardi.owl#Institution"},
  {"id": "11690",
   "name": "Teamsters Local 810",
   "type": "http://www.lombardinetworks.net/lombardi.owl#Institution"},
  {"id": "11687",
   "name": "BB",
   "type": "http://www.lombardinetworks.net/lombardi.owl#Person"},
  {"id": "11685",
   "name": "Union officials",
   "type": "http://www.lombardinetworks.net/lombardi.owl#Institution"},
  {"id": "11683",
   "name": "NMiss S&L",
   "type": "http://www.lombardinetworks.net/lombardi.owl#Institution"},
  {"id": "11681",
   "name": "San Brequito",
   "type": "http://www.lombardinetworks.net/lombardi.owl#Institution"},
  {"id": "11679",
   "name": "16 S&Ls 2 banks",
   "type": "http://www.lombardinetworks.net/lombardi.owl#Institution"},
  {"id": "382",
   "name": "?",
   "type": "http://www.lombardinetworks.net/lombardi.owl#Person"},
  {"id": "11676",
   "name": "Penn Square",
   "type": "http://www.lombardinetworks.net/lombardi.owl#Institution"},
  {"id": "2469",
   "name": "[1]",
   "type": "http://www.lombardinetworks.net/lombardi.owl#Institution"},
  {"id": "11673",
   "name": "86",
   "type": "http://www.lombardinetworks.net/lombardi.owl#Year"},
  {"id": "11671",
   "name": "85",
   "type": "http://www.lombardinetworks.net/lombardi.owl#Year"},
  {"id": "11669",
   "name": "84",
   "type": "http://www.lombardinetworks.net/lombardi.owl#Year"},
  {"id": "11667",
   "name": "83",
   "type": "http://www.lombardinetworks.net/lombardi.owl#Year"},
  {"id": "11665",
   "name": "82",
   "type": "http://www.lombardinetworks.net/lombardi.owl#Year"},
  {"id": "11663",
   "name": "81",
   "type": "http://www.lombardinetworks.net/lombardi.owl#Year"},
  {"id": "11660",
   "name": "Arabras",
   "type": "http://www.lombardinetworks.net/lombardi.owl#Institution"},
  {"id": "11657",
   "name": "Schwimmer",
   "type": "http://www.lombardinetworks.net/lombardi.owl#Person"},
  {"id": "11655",
   "name": "1st United",
   "type": "http://www.lombardinetworks.net/lombardi.owl#Institution"},
  {"id": "11653",
   "name": "Casino",
   "type": "http://www.lombardinetworks.net/lombardi.owl#Institution"},
  {"id": "11651",
   "name": "Arab Intl Bank",
   "type": "http://www.lombardinetworks.net/lombardi.owl#Institution"},
  {"id": "3415",
   "name": "Renda",
   "type": "http://www.lombardinetworks.net/lombardi.owl#Person"},
  {"id": "11648",
   "name": "hotel",
   "type": "http://www.lombardinetworks.net/lombardi.owl#Institution"},
  {"id": "11646",
   "name": "Lucky Coast",
   "type": "http://www.lombardinetworks.net/lombardi.owl#Institution"},
  {"id": "11644",
   "name": "Haiti",
   "type": "http://www.lombardinetworks.net/lombardi.owl#Institution"},
  {"id": "11642",
   "name": "CPAD",
   "type": "http://www.lombardinetworks.net/lombardi.owl#Institution"},
  {"id": "11641",
   "name": "Sy Miller",
   "type": "http://www.lombardinetworks.net/lombardi.owl#Person"}

   ],
   "links": [
   {"source": "11982",
   "target": "11642",
   "amount": "",
   "type": "http://www.lombardinetworks.net/lombardi.owl#Connection"},
  {"source": "11802",
   "target": "567",
   "amount": "",
   "type": "http://www.lombardinetworks.net/lombardi.owl#FinancialTransaction"},
  {"source": "11798",
   "target": "567",
   "amount": "",
   "type": "http://www.lombardinetworks.net/lombardi.owl#Connection"},
  {"source": "11798",
   "target": "11792",
   "amount": "",
   "type": "http://www.lombardinetworks.net/lombardi.owl#Connection"},
  {"source": "11798",
   "target": "11794",
   "amount": "",
   "type": "http://www.lombardinetworks.net/lombardi.owl#Connection"},
  {"source": "11796",
   "target": "11792",
   "amount": "",
   "type": "http://www.lombardinetworks.net/lombardi.owl#Connection"},
  {"source": "11792",
   "target": "11794",
   "amount": "",
   "type": "http://www.lombardinetworks.net/lombardi.owl#FinancialTransaction"},
  {"source": "11790",
   "target": "11792",
   "amount": "",
   "type": "http://www.lombardinetworks.net/lombardi.owl#FinancialTransaction"},
  {"source": "4363",
   "target": "11790",
   "amount": "",
   "type": "http://www.lombardinetworks.net/lombardi.owl#FinancialTransaction"},
  {"source": "11788",
   "target": "4363",
   "amount": "",
   "type": "http://www.lombardinetworks.net/lombardi.owl#FinancialTransaction"},
  {"source": "11783",
   "target": "2659",
   "amount": "",
   "type": "http://www.lombardinetworks.net/lombardi.owl#FinancialTransaction"},
  {"source": "11781",
   "target": "11786",
   "amount": "",
   "type": "http://www.lombardinetworks.net/lombardi.owl#FinancialTransaction"},
  {"source": "11774",
   "target": "11771",
   "amount": "",
   "type": "http://www.lombardinetworks.net/lombardi.owl#Connection"},
  {"source": "11774",
   "target": "11776",
   "amount": "",
   "type": "http://www.lombardinetworks.net/lombardi.owl#Connection"},
  {"source": "11774",
   "target": "11769",
   "amount": "",
   "type": "http://www.lombardinetworks.net/lombardi.owl#Connection"},
  {"source": "11769",
   "target": "3416",
   "amount": "",
   "type": "http://www.lombardinetworks.net/lombardi.owl#Connection"},
  {"source": "11766",
   "target": "11779",
   "amount": "",
   "type": "http://www.lombardinetworks.net/lombardi.owl#FinancialTransaction"},
  {"source": "11766",
   "target": "11769",
   "amount": "",
   "type": "http://www.lombardinetworks.net/lombardi.owl#Connection"},
  {"source": "11766",
   "target": "2699",
   "amount": "",
   "type": "http://www.lombardinetworks.net/lombardi.owl#Connection"},
  {"source": "11764",
   "target": "11771",
   "amount": "",
   "type": "http://www.lombardinetworks.net/lombardi.owl#FinancialTransaction"},
  {"source": "11755",
   "target": "11669",
   "amount": "",
   "type": "http://www.lombardinetworks.net/lombardi.owl#FinancialTransaction"},
  {"source": "11751",
   "target": "2632",
   "amount": "",
   "type": "http://www.lombardinetworks.net/lombardi.owl#FinancialTransaction"},
  {"source": "11747",
   "target": "11734",
   "amount": "",
   "type": "http://www.lombardinetworks.net/lombardi.owl#FinancialTransaction"},
  {"source": "11744",
   "target": "11694",
   "amount": "",
   "type": "http://www.lombardinetworks.net/lombardi.owl#FinancialTransaction"},
  {"source": "11740",
   "target": "11667",
   "amount": "",
   "type": "http://www.lombardinetworks.net/lombardi.owl#FinancialTransaction"},
  {"source": "11738",
   "target": "11667",
   "amount": "",
   "type": "http://www.lombardinetworks.net/lombardi.owl#FinancialTransaction"},
  {"source": "11734",
   "target": "11694",
   "amount": "",
   "type": "http://www.lombardinetworks.net/lombardi.owl#Connection"},
  {"source": "11732",
   "target": "11694",
   "amount": "",
   "type": "http://www.lombardinetworks.net/lombardi.owl#Connection"},
  {"source": "563",
   "target": "11694",
   "amount": "",
   "type": "http://www.lombardinetworks.net/lombardi.owl#Connection"},
  {"source": "11728",
   "target": "11694",
   "amount": "",
   "type": "http://www.lombardinetworks.net/lombardi.owl#Connection"},
  {"source": "11726",
   "target": "11722",
   "amount": "",
   "type": "http://www.lombardinetworks.net/lombardi.owl#Connection"},
  {"source": "11724",
   "target": "11722",
   "amount": "",
   "type": "http://www.lombardinetworks.net/lombardi.owl#Connection"},
  {"source": "11722",
   "target": "11728",
   "amount": "",
   "type": "http://www.lombardinetworks.net/lombardi.owl#Connection"},
  {"source": "11720",
   "target": "11665",
   "amount": "",
   "type": "http://www.lombardinetworks.net/lombardi.owl#FinancialTransaction"},
  {"source": "11716",
   "target": "11718",
   "amount": "",
   "type": "http://www.lombardinetworks.net/lombardi.owl#Connection"},
  {"source": "11716",
   "target": "11712",
   "amount": "",
   "type": "http://www.lombardinetworks.net/lombardi.owl#InfluenceControl"},
  {"source": "11714",
   "target": "11712",
   "amount": "",
   "type": "http://www.lombardinetworks.net/lombardi.owl#Connection"},
  {"source": "11703",
   "target": "11709",
   "amount": "",
   "type": "http://www.lombardinetworks.net/lombardi.owl#Connection"},
  {"source": "11703",
   "target": "11707",
   "amount": "",
   "type": "http://www.lombardinetworks.net/lombardi.owl#FinancialTransaction"},
  {"source": "11703",
   "target": "11705",
   "amount": "",
   "type": "http://www.lombardinetworks.net/lombardi.owl#Connection"},
  {"source": "3411",
   "target": "11700",
   "amount": "",
   "type": "http://www.lombardinetworks.net/lombardi.owl#Connection"},
  {"source": "11700",
   "target": "11703",
   "amount": "",
   "type": "http://www.lombardinetworks.net/lombardi.owl#InfluenceControl"},
  {"source": "11698",
   "target": "11663",
   "amount": "",
   "type": "http://www.lombardinetworks.net/lombardi.owl#InfluenceControl"},
  {"source": "11696",
   "target": "11663",
   "amount": "",
   "type": "http://www.lombardinetworks.net/lombardi.owl#FinancialTransaction"},
  {"source": "11694",
   "target": "11709",
   "amount": "",
   "type": "http://www.lombardinetworks.net/lombardi.owl#Connection"},
  {"source": "11692",
   "target": "11657",
   "amount": "",
   "type": "http://www.lombardinetworks.net/lombardi.owl#FinancialTransaction"},
  {"source": "11690",
   "target": "11657",
   "amount": "",
   "type": "http://www.lombardinetworks.net/lombardi.owl#FinancialTransaction"},
  {"source": "11687",
   "target": "11681",
   "amount": "",
   "type": "http://www.lombardinetworks.net/lombardi.owl#InfluenceControl"},
  {"source": "11687",
   "target": "11683",
   "amount": "",
   "type": "http://www.lombardinetworks.net/lombardi.owl#InfluenceControl"},
  {"source": "11679",
   "target": "11685",
   "amount": "",
   "type": "http://www.lombardinetworks.net/lombardi.owl#InfluenceControl"},
  {"source": "11679",
   "target": "11683",
   "amount": "",
   "type": "http://www.lombardinetworks.net/lombardi.owl#InfluenceControl"},
  {"source": "11679",
   "target": "11681",
   "amount": "",
   "type": "http://www.lombardinetworks.net/lombardi.owl#InfluenceControl"},
  {"source": "11676",
   "target": "382",
   "amount": "",
   "type": "http://www.lombardinetworks.net/lombardi.owl#FinancialTransaction"},
  {"source": "11673",
   "target": "11783",
   "amount": "",
   "type": "http://www.lombardinetworks.net/lombardi.owl#FinancialTransaction"},
  {"source": "11673",
   "target": "11781",
   "amount": "",
   "type": "http://www.lombardinetworks.net/lombardi.owl#FinancialTransaction"},
  {"source": "11673",
   "target": "2469",
   "amount": "",
   "type": "http://www.lombardinetworks.net/lombardi.owl#YearArrow"},
  {"source": "11671",
   "target": "11766",
   "amount": "",
   "type": "http://www.lombardinetworks.net/lombardi.owl#FinancialTransaction"},
  {"source": "11671",
   "target": "11764",
   "amount": "",
   "type": "http://www.lombardinetworks.net/lombardi.owl#FinancialTransaction"},
  {"source": "11671",
   "target": "11762",
   "amount": "",
   "type": "http://www.lombardinetworks.net/lombardi.owl#FinancialTransaction"},
  {"source": "11671",
   "target": "11673",
   "amount": "",
   "type": "http://www.lombardinetworks.net/lombardi.owl#YearArrow"},
  {"source": "11669",
   "target": "1673",
   "amount": "",
   "type": "http://www.lombardinetworks.net/lombardi.owl#FinancialTransaction"},
  {"source": "11669",
   "target": "11759",
   "amount": "",
   "type": "http://www.lombardinetworks.net/lombardi.owl#FinancialTransaction"},
  {"source": "11669",
   "target": "11757",
   "amount": "",
   "type": "http://www.lombardinetworks.net/lombardi.owl#FinancialTransaction"},
  {"source": "11669",
   "target": "11671",
   "amount": "",
   "type": "http://www.lombardinetworks.net/lombardi.owl#YearArrow"},
  {"source": "11667",
   "target": "11751",
   "amount": "",
   "type": "http://www.lombardinetworks.net/lombardi.owl#Connection"},
  {"source": "11667",
   "target": "11751",
   "amount": "",
   "type": "http://www.lombardinetworks.net/lombardi.owl#FinancialTransaction"},
  {"source": "11667",
   "target": "2292",
   "amount": "",
   "type": "http://www.lombardinetworks.net/lombardi.owl#FinancialTransaction"},
  {"source": "11667",
   "target": "11747",
   "amount": "",
   "type": "http://www.lombardinetworks.net/lombardi.owl#Connection"},
  {"source": "11667",
   "target": "11744",
   "amount": "",
   "type": "http://www.lombardinetworks.net/lombardi.owl#FinancialTransaction"},
  {"source": "11667",
   "target": "11742",
   "amount": "",
   "type": "http://www.lombardinetworks.net/lombardi.owl#FinancialTransaction"},
  {"source": "11667",
   "target": "11669",
   "amount": "",
   "type": "http://www.lombardinetworks.net/lombardi.owl#YearArrow"},
  {"source": "11665",
   "target": "11736",
   "amount": "",
   "type": "http://www.lombardinetworks.net/lombardi.owl#FinancialTransaction"},
  {"source": "11665",
   "target": "11722",
   "amount": "",
   "type": "http://www.lombardinetworks.net/lombardi.owl#FinancialTransaction"},
  {"source": "11665",
   "target": "11667",
   "amount": "",
   "type": "http://www.lombardinetworks.net/lombardi.owl#YearArrow"},
  {"source": "11663",
   "target": "11712",
   "amount": "",
   "type": "http://www.lombardinetworks.net/lombardi.owl#FinancialTransaction"},
  {"source": "11663",
   "target": "11700",
   "amount": "",
   "type": "http://www.lombardinetworks.net/lombardi.owl#FinancialTransaction"},
  {"source": "11663",
   "target": "11665",
   "amount": "",
   "type": "http://www.lombardinetworks.net/lombardi.owl#YearArrow"},
  {"source": "11660",
   "target": "11655",
   "amount": "",
   "type": "http://www.lombardinetworks.net/lombardi.owl#InfluenceControl"},
  {"source": "11657",
   "target": "11655",
   "amount": "",
   "type": "http://www.lombardinetworks.net/lombardi.owl#FinancialTransaction"},
  {"source": "11657",
   "target": "11655",
   "amount": "",
   "type": "http://www.lombardinetworks.net/lombardi.owl#Connection"},
  {"source": "11655",
   "target": "11679",
   "amount": "",
   "type": "http://www.lombardinetworks.net/lombardi.owl#FinancialTransaction"},
  {"source": "11655",
   "target": "11676",
   "amount": "",
   "type": "http://www.lombardinetworks.net/lombardi.owl#FinancialTransaction"},
  {"source": "11655",
   "target": "11663",
   "amount": "",
   "type": "http://www.lombardinetworks.net/lombardi.owl#YearArrow"},
  {"source": "11653",
   "target": "11651",
   "amount": "",
   "type": "http://www.lombardinetworks.net/lombardi.owl#Connection"},
  {"source": "3415",
   "target": "11694",
   "amount": "",
   "type": "http://www.lombardinetworks.net/lombardi.owl#Connection"},
  {"source": "3415",
   "target": "11660",
   "amount": "",
   "type": "http://www.lombardinetworks.net/lombardi.owl#Connection"},
  {"source": "3415",
   "target": "11655",
   "amount": "",
   "type": "http://www.lombardinetworks.net/lombardi.owl#Connection"},
  {"source": "3415",
   "target": "11651",
   "amount": "",
   "type": "http://www.lombardinetworks.net/lombardi.owl#Connection"},
  {"source": "3415",
   "target": "11642",
   "amount": "",
   "type": "http://www.lombardinetworks.net/lombardi.owl#Connection"},
  {"source": "11648",
   "target": "11646",
   "amount": "",
   "type": "http://www.lombardinetworks.net/lombardi.owl#Connection"},
  {"source": "11646",
   "target": "11642",
   "amount": "",
   "type": "http://www.lombardinetworks.net/lombardi.owl#Connection"},
  {"source": "11644",
   "target": "11642",
   "amount": "",
   "type": "http://www.lombardinetworks.net/lombardi.owl#Connection"},
  {"source": "11641",
   "target": "11642",
   "amount": "",
   "type": "http://www.lombardinetworks.net/lombardi.owl#Connection"}
 ]
}