
{
  "title": "Carlos Cardoen 'military pyrotechnics' Santiago, Chile c. 1982-92",
  "nodes": [
   {"id": "3251",
   "name": "Carlos Schurmann",
   "type": "http://www.lombardinetworks.net/lombardi.owl#Person"},
  {"id": "13984",
   "name": "Younger",
   "type": "http://www.lombardinetworks.net/lombardi.owl#Person"},
  {"id": "13981",
   "name": "Lagan",
   "type": "http://www.lombardinetworks.net/lombardi.owl#Institution"},
  {"id": "13979",
   "name": "Valdivesio",
   "type": "http://www.lombardinetworks.net/lombardi.owl#Person"},
  {"id": "3252",
   "name": "Nasser Beydoun",
   "type": "http://www.lombardinetworks.net/lombardi.owl#Person"},
  {"id": "13976",
   "name": "Montecinos",
   "type": "http://www.lombardinetworks.net/lombardi.owl#Person"},
  {"id": "13973",
   "name": "Paraguay",
   "type": "http://www.lombardinetworks.net/lombardi.owl#Institution"},
  {"id": "13972",
   "name": "Hans Mayers",
   "type": "http://www.lombardinetworks.net/lombardi.owl#Person"},
  {"id": "13969",
   "name": "ITICO",
   "type": "http://www.lombardinetworks.net/lombardi.owl#Institution"},
  {"id": "13968",
   "name": "Alan Sanders",
   "type": "http://www.lombardinetworks.net/lombardi.owl#Person"},
  {"id": "13966",
   "name": "Ed Johnson",
   "type": "http://www.lombardinetworks.net/lombardi.owl#Person"},
  {"id": "3256",
   "name": "Ronald Griffin",
   "type": "http://www.lombardinetworks.net/lombardi.owl#Person"},
  {"id": "13963",
   "name": "Swiss Mgmt",
   "type": "http://www.lombardinetworks.net/lombardi.owl#Institution"},
  {"id": "13961",
   "name": "Teledyne",
   "type": "http://www.lombardinetworks.net/lombardi.owl#Institution"},
  {"id": "3261",
   "name": "Jorge Ochoa",
   "type": "http://www.lombardinetworks.net/lombardi.owl#Person"},
  {"id": "3250",
   "name": "Augusto Giangrandini",
   "type": "http://www.lombardinetworks.net/lombardi.owl#Person"},
  {"id": "14192",
   "name": "Anthony Mijares",
   "type": "http://www.lombardinetworks.net/lombardi.owl#Person"},
  {"id": "13955",
   "name": "Swissco Grp Ctr",
   "type": "http://www.lombardinetworks.net/lombardi.owl#Institution"},
  {"id": "13953",
   "name": "Orlando Corp Ctr",
   "type": "http://www.lombardinetworks.net/lombardi.owl#Institution"},
  {"id": "13951",
   "name": "Swiss Props",
   "type": "http://www.lombardinetworks.net/lombardi.owl#Institution"},
  {"id": "13949",
   "name": "Angelica Gardens",
   "type": "http://www.lombardinetworks.net/lombardi.owl#Institution"},
  {"id": "13947",
   "name": "Conseld Bk",
   "type": "http://www.lombardinetworks.net/lombardi.owl#Institution"},
  {"id": "13945",
   "name": "Miami Lotus Plaza",
   "type": "http://www.lombardinetworks.net/lombardi.owl#Institution"},
  {"id": "13943",
   "name": "1st Union",
   "type": "http://www.lombardinetworks.net/lombardi.owl#Institution"},
  {"id": "13941",
   "name": "Sc Bk",
   "type": "http://www.lombardinetworks.net/lombardi.owl#Institution"},
  {"id": "13939",
   "name": "Victoria Lakes",
   "type": "http://www.lombardinetworks.net/lombardi.owl#Institution"},
  {"id": "13937",
   "name": "Sun Bank",
   "type": "http://www.lombardinetworks.net/lombardi.owl#Institution"},
  {"id": "13935",
   "name": "Royal Palm N",
   "type": "http://www.lombardinetworks.net/lombardi.owl#Institution"},
  {"id": "13933",
   "name": "Carlos Rickerton",
   "type": "http://www.lombardinetworks.net/lombardi.owl#Person"},
  {"id": "13931",
   "name": "James Theberge",
   "type": "http://www.lombardinetworks.net/lombardi.owl#Person"},
  {"id": "13929",
   "name": "DC",
   "type": "http://www.lombardinetworks.net/lombardi.owl#Institution"},
  {"id": "13926",
   "name": "Swissco Mgmt",
   "type": "http://www.lombardinetworks.net/lombardi.owl#Institution"},
  {"id": "13923",
   "name": "Indosuez Bank",
   "type": "http://www.lombardinetworks.net/lombardi.owl#Institution"},
  {"id": "1066",
   "name": "BCCI",
   "type": "http://www.lombardinetworks.net/lombardi.owl#Institution"},
  {"id": "3216",
   "name": "Manuel Rojas",
   "type": "http://www.lombardinetworks.net/lombardi.owl#Person"},
  {"id": "3210",
   "name": "Roberto Martinez",
   "type": "http://www.lombardinetworks.net/lombardi.owl#Person"},
  {"id": "13918",
   "name": "Swissco Dev",
   "type": "http://www.lombardinetworks.net/lombardi.owl#Institution"},
  {"id": "13916",
   "name": "Patricio Aylwin",
   "type": "http://www.lombardinetworks.net/lombardi.owl#Person"},
  {"id": "13914",
   "name": "pres campaign",
   "type": "http://www.lombardinetworks.net/lombardi.owl#Institution"},
  {"id": "184",
   "name": "Carlos Cardoen",
   "type": "http://www.lombardinetworks.net/lombardi.owl#Person"},
  {"id": "13911",
   "name": "Bell Heli",
   "type": "http://www.lombardinetworks.net/lombardi.owl#Institution"},
  {"id": "13909",
   "name": "Bailey",
   "type": "http://www.lombardinetworks.net/lombardi.owl#Person"},
  {"id": "13907",
   "name": "Pettus",
   "type": "http://www.lombardinetworks.net/lombardi.owl#Person"},
  {"id": "13905",
   "name": "Moore",
   "type": "http://www.lombardinetworks.net/lombardi.owl#Person"},
  {"id": "177",
   "name": "John Grecian",
   "type": "http://www.lombardinetworks.net/lombardi.owl#Person"},
  {"id": "176",
   "name": "Paul Grecian",
   "type": "http://www.lombardinetworks.net/lombardi.owl#Person"},
  {"id": "173",
   "name": "Terry Byrne",
   "type": "http://www.lombardinetworks.net/lombardi.owl#Person"},
  {"id": "5426",
   "name": "Arochem",
   "type": "http://www.lombardinetworks.net/lombardi.owl#Institution"},
  {"id": "3234",
   "name": "Anees Wadi",
   "type": "http://www.lombardinetworks.net/lombardi.owl#Person"},
  {"id": "13897",
   "name": "Bayoil",
   "type": "http://www.lombardinetworks.net/lombardi.owl#Institution"},
  {"id": "5405",
   "name": "Bay Inds",
   "type": "http://www.lombardinetworks.net/lombardi.owl#Institution"},
  {"id": "13894",
   "name": "Oil",
   "type": "http://www.lombardinetworks.net/lombardi.owl#Institution"},
  {"id": "3241",
   "name": "Chris Drogoul",
   "type": "http://www.lombardinetworks.net/lombardi.owl#Person"},
  {"id": "13889",
   "name": "Henderson",
   "type": "http://www.lombardinetworks.net/lombardi.owl#Person"},
  {"id": "13887",
   "name": "BTE Valante",
   "type": "http://www.lombardinetworks.net/lombardi.owl#Institution"},
  {"id": "13885",
   "name": "Ellingbird",
   "type": "http://www.lombardinetworks.net/lombardi.owl#Person"},
  {"id": "13883",
   "name": "Reunert SA",
   "type": "http://www.lombardinetworks.net/lombardi.owl#Institution"},
  {"id": "198",
   "name": "Govt Iraq",
   "type": "http://www.lombardinetworks.net/lombardi.owl#Institution"},
  {"id": "244",
   "name": "BNL",
   "type": "http://www.lombardinetworks.net/lombardi.owl#Institution"},
  {"id": "186",
   "name": "Ind Cardoen",
   "type": "http://www.lombardinetworks.net/lombardi.owl#Institution"},
  {"id": "195",
   "name": "Allivane",
   "type": "http://www.lombardinetworks.net/lombardi.owl#Institution"},
  {"id": "13877",
   "name": "Global Heli",
   "type": "http://www.lombardinetworks.net/lombardi.owl#Institution"},
  {"id": "2096",
   "name": "RBS",
   "type": "http://www.lombardinetworks.net/lombardi.owl#Institution"},
  {"id": "4191",
   "name": "Matra",
   "type": "http://www.lombardinetworks.net/lombardi.owl#Institution"},
  {"id": "13873",
   "name": "Jim Guerin",
   "type": "http://www.lombardinetworks.net/lombardi.owl#Person"},
  {"id": "13871",
   "name": "Sales to Iraq",
   "type": "http://www.lombardinetworks.net/lombardi.owl#Institution"},
  {"id": "13870",
   "name": "ISC",
   "type": "http://www.lombardinetworks.net/lombardi.owl#Institution"}

   ],
   "links": [
   {"source": "3251",
   "target": "186",
   "amount": "",
   "type": "http://www.lombardinetworks.net/lombardi.owl#InfluenceControl"},
  {"source": "13984",
   "target": "2096",
   "amount": "",
   "type": "http://www.lombardinetworks.net/lombardi.owl#InfluenceControl"},
  {"source": "13981",
   "target": "195",
   "amount": "",
   "type": "http://www.lombardinetworks.net/lombardi.owl#InfluenceControl"},
  {"source": "13979",
   "target": "186",
   "amount": "",
   "type": "http://www.lombardinetworks.net/lombardi.owl#InfluenceControl"},
  {"source": "3252",
   "target": "186",
   "amount": "",
   "type": "http://www.lombardinetworks.net/lombardi.owl#InfluenceControl"},
  {"source": "13976",
   "target": "186",
   "amount": "",
   "type": "http://www.lombardinetworks.net/lombardi.owl#InfluenceControl"},
  {"source": "13972",
   "target": "13973",
   "amount": "",
   "type": "http://www.lombardinetworks.net/lombardi.owl#InfluenceControl"},
  {"source": "13968",
   "target": "13969",
   "amount": "",
   "type": "http://www.lombardinetworks.net/lombardi.owl#InfluenceControl"},
  {"source": "13966",
   "target": "13961",
   "amount": "",
   "type": "http://www.lombardinetworks.net/lombardi.owl#InfluenceControl"},
  {"source": "3256",
   "target": "13961",
   "amount": "",
   "type": "http://www.lombardinetworks.net/lombardi.owl#InfluenceControl"},
  {"source": "13963",
   "target": "13961",
   "amount": "",
   "type": "http://www.lombardinetworks.net/lombardi.owl#Association"},
  {"source": "3261",
   "target": "186",
   "amount": "",
   "type": "http://www.lombardinetworks.net/lombardi.owl#InfluenceControl"},
  {"source": "3250",
   "target": "186",
   "amount": "",
   "type": "http://www.lombardinetworks.net/lombardi.owl#InfluenceControl"},
  {"source": "14192",
   "target": "13918",
   "amount": "",
   "type": "http://www.lombardinetworks.net/lombardi.owl#InfluenceControl"},
  {"source": "13951",
   "target": "13953",
   "amount": "",
   "type": "http://www.lombardinetworks.net/lombardi.owl#InfluenceControl"},
  {"source": "13947",
   "target": "13918",
   "amount": "",
   "type": "http://www.lombardinetworks.net/lombardi.owl#FinancialTransaction"},
  {"source": "13943",
   "target": "13941",
   "amount": "",
   "type": "http://www.lombardinetworks.net/lombardi.owl#InfluenceControl"},
  {"source": "13941",
   "target": "13918",
   "amount": "",
   "type": "http://www.lombardinetworks.net/lombardi.owl#FinancialTransaction"},
  {"source": "13937",
   "target": "13918",
   "amount": "",
   "type": "http://www.lombardinetworks.net/lombardi.owl#FinancialTransaction"},
  {"source": "13933",
   "target": "13929",
   "amount": "",
   "type": "http://www.lombardinetworks.net/lombardi.owl#Association"},
  {"source": "13931",
   "target": "13929",
   "amount": "",
   "type": "http://www.lombardinetworks.net/lombardi.owl#InfluenceControl"},
  {"source": "3216",
   "target": "13923",
   "amount": "",
   "type": "http://www.lombardinetworks.net/lombardi.owl#Association"},
  {"source": "13918",
   "target": "13955",
   "amount": "",
   "type": "http://www.lombardinetworks.net/lombardi.owl#InfluenceControl"},
  {"source": "13918",
   "target": "13951",
   "amount": "",
   "type": "http://www.lombardinetworks.net/lombardi.owl#InfluenceControl"},
  {"source": "13918",
   "target": "13949",
   "amount": "",
   "type": "http://www.lombardinetworks.net/lombardi.owl#InfluenceControl"},
  {"source": "13918",
   "target": "13945",
   "amount": "",
   "type": "http://www.lombardinetworks.net/lombardi.owl#InfluenceControl"},
  {"source": "13918",
   "target": "13939",
   "amount": "",
   "type": "http://www.lombardinetworks.net/lombardi.owl#InfluenceControl"},
  {"source": "13918",
   "target": "13935",
   "amount": "",
   "type": "http://www.lombardinetworks.net/lombardi.owl#InfluenceControl"},
  {"source": "13916",
   "target": "13914",
   "amount": "",
   "type": "http://www.lombardinetworks.net/lombardi.owl#InfluenceControl"},
  {"source": "184",
   "target": "13981",
   "amount": "",
   "type": "http://www.lombardinetworks.net/lombardi.owl#InfluenceControl"},
  {"source": "184",
   "target": "13929",
   "amount": "",
   "type": "http://www.lombardinetworks.net/lombardi.owl#InfluenceControl"},
  {"source": "184",
   "target": "186",
   "amount": "",
   "type": "http://www.lombardinetworks.net/lombardi.owl#InfluenceControl"},
  {"source": "184",
   "target": "13926",
   "amount": "",
   "type": "http://www.lombardinetworks.net/lombardi.owl#InfluenceControl"},
  {"source": "184",
   "target": "1066",
   "amount": "",
   "type": "http://www.lombardinetworks.net/lombardi.owl#FinancialAssociation"},
  {"source": "184",
   "target": "3216",
   "amount": "",
   "type": "http://www.lombardinetworks.net/lombardi.owl#InfluenceControl"},
  {"source": "184",
   "target": "3210",
   "amount": "",
   "type": "http://www.lombardinetworks.net/lombardi.owl#Association"},
  {"source": "184",
   "target": "13918",
   "amount": "",
   "type": "http://www.lombardinetworks.net/lombardi.owl#InfluenceControl"},
  {"source": "184",
   "target": "13914",
   "amount": "",
   "type": "http://www.lombardinetworks.net/lombardi.owl#FinancialTransaction"},
  {"source": "184",
   "target": "13877",
   "amount": "",
   "type": "http://www.lombardinetworks.net/lombardi.owl#InfluenceControl"},
  {"source": "13911",
   "target": "13877",
   "amount": "",
   "type": "http://www.lombardinetworks.net/lombardi.owl#InfluenceControl"},
  {"source": "13909",
   "target": "13877",
   "amount": "",
   "type": "http://www.lombardinetworks.net/lombardi.owl#InfluenceControl"},
  {"source": "13907",
   "target": "13877",
   "amount": "",
   "type": "http://www.lombardinetworks.net/lombardi.owl#InfluenceControl"},
  {"source": "13905",
   "target": "13877",
   "amount": "",
   "type": "http://www.lombardinetworks.net/lombardi.owl#InfluenceControl"},
  {"source": "177",
   "target": "195",
   "amount": "",
   "type": "http://www.lombardinetworks.net/lombardi.owl#InfluenceControl"},
  {"source": "176",
   "target": "195",
   "amount": "",
   "type": "http://www.lombardinetworks.net/lombardi.owl#InfluenceControl"},
  {"source": "173",
   "target": "195",
   "amount": "",
   "type": "http://www.lombardinetworks.net/lombardi.owl#InfluenceControl"},
  {"source": "5426",
   "target": "13923",
   "amount": "",
   "type": "http://www.lombardinetworks.net/lombardi.owl#InfluenceControl"},
  {"source": "5426",
   "target": "13897",
   "amount": "",
   "type": "http://www.lombardinetworks.net/lombardi.owl#Association"},
  {"source": "3234",
   "target": "5405",
   "amount": "",
   "type": "http://www.lombardinetworks.net/lombardi.owl#InfluenceControl"},
  {"source": "13897",
   "target": "186",
   "amount": "",
   "type": "http://www.lombardinetworks.net/lombardi.owl#Association"},
  {"source": "13897",
   "target": "13894",
   "amount": "",
   "type": "http://www.lombardinetworks.net/lombardi.owl#Association"},
  {"source": "3241",
   "target": "244",
   "amount": "",
   "type": "http://www.lombardinetworks.net/lombardi.owl#InfluenceControl"},
  {"source": "13889",
   "target": "4191",
   "amount": "",
   "type": "http://www.lombardinetworks.net/lombardi.owl#InfluenceControl"},
  {"source": "13887",
   "target": "13871",
   "amount": "",
   "type": "http://www.lombardinetworks.net/lombardi.owl#Association"},
  {"source": "13885",
   "target": "13883",
   "amount": "",
   "type": "http://www.lombardinetworks.net/lombardi.owl#InfluenceControl"},
  {"source": "13883",
   "target": "13871",
   "amount": "",
   "type": "http://www.lombardinetworks.net/lombardi.owl#Association"},
  {"source": "198",
   "target": "5405",
   "amount": "",
   "type": "http://www.lombardinetworks.net/lombardi.owl#InfluenceControl"},
  {"source": "198",
   "target": "13894",
   "amount": "",
   "type": "http://www.lombardinetworks.net/lombardi.owl#InfluenceControl"},
  {"source": "198",
   "target": "13871",
   "amount": "",
   "type": "http://www.lombardinetworks.net/lombardi.owl#InfluenceControl"},
  {"source": "244",
   "target": "186",
   "amount": "",
   "type": "http://www.lombardinetworks.net/lombardi.owl#FinancialTransaction"},
  {"source": "244",
   "target": "198",
   "amount": "",
   "type": "http://www.lombardinetworks.net/lombardi.owl#Association"},
  {"source": "244",
   "target": "13871",
   "amount": "",
   "type": "http://www.lombardinetworks.net/lombardi.owl#FinancialTransaction"},
  {"source": "186",
   "target": "13973",
   "amount": "",
   "type": "http://www.lombardinetworks.net/lombardi.owl#Association"},
  {"source": "186",
   "target": "13969",
   "amount": "",
   "type": "http://www.lombardinetworks.net/lombardi.owl#Association"},
  {"source": "186",
   "target": "13961",
   "amount": "",
   "type": "http://www.lombardinetworks.net/lombardi.owl#Association"},
  {"source": "186",
   "target": "13871",
   "amount": "",
   "type": "http://www.lombardinetworks.net/lombardi.owl#Association"},
  {"source": "195",
   "target": "13871",
   "amount": "",
   "type": "http://www.lombardinetworks.net/lombardi.owl#Association"},
  {"source": "13877",
   "target": "13871",
   "amount": "",
   "type": "http://www.lombardinetworks.net/lombardi.owl#Association"},
  {"source": "2096",
   "target": "4191",
   "amount": "",
   "type": "http://www.lombardinetworks.net/lombardi.owl#FinancialTransaction"},
  {"source": "4191",
   "target": "13871",
   "amount": "",
   "type": "http://www.lombardinetworks.net/lombardi.owl#Association"},
  {"source": "13873",
   "target": "13870",
   "amount": "",
   "type": "http://www.lombardinetworks.net/lombardi.owl#InfluenceControl"},
  {"source": "13870",
   "target": "13871",
   "amount": "",
   "type": "http://www.lombardinetworks.net/lombardi.owl#Association"}
 ]
}