
{
  "title": "Mary Carter Resorts Study Front",
  "nodes": [
   {"id": "14692",
   "name": "Merv Griffin",
   "type": "http://www.lombardinetworks.net/lombardi.owl#Person"},
  {"id": "14690",
   "name": "Donald Trump",
   "type": "http://www.lombardinetworks.net/lombardi.owl#Person"},
  {"id": "14688",
   "name": "Bahama Props acq by Vesco",
   "type": "http://www.lombardinetworks.net/lombardi.owl#Institution"},
  {"id": "14686",
   "name": "Resorts/2",
   "type": "http://www.lombardinetworks.net/lombardi.owl#Institution"},
  {"id": "14684",
   "name": "est interntl",
   "type": "http://www.lombardinetworks.net/lombardi.owl#Institution"},
  {"id": "6626",
   "name": "Resorts",
   "type": "http://www.lombardinetworks.net/lombardi.owl#Institution"},
  {"id": "14681",
   "name": "est Vortac Bank",
   "type": "http://www.lombardinetworks.net/lombardi.owl#Institution"},
  {"id": "5761",
   "name": "Vesco",
   "type": "http://www.lombardinetworks.net/lombardi.owl#Institution"},
  {"id": "14678",
   "name": "Paint Division unexc",
   "type": "http://www.lombardinetworks.net/lombardi.owl#Institution"},
  {"id": "14676",
   "name": "Goulandris 4.5 mil",
   "type": "http://www.lombardinetworks.net/lombardi.owl#Person"},
  {"id": "5727",
   "name": "ICB",
   "type": "http://www.lombardinetworks.net/lombardi.owl#Institution"},
  {"id": "14672",
   "name": "Swiss bank",
   "type": "http://www.lombardinetworks.net/lombardi.owl#Institution"},
  {"id": "6627",
   "name": "IOS",
   "type": "http://www.lombardinetworks.net/lombardi.owl#Institution"},
  {"id": "14669",
   "name": "Fid trust",
   "type": "http://www.lombardinetworks.net/lombardi.owl#Institution"},
  {"id": "14667",
   "name": "Delafield & Delafield 15 mil",
   "type": "http://www.lombardinetworks.net/lombardi.owl#Institution"},
  {"id": "14665",
   "name": "acquired Bahamas Developer",
   "type": "http://www.lombardinetworks.net/lombardi.owl#Institution"},
  {"id": "14663",
   "name": "Paradise deal",
   "type": "http://www.lombardinetworks.net/lombardi.owl#Institution"},
  {"id": "14661",
   "name": "Bfg Burger",
   "type": "http://www.lombardinetworks.net/lombardi.owl#Institution"},
  {"id": "14659",
   "name": "Mary Carter/2",
   "type": "http://www.lombardinetworks.net/lombardi.owl#Institution"},
  {"id": "14657",
   "name": "Restruc 1957",
   "type": "http://www.lombardinetworks.net/lombardi.owl#Institution"},
  {"id": "14655",
   "name": "Mary Carter",
   "type": "http://www.lombardinetworks.net/lombardi.owl#Institution"},
  {"id": "14653",
   "name": "Lowell Thomas",
   "type": "http://www.lombardinetworks.net/lombardi.owl#Person"},
  {"id": "14651",
   "name": "Thos Dewey",
   "type": "http://www.lombardinetworks.net/lombardi.owl#Person"},
  {"id": "14649",
   "name": "Richard Pisten",
   "type": "http://www.lombardinetworks.net/lombardi.owl#Person"},
  {"id": "14647",
   "name": "Crosby Miller/2",
   "type": "http://www.lombardinetworks.net/lombardi.owl#Institution"},
  {"id": "14645",
   "name": "Crosby Miller",
   "type": "http://www.lombardinetworks.net/lombardi.owl#Institution"},
  {"id": "14644",
   "name": "Schafer Man",
   "type": "http://www.lombardinetworks.net/lombardi.owl#Institution"}

   ],
   "links": [
   {"source": "14692",
   "target": "14690",
   "amount": "",
   "type": "http://www.lombardinetworks.net/lombardi.owl#Connection"},
  {"source": "14690",
   "target": "14686",
   "amount": "",
   "type": "http://www.lombardinetworks.net/lombardi.owl#Connection"},
  {"source": "14688",
   "target": "14686",
   "amount": "",
   "type": "http://www.lombardinetworks.net/lombardi.owl#Connection"},
  {"source": "14686",
   "target": "6626",
   "amount": "",
   "type": "http://www.lombardinetworks.net/lombardi.owl#Connection"},
  {"source": "14684",
   "target": "14655",
   "amount": "",
   "type": "http://www.lombardinetworks.net/lombardi.owl#Connection"},
  {"source": "6626",
   "target": "14655",
   "amount": "",
   "type": "http://www.lombardinetworks.net/lombardi.owl#Connection"},
  {"source": "14681",
   "target": "14655",
   "amount": "",
   "type": "http://www.lombardinetworks.net/lombardi.owl#Connection"},
  {"source": "5761",
   "target": "14655",
   "amount": "",
   "type": "http://www.lombardinetworks.net/lombardi.owl#InfluenceControl"},
  {"source": "14676",
   "target": "14655",
   "amount": "",
   "type": "http://www.lombardinetworks.net/lombardi.owl#InfluenceControl"},
  {"source": "5727",
   "target": "14672",
   "amount": "",
   "type": "http://www.lombardinetworks.net/lombardi.owl#Connection"},
  {"source": "14672",
   "target": "14655",
   "amount": "",
   "type": "http://www.lombardinetworks.net/lombardi.owl#InfluenceControl"},
  {"source": "14672",
   "target": "6627",
   "amount": "",
   "type": "http://www.lombardinetworks.net/lombardi.owl#Connection"},
  {"source": "14669",
   "target": "6627",
   "amount": "",
   "type": "http://www.lombardinetworks.net/lombardi.owl#Connection"},
  {"source": "14669",
   "target": "14655",
   "amount": "",
   "type": "http://www.lombardinetworks.net/lombardi.owl#InfluenceControl"},
  {"source": "14667",
   "target": "14655",
   "amount": "",
   "type": "http://www.lombardinetworks.net/lombardi.owl#InfluenceControl"},
  {"source": "14665",
   "target": "14655",
   "amount": "",
   "type": "http://www.lombardinetworks.net/lombardi.owl#InfluenceControl"},
  {"source": "14663",
   "target": "14678",
   "amount": "",
   "type": "http://www.lombardinetworks.net/lombardi.owl#InfluenceControl"},
  {"source": "14661",
   "target": "14655",
   "amount": "",
   "type": "http://www.lombardinetworks.net/lombardi.owl#Connection"},
  {"source": "14659",
   "target": "14657",
   "amount": "",
   "type": "http://www.lombardinetworks.net/lombardi.owl#Connection"},
  {"source": "14657",
   "target": "14655",
   "amount": "",
   "type": "http://www.lombardinetworks.net/lombardi.owl#Connection"},
  {"source": "14655",
   "target": "14663",
   "amount": "",
   "type": "http://www.lombardinetworks.net/lombardi.owl#Connection"},
  {"source": "14653",
   "target": "14647",
   "amount": "",
   "type": "http://www.lombardinetworks.net/lombardi.owl#InfluenceControl"},
  {"source": "14651",
   "target": "14647",
   "amount": "",
   "type": "http://www.lombardinetworks.net/lombardi.owl#InfluenceControl"},
  {"source": "14649",
   "target": "14647",
   "amount": "",
   "type": "http://www.lombardinetworks.net/lombardi.owl#InfluenceControl"},
  {"source": "14647",
   "target": "14655",
   "amount": "",
   "type": "http://www.lombardinetworks.net/lombardi.owl#InfluenceControl"},
  {"source": "14645",
   "target": "14647",
   "amount": "",
   "type": "http://www.lombardinetworks.net/lombardi.owl#InfluenceControl"},
  {"source": "14644",
   "target": "14645",
   "amount": "",
   "type": "http://www.lombardinetworks.net/lombardi.owl#InfluenceControl"}
 ]
}