
{
  "title": "Mary Carter Resorts Study Reverse",
  "nodes": [
   {"id": "14427",
   "name": "Botlers Bank",
   "type": "http://www.lombardinetworks.net/lombardi.owl#Institution"},
  {"id": "14425",
   "name": "Bahamas Common",
   "type": "http://www.lombardinetworks.net/lombardi.owl#Institution"},
  {"id": "14423",
   "name": "Resorts Bahamas properties",
   "type": "http://www.lombardinetworks.net/lombardi.owl#Institution"},
  {"id": "5772",
   "name": "Nixon",
   "type": "http://www.lombardinetworks.net/lombardi.owl#Person"},
  {"id": "14420",
   "name": "Ehrlichman",
   "type": "http://www.lombardinetworks.net/lombardi.owl#Person"},
  {"id": "14418",
   "name": "DD Nixon",
   "type": "http://www.lombardinetworks.net/lombardi.owl#Person"},
  {"id": "14416",
   "name": "IOS Switz",
   "type": "http://www.lombardinetworks.net/lombardi.owl#Institution"},
  {"id": "6628",
   "name": "ODB",
   "type": "http://www.lombardinetworks.net/lombardi.owl#Institution"},
  {"id": "6627",
   "name": "IOS",
   "type": "http://www.lombardinetworks.net/lombardi.owl#Institution"},
  {"id": "14412",
   "name": "Electronic Speeding",
   "type": "http://www.lombardinetworks.net/lombardi.owl#Institution"},
  {"id": "14410",
   "name": "Casey",
   "type": "http://www.lombardinetworks.net/lombardi.owl#Person"},
  {"id": "14408",
   "name": "Multiponics 68",
   "type": "http://www.lombardinetworks.net/lombardi.owl#Institution"},
  {"id": "14406",
   "name": "special prods",
   "type": "http://www.lombardinetworks.net/lombardi.owl#Institution"},
  {"id": "14404",
   "name": "Lowden",
   "type": "http://www.lombardinetworks.net/lombardi.owl#Person"},
  {"id": "14402",
   "name": "Silber",
   "type": "http://www.lombardinetworks.net/lombardi.owl#Person"},
  {"id": "14400",
   "name": "Moeller",
   "type": "http://www.lombardinetworks.net/lombardi.owl#Person"},
  {"id": "14398",
   "name": "Connecting line",
   "type": "http://www.lombardinetworks.net/lombardi.owl#Institution"},
  {"id": "14396",
   "name": "Cryoq",
   "type": "http://www.lombardinetworks.net/lombardi.owl#Institution"},
  {"id": "14394",
   "name": "ICC (2)",
   "type": "http://www.lombardinetworks.net/lombardi.owl#Institution"},
  {"id": "5760",
   "name": "ICC",
   "type": "http://www.lombardinetworks.net/lombardi.owl#Institution"}

   ],
   "links": [
   {"source": "14425",
   "target": "14427",
   "amount": "",
   "type": "http://www.lombardinetworks.net/lombardi.owl#Connection"},
  {"source": "14425",
   "target": "14398",
   "amount": "",
   "type": "http://www.lombardinetworks.net/lombardi.owl#Connection"},
  {"source": "14423",
   "target": "14398",
   "amount": "",
   "type": "http://www.lombardinetworks.net/lombardi.owl#Connection"},
  {"source": "14420",
   "target": "5772",
   "amount": "",
   "type": "http://www.lombardinetworks.net/lombardi.owl#Connection"},
  {"source": "14418",
   "target": "5772",
   "amount": "",
   "type": "http://www.lombardinetworks.net/lombardi.owl#Connection"},
  {"source": "14418",
   "target": "14416",
   "amount": "",
   "type": "http://www.lombardinetworks.net/lombardi.owl#Connection"},
  {"source": "6627",
   "target": "14416",
   "amount": "",
   "type": "http://www.lombardinetworks.net/lombardi.owl#Connection"},
  {"source": "6627",
   "target": "6628",
   "amount": "",
   "type": "http://www.lombardinetworks.net/lombardi.owl#Connection"},
  {"source": "6627",
   "target": "14398",
   "amount": "",
   "type": "http://www.lombardinetworks.net/lombardi.owl#Connection"},
  {"source": "14412",
   "target": "14398",
   "amount": "",
   "type": "http://www.lombardinetworks.net/lombardi.owl#Connection"},
  {"source": "14410",
   "target": "14398",
   "amount": "",
   "type": "http://www.lombardinetworks.net/lombardi.owl#Connection"},
  {"source": "14408",
   "target": "14398",
   "amount": "",
   "type": "http://www.lombardinetworks.net/lombardi.owl#Connection"},
  {"source": "14406",
   "target": "14398",
   "amount": "",
   "type": "http://www.lombardinetworks.net/lombardi.owl#Connection"},
  {"source": "14404",
   "target": "14398",
   "amount": "",
   "type": "http://www.lombardinetworks.net/lombardi.owl#Connection"},
  {"source": "14402",
   "target": "14398",
   "amount": "",
   "type": "http://www.lombardinetworks.net/lombardi.owl#Connection"},
  {"source": "14400",
   "target": "14398",
   "amount": "",
   "type": "http://www.lombardinetworks.net/lombardi.owl#Connection"},
  {"source": "14396",
   "target": "14394",
   "amount": "",
   "type": "http://www.lombardinetworks.net/lombardi.owl#Connection"},
  {"source": "14394",
   "target": "14398",
   "amount": "",
   "type": "http://www.lombardinetworks.net/lombardi.owl#Connection"},
  {"source": "5760",
   "target": "14394",
   "amount": "",
   "type": "http://www.lombardinetworks.net/lombardi.owl#Connection"}
 ]
}