
{
  "title": "Untitled (TCSPF Aladdin Stardust)",
  "nodes": [
   {"id": "14690",
   "name": "Korshak",
   "type": "http://www.lombardinetworks.net/lombardi.owl#Person"},
  {"id": "14688",
   "name": "Eddie Torres",
   "type": "http://www.lombardinetworks.net/lombardi.owl#Person"},
  {"id": "14686",
   "name": "Gus Greenbaum",
   "type": "http://www.lombardinetworks.net/lombardi.owl#Person"},
  {"id": "14684",
   "name": "Coleman",
   "type": "http://www.lombardinetworks.net/lombardi.owl#Person"},
  {"id": "14682",
   "name": "Harvey Silbert",
   "type": "http://www.lombardinetworks.net/lombardi.owl#Person"},
  {"id": "14679",
   "name": "Al Parvin",
   "type": "http://www.lombardinetworks.net/lombardi.owl#Person"},
  {"id": "3424",
   "name": "Jr",
   "type": "http://www.lombardinetworks.net/lombardi.owl#Institution"},
  {"id": "14676",
   "name": "Wyman Bautzer",
   "type": "http://www.lombardinetworks.net/lombardi.owl#Institution"},
  {"id": "14674",
   "name": "Flamingo",
   "type": "http://www.lombardinetworks.net/lombardi.owl#Institution"},
  {"id": "14666",
   "name": "Aladdin",
   "type": "http://www.lombardinetworks.net/lombardi.owl#Institution"},
  {"id": "555",
   "name": "TCSPF",
   "type": "http://www.lombardinetworks.net/lombardi.owl#Institution"},
  {"id": "14664",
   "name": "Riviera",
   "type": "http://www.lombardinetworks.net/lombardi.owl#Institution"},
  {"id": "14659",
   "name": "Hacienda",
   "type": "http://www.lombardinetworks.net/lombardi.owl#Institution"},
  {"id": "14657",
   "name": "Fremont",
   "type": "http://www.lombardinetworks.net/lombardi.owl#Institution"},
  {"id": "14655",
   "name": "Glick",
   "type": "http://www.lombardinetworks.net/lombardi.owl#Person"},
  {"id": "14653",
   "name": "Rosenthal",
   "type": "http://www.lombardinetworks.net/lombardi.owl#Person"},
  {"id": "14651",
   "name": "DI",
   "type": "http://www.lombardinetworks.net/lombardi.owl#Institution"},
  {"id": "14649",
   "name": "Allard Roen",
   "type": "http://www.lombardinetworks.net/lombardi.owl#Person"},
  {"id": "14647",
   "name": "Dalitz",
   "type": "http://www.lombardinetworks.net/lombardi.owl#Person"},
  {"id": "14645",
   "name": "UHC",
   "type": "http://www.lombardinetworks.net/lombardi.owl#Institution"},
  {"id": "14643",
   "name": "Lowden mid 70s",
   "type": "http://www.lombardinetworks.net/lombardi.owl#Person"},
  {"id": "14641",
   "name": "Ralph Pierce",
   "type": "http://www.lombardinetworks.net/lombardi.owl#Person"},
  {"id": "14639",
   "name": "Sachs & Tobman",
   "type": "http://www.lombardinetworks.net/lombardi.owl#Institution"},
  {"id": "14637",
   "name": "Argent",
   "type": "http://www.lombardinetworks.net/lombardi.owl#Institution"},
  {"id": "14635",
   "name": "Parvin",
   "type": "http://www.lombardinetworks.net/lombardi.owl#Institution"},
  {"id": "14633",
   "name": "Kleinmann",
   "type": "http://www.lombardinetworks.net/lombardi.owl#Person"},
  {"id": "14631",
   "name": "Karat Inc",
   "type": "http://www.lombardinetworks.net/lombardi.owl#Institution"},
  {"id": "14629",
   "name": "Jake the Barber",
   "type": "http://www.lombardinetworks.net/lombardi.owl#Person"},
  {"id": "14627",
   "name": "Cornero",
   "type": "http://www.lombardinetworks.net/lombardi.owl#Person"},
  {"id": "14625",
   "name": "Yale Cohen c 1964",
   "type": "http://www.lombardinetworks.net/lombardi.owl#Person"},
  {"id": "14623",
   "name": "Stardust",
   "type": "http://www.lombardinetworks.net/lombardi.owl#Institution"},
  {"id": "14622",
   "name": "Johnny Drew",
   "type": "http://www.lombardinetworks.net/lombardi.owl#Person"}

   ],
   "links": [
   {"source": "14690",
   "target": "3424",
   "amount": "",
   "type": "http://www.lombardinetworks.net/lombardi.owl#InfluenceControl"},
  {"source": "14690",
   "target": "14664",
   "amount": "",
   "type": "http://www.lombardinetworks.net/lombardi.owl#InfluenceControl"},
  {"source": "14688",
   "target": "3424",
   "amount": "",
   "type": "http://www.lombardinetworks.net/lombardi.owl#InfluenceControl"},
  {"source": "14688",
   "target": "14664",
   "amount": "",
   "type": "http://www.lombardinetworks.net/lombardi.owl#InfluenceControl"},
  {"source": "14686",
   "target": "14664",
   "amount": "",
   "type": "http://www.lombardinetworks.net/lombardi.owl#InfluenceControl"},
  {"source": "14684",
   "target": "3424",
   "amount": "",
   "type": "http://www.lombardinetworks.net/lombardi.owl#InfluenceControl"},
  {"source": "14682",
   "target": "3424",
   "amount": "",
   "type": "http://www.lombardinetworks.net/lombardi.owl#InfluenceControl"},
  {"source": "14679",
   "target": "14635",
   "amount": "",
   "type": "http://www.lombardinetworks.net/lombardi.owl#SaleTransfer"},
  {"source": "3424",
   "target": "14679",
   "amount": "",
   "type": "http://www.lombardinetworks.net/lombardi.owl#FinancialTransaction"},
  {"source": "3424",
   "target": "14635",
   "amount": "",
   "type": "http://www.lombardinetworks.net/lombardi.owl#InfluenceControl"},
  {"source": "14676",
   "target": "14674",
   "amount": "",
   "type": "http://www.lombardinetworks.net/lombardi.owl#Association"},
  {"source": "555",
   "target": "14651",
   "amount": "",
   "type": "http://www.lombardinetworks.net/lombardi.owl#FinancialTransaction"},
  {"source": "555",
   "target": "14623",
   "amount": "",
   "type": "http://www.lombardinetworks.net/lombardi.owl#FinancialTransaction"},
  {"source": "555",
   "target": "14637",
   "amount": "",
   "type": "http://www.lombardinetworks.net/lombardi.owl#FinancialTransaction"},
  {"source": "555",
   "target": "14657",
   "amount": "",
   "type": "http://www.lombardinetworks.net/lombardi.owl#FinancialTransaction"},
  {"source": "555",
   "target": "14666",
   "amount": "",
   "type": "http://www.lombardinetworks.net/lombardi.owl#FinancialTransaction"},
  {"source": "14655",
   "target": "14637",
   "amount": "",
   "type": "http://www.lombardinetworks.net/lombardi.owl#InfluenceControl"},
  {"source": "14653",
   "target": "14637",
   "amount": "",
   "type": "http://www.lombardinetworks.net/lombardi.owl#InfluenceControl"},
  {"source": "14649",
   "target": "14645",
   "amount": "",
   "type": "http://www.lombardinetworks.net/lombardi.owl#InfluenceControl"},
  {"source": "14647",
   "target": "14645",
   "amount": "",
   "type": "http://www.lombardinetworks.net/lombardi.owl#InfluenceControl"},
  {"source": "14645",
   "target": "14664",
   "amount": "",
   "type": "http://www.lombardinetworks.net/lombardi.owl#InfluenceControl"},
  {"source": "14645",
   "target": "14657",
   "amount": "",
   "type": "http://www.lombardinetworks.net/lombardi.owl#InfluenceControl"},
  {"source": "14645",
   "target": "14659",
   "amount": "",
   "type": "http://www.lombardinetworks.net/lombardi.owl#InfluenceControl"},
  {"source": "14645",
   "target": "14651",
   "amount": "",
   "type": "http://www.lombardinetworks.net/lombardi.owl#InfluenceControl"},
  {"source": "14645",
   "target": "14623",
   "amount": "",
   "type": "http://www.lombardinetworks.net/lombardi.owl#InfluenceControl"},
  {"source": "14643",
   "target": "14659",
   "amount": "",
   "type": "http://www.lombardinetworks.net/lombardi.owl#InfluenceControl"},
  {"source": "14643",
   "target": "14623",
   "amount": "",
   "type": "http://www.lombardinetworks.net/lombardi.owl#InfluenceControl"},
  {"source": "14641",
   "target": "14639",
   "amount": "",
   "type": "http://www.lombardinetworks.net/lombardi.owl#InfluenceControl"},
  {"source": "14639",
   "target": "14623",
   "amount": "",
   "type": "http://www.lombardinetworks.net/lombardi.owl#InfluenceControl"},
  {"source": "14637",
   "target": "14659",
   "amount": "",
   "type": "http://www.lombardinetworks.net/lombardi.owl#InfluenceControl"},
  {"source": "14637",
   "target": "14657",
   "amount": "",
   "type": "http://www.lombardinetworks.net/lombardi.owl#InfluenceControl"},
  {"source": "14637",
   "target": "14623",
   "amount": "",
   "type": "http://www.lombardinetworks.net/lombardi.owl#InfluenceControl"},
  {"source": "14635",
   "target": "14674",
   "amount": "",
   "type": "http://www.lombardinetworks.net/lombardi.owl#InfluenceControl"},
  {"source": "14635",
   "target": "14666",
   "amount": "",
   "type": "http://www.lombardinetworks.net/lombardi.owl#InfluenceControl"},
  {"source": "14635",
   "target": "14657",
   "amount": "",
   "type": "http://www.lombardinetworks.net/lombardi.owl#InfluenceControl"},
  {"source": "14635",
   "target": "14623",
   "amount": "",
   "type": "http://www.lombardinetworks.net/lombardi.owl#InfluenceControl"},
  {"source": "14633",
   "target": "14631",
   "amount": "",
   "type": "http://www.lombardinetworks.net/lombardi.owl#InfluenceControl"},
  {"source": "14631",
   "target": "14623",
   "amount": "",
   "type": "http://www.lombardinetworks.net/lombardi.owl#InfluenceControl"},
  {"source": "14629",
   "target": "14623",
   "amount": "",
   "type": "http://www.lombardinetworks.net/lombardi.owl#InfluenceControl"},
  {"source": "14627",
   "target": "14623",
   "amount": "",
   "type": "http://www.lombardinetworks.net/lombardi.owl#InfluenceControl"},
  {"source": "14625",
   "target": "14623",
   "amount": "",
   "type": "http://www.lombardinetworks.net/lombardi.owl#InfluenceControl"},
  {"source": "14622",
   "target": "14623",
   "amount": "",
   "type": "http://www.lombardinetworks.net/lombardi.owl#InfluenceControl"}
 ]
}