
{
  "title": "Freeport",
  "nodes": [
   {"id": "7248",
   "name": "Ludwig",
   "type": "http://www.lombardinetworks.net/lombardi.owl#Person"},
  {"id": "7247",
   "name": "Grand Bahamas Port Authority?",
   "type": "http://www.lombardinetworks.net/lombardi.owl#Institution"},
  {"id": "7246",
   "name": "Freeport Construction 1956",
   "type": "http://www.lombardinetworks.net/lombardi.owl#Institution"},
  {"id": "7245",
   "name": "Groves",
   "type": "http://www.lombardinetworks.net/lombardi.owl#Person"},
  {"id": "7244",
   "name": "Gov't Bahamas",
   "type": "http://www.lombardinetworks.net/lombardi.owl#Institution"},
  {"id": "7243",
   "name": "Freeport Bunkeerey",
   "type": "http://www.lombardinetworks.net/lombardi.owl#Institution"},
  {"id": "7242",
   "name": "2hotels",
   "type": "http://www.lombardinetworks.net/lombardi.owl#Institution"},
  {"id": "7241",
   "name": "Lansburgh mgr",
   "type": "http://www.lombardinetworks.net/lombardi.owl#Institution"},
  {"id": "5757",
   "name": "Lansky",
   "type": "http://www.lombardinetworks.net/lombardi.owl#Person"},
  {"id": "7240",
   "name": "Orovitz",
   "type": "http://www.lombardinetworks.net/lombardi.owl#Person"},
  {"id": "7239",
   "name": "Gr Bah Dev. Co.",
   "type": "http://www.lombardinetworks.net/lombardi.owl#Institution"},
  {"id": "7024",
   "name": "Goldsmith",
   "type": "http://www.lombardinetworks.net/lombardi.owl#Person"},
  {"id": "7238",
   "name": "Chesler",
   "type": "http://www.lombardinetworks.net/lombardi.owl#Person"},
  {"id": "7237",
   "name": "Cerners",
   "type": "http://www.lombardinetworks.net/lombardi.owl#Person"},
  {"id": "7236",
   "name": "Melrose 1969",
   "type": "http://www.lombardinetworks.net/lombardi.owl#Institution"},
  {"id": "7235",
   "name": "Bah. Amuse 1963",
   "type": "http://www.lombardinetworks.net/lombardi.owl#Institution"},
  {"id": "7234",
   "name": "Bk of Miami Beach",
   "type": "http://www.lombardinetworks.net/lombardi.owl#Institution"},
  {"id": "7233",
   "name": "Paradise Realty",
   "type": "http://www.lombardinetworks.net/lombardi.owl#Institution"},
  {"id": "7232",
   "name": "Groves/3",
   "type": "http://www.lombardinetworks.net/lombardi.owl#Person"},
  {"id": "6814",
   "name": "Mary Carter",
   "type": "http://www.lombardinetworks.net/lombardi.owl#Institution"},
  {"id": "7231",
   "name": "Hartford",
   "type": "http://www.lombardinetworks.net/lombardi.owl#Person"},
  {"id": "7230",
   "name": "Paradise Is Bridge Co 2",
   "type": "http://www.lombardinetworks.net/lombardi.owl#Institution"},
  {"id": "7229",
   "name": "Paradise Island Ltd",
   "type": "http://www.lombardinetworks.net/lombardi.owl#Institution"},
  {"id": "7228",
   "name": "Groves 45%",
   "type": "http://www.lombardinetworks.net/lombardi.owl#Person"},
  {"id": "7227",
   "name": "RoyWest",
   "type": "http://www.lombardinetworks.net/lombardi.owl#Institution"},
  {"id": "7226",
   "name": "PIBC 3",
   "type": "http://www.lombardinetworks.net/lombardi.owl#Institution"},
  {"id": "7225",
   "name": "Cosmos Bank",
   "type": "http://www.lombardinetworks.net/lombardi.owl#Institution"},
  {"id": "5726",
   "name": "Vesco",
   "type": "http://www.lombardinetworks.net/lombardi.owl#Institution"},
  {"id": "7224",
   "name": "Vesco Gulfstream",
   "type": "http://www.lombardinetworks.net/lombardi.owl#Institution"},
  {"id": "7223",
   "name": "Alter",
   "type": "http://www.lombardinetworks.net/lombardi.owl#Institution"},
  {"id": "7222",
   "name": "Key Biscayne State Ban",
   "type": "http://www.lombardinetworks.net/lombardi.owl#Institution"},
  {"id": "7221",
   "name": "Rebozo",
   "type": "http://www.lombardinetworks.net/lombardi.owl#Person"},
  {"id": "5715",
   "name": "Nixon",
   "type": "http://www.lombardinetworks.net/lombardi.owl#Person"},
  {"id": "7220",
   "name": "Old Bahaman Club",
   "type": "http://www.lombardinetworks.net/lombardi.owl#Institution"},
  {"id": "7219",
   "name": "Paradise Enterprises",
   "type": "http://www.lombardinetworks.net/lombardi.owl#Institution"},
  {"id": "7218",
   "name": "Bah Developers Subsid",
   "type": "http://www.lombardinetworks.net/lombardi.owl#Institution"},
  {"id": "6812",
   "name": "Mary Carter/2",
   "type": "http://www.lombardinetworks.net/lombardi.owl#Institution"},
  {"id": "7217",
   "name": "Lucayan Beach Hotel & (Monte Carlo) Casino",
   "type": "http://www.lombardinetworks.net/lombardi.owl#Institution"},
  {"id": "7216",
   "name": "Chester Out",
   "type": "http://www.lombardinetworks.net/lombardi.owl#Institution"},
  {"id": "7215",
   "name": "starts Gr Harbor Cay Dev",
   "type": "http://www.lombardinetworks.net/lombardi.owl#Institution"},
  {"id": "7214",
   "name": "opening Jan 64",
   "type": "http://www.lombardinetworks.net/lombardi.owl#Institution"},
  {"id": "7213",
   "name": "Benquet (2)",
   "type": "http://www.lombardinetworks.net/lombardi.owl#Institution"},
  {"id": "7212",
   "name": "Benquet",
   "type": "http://www.lombardinetworks.net/lombardi.owl#Institution"},
  {"id": "7211",
   "name": "ICD",
   "type": "http://www.lombardinetworks.net/lombardi.owl#Institution"},
  {"id": "7210",
   "name": "Melrose/2",
   "type": "http://www.lombardinetworks.net/lombardi.owl#Institution"},
  {"id": "7209",
   "name": "Goldsmith/2",
   "type": "http://www.lombardinetworks.net/lombardi.owl#Person"},
  {"id": "7208",
   "name": "Lansky/2",
   "type": "http://www.lombardinetworks.net/lombardi.owl#Person"},
  {"id": "7207",
   "name": "Cellini",
   "type": "http://www.lombardinetworks.net/lombardi.owl#Person"}

   ],
   "links": [
   {"source": "7248",
   "target": "7247",
   "amount": "",
   "type": "http://www.lombardinetworks.net/lombardi.owl#InfluenceControl"},
  {"source": "7248",
   "target": "7243",
   "amount": "",
   "type": "http://www.lombardinetworks.net/lombardi.owl#Connection"},
  {"source": "7248",
   "target": "7242",
   "amount": "",
   "type": "http://www.lombardinetworks.net/lombardi.owl#Connection"},
  {"source": "7246",
   "target": "7247",
   "amount": "",
   "type": "http://www.lombardinetworks.net/lombardi.owl#Connection"},
  {"source": "7245",
   "target": "7247",
   "amount": "",
   "type": "http://www.lombardinetworks.net/lombardi.owl#InfluenceControl"},
  {"source": "7244",
   "target": "7247",
   "amount": "",
   "type": "http://www.lombardinetworks.net/lombardi.owl#InfluenceControl"},
  {"source": "7241",
   "target": "7242",
   "amount": "",
   "type": "http://www.lombardinetworks.net/lombardi.owl#Connection"},
  {"source": "7241",
   "target": "5757",
   "amount": "",
   "type": "http://www.lombardinetworks.net/lombardi.owl#Connection"},
  {"source": "7240",
   "target": "7239",
   "amount": "",
   "type": "http://www.lombardinetworks.net/lombardi.owl#Connection"},
  {"source": "7239",
   "target": "7235",
   "amount": "",
   "type": "http://www.lombardinetworks.net/lombardi.owl#InfluenceControl"},
  {"source": "7239",
   "target": "7218",
   "amount": "",
   "type": "http://www.lombardinetworks.net/lombardi.owl#InfluenceControl"},
  {"source": "7024",
   "target": "7239",
   "amount": "",
   "type": "http://www.lombardinetworks.net/lombardi.owl#Connection"},
  {"source": "7024",
   "target": "7235",
   "amount": "",
   "type": "http://www.lombardinetworks.net/lombardi.owl#InfluenceControl"},
  {"source": "7238",
   "target": "7239",
   "amount": "",
   "type": "http://www.lombardinetworks.net/lombardi.owl#Connection"},
  {"source": "7237",
   "target": "7239",
   "amount": "",
   "type": "http://www.lombardinetworks.net/lombardi.owl#Connection"},
  {"source": "7236",
   "target": "7239",
   "amount": "",
   "type": "http://www.lombardinetworks.net/lombardi.owl#Connection"},
  {"source": "7235",
   "target": "7234",
   "amount": "",
   "type": "http://www.lombardinetworks.net/lombardi.owl#FinancialTransaction"},
  {"source": "7235",
   "target": "7233",
   "amount": "",
   "type": "http://www.lombardinetworks.net/lombardi.owl#InfluenceControl"},
  {"source": "7235",
   "target": "7219",
   "amount": "",
   "type": "http://www.lombardinetworks.net/lombardi.owl#InfluenceControl"},
  {"source": "7233",
   "target": "6814",
   "amount": "",
   "type": "http://www.lombardinetworks.net/lombardi.owl#Connection"},
  {"source": "7232",
   "target": "7233",
   "amount": "",
   "type": "http://www.lombardinetworks.net/lombardi.owl#Connection"},
  {"source": "6814",
   "target": "7230",
   "amount": "",
   "type": "http://www.lombardinetworks.net/lombardi.owl#InfluenceControl"},
  {"source": "6814",
   "target": "7229",
   "amount": "",
   "type": "http://www.lombardinetworks.net/lombardi.owl#Connection"},
  {"source": "7231",
   "target": "6814",
   "amount": "",
   "type": "http://www.lombardinetworks.net/lombardi.owl#InfluenceControl"},
  {"source": "7230",
   "target": "7226",
   "amount": "",
   "type": "http://www.lombardinetworks.net/lombardi.owl#InfluenceControl"},
  {"source": "7228",
   "target": "7229",
   "amount": "",
   "type": "http://www.lombardinetworks.net/lombardi.owl#Connection"},
  {"source": "7227",
   "target": "7229",
   "amount": "",
   "type": "http://www.lombardinetworks.net/lombardi.owl#InfluenceControl"},
  {"source": "7226",
   "target": "5726",
   "amount": "",
   "type": "http://www.lombardinetworks.net/lombardi.owl#InfluenceControl"},
  {"source": "7226",
   "target": "7224",
   "amount": "",
   "type": "http://www.lombardinetworks.net/lombardi.owl#InfluenceControl"},
  {"source": "7226",
   "target": "7223",
   "amount": "",
   "type": "http://www.lombardinetworks.net/lombardi.owl#Connection"},
  {"source": "7225",
   "target": "7226",
   "amount": "",
   "type": "http://www.lombardinetworks.net/lombardi.owl#InfluenceControl"},
  {"source": "7223",
   "target": "7222",
   "amount": "",
   "type": "http://www.lombardinetworks.net/lombardi.owl#Connection"},
  {"source": "7221",
   "target": "7222",
   "amount": "",
   "type": "http://www.lombardinetworks.net/lombardi.owl#Connection"},
  {"source": "7221",
   "target": "5715",
   "amount": "",
   "type": "http://www.lombardinetworks.net/lombardi.owl#Connection"},
  {"source": "7220",
   "target": "7235",
   "amount": "",
   "type": "http://www.lombardinetworks.net/lombardi.owl#Connection"},
  {"source": "7220",
   "target": "7219",
   "amount": "",
   "type": "http://www.lombardinetworks.net/lombardi.owl#Connection"},
  {"source": "6812",
   "target": "7218",
   "amount": "",
   "type": "http://www.lombardinetworks.net/lombardi.owl#InfluenceControl"},
  {"source": "6812",
   "target": "7239",
   "amount": "",
   "type": "http://www.lombardinetworks.net/lombardi.owl#InfluenceControl"},
  {"source": "7217",
   "target": "7239",
   "amount": "",
   "type": "http://www.lombardinetworks.net/lombardi.owl#Connection"},
  {"source": "7217",
   "target": "7235",
   "amount": "",
   "type": "http://www.lombardinetworks.net/lombardi.owl#Connection"},
  {"source": "7217",
   "target": "7235",
   "amount": "",
   "type": "http://www.lombardinetworks.net/lombardi.owl#FinancialTransaction"},
  {"source": "7217",
   "target": "7216",
   "amount": "",
   "type": "http://www.lombardinetworks.net/lombardi.owl#InfluenceControl"},
  {"source": "7216",
   "target": "7215",
   "amount": "",
   "type": "http://www.lombardinetworks.net/lombardi.owl#Connection"},
  {"source": "7214",
   "target": "7217",
   "amount": "",
   "type": "http://www.lombardinetworks.net/lombardi.owl#Connection"},
  {"source": "7213",
   "target": "7217",
   "amount": "",
   "type": "http://www.lombardinetworks.net/lombardi.owl#Connection"},
  {"source": "7213",
   "target": "7211",
   "amount": "",
   "type": "http://www.lombardinetworks.net/lombardi.owl#Connection"},
  {"source": "7212",
   "target": "7213",
   "amount": "",
   "type": "http://www.lombardinetworks.net/lombardi.owl#Connection"},
  {"source": "7210",
   "target": "7211",
   "amount": "",
   "type": "http://www.lombardinetworks.net/lombardi.owl#Connection"},
  {"source": "7209",
   "target": "7211",
   "amount": "",
   "type": "http://www.lombardinetworks.net/lombardi.owl#Connection"},
  {"source": "7208",
   "target": "7207",
   "amount": "",
   "type": "http://www.lombardinetworks.net/lombardi.owl#Connection"}
 ]
}