
{
  "title": "BNL #1",
  "nodes": [
   {"id": "16502",
   "name": "[28]",
   "type": "http://www.lombardinetworks.net/lombardi.owl#Year"},
  {"id": "16500",
   "name": "[27]",
   "type": "http://www.lombardinetworks.net/lombardi.owl#Year"},
  {"id": "16497",
   "name": "[26]",
   "type": "http://www.lombardinetworks.net/lombardi.owl#Year"},
  {"id": "16495",
   "name": "[25]",
   "type": "http://www.lombardinetworks.net/lombardi.owl#Year"},
  {"id": "16493",
   "name": "[24]",
   "type": "http://www.lombardinetworks.net/lombardi.owl#Year"},
  {"id": "16491",
   "name": "[23]",
   "type": "http://www.lombardinetworks.net/lombardi.owl#Year"},
  {"id": "16489",
   "name": "Whitley",
   "type": "http://www.lombardinetworks.net/lombardi.owl#Person"},
  {"id": "16485",
   "name": "Matrix",
   "type": "http://www.lombardinetworks.net/lombardi.owl#Institution"},
  {"id": "5401",
   "name": "Cardoen",
   "type": "http://www.lombardinetworks.net/lombardi.owl#Person"},
  {"id": "16482",
   "name": "Kenna",
   "type": "http://www.lombardinetworks.net/lombardi.owl#Person"},
  {"id": "16480",
   "name": "Newlin",
   "type": "http://www.lombardinetworks.net/lombardi.owl#Person"},
  {"id": "16478",
   "name": "Wm P. Rogers",
   "type": "http://www.lombardinetworks.net/lombardi.owl#Person"},
  {"id": "7327",
   "name": "(*)",
   "type": "http://www.lombardinetworks.net/lombardi.owl#Final"},
  {"id": "16475",
   "name": "[22]",
   "type": "http://www.lombardinetworks.net/lombardi.owl#Year"},
  {"id": "16473",
   "name": "[21]",
   "type": "http://www.lombardinetworks.net/lombardi.owl#Year"},
  {"id": "16471",
   "name": "[20]",
   "type": "http://www.lombardinetworks.net/lombardi.owl#Year"},
  {"id": "16469",
   "name": "[19]",
   "type": "http://www.lombardinetworks.net/lombardi.owl#Year"},
  {"id": "16467",
   "name": "[18]",
   "type": "http://www.lombardinetworks.net/lombardi.owl#Year"},
  {"id": "16465",
   "name": "[17]",
   "type": "http://www.lombardinetworks.net/lombardi.owl#Year"},
  {"id": "16463",
   "name": "Thornburgh",
   "type": "http://www.lombardinetworks.net/lombardi.owl#Person"},
  {"id": "16461",
   "name": "Shultz",
   "type": "http://www.lombardinetworks.net/lombardi.owl#Person"},
  {"id": "16459",
   "name": "Baker",
   "type": "http://www.lombardinetworks.net/lombardi.owl#Person"},
  {"id": "16457",
   "name": "Justice",
   "type": "http://www.lombardinetworks.net/lombardi.owl#Institution"},
  {"id": "16455",
   "name": "State",
   "type": "http://www.lombardinetworks.net/lombardi.owl#Institution"},
  {"id": "16453",
   "name": "Trea",
   "type": "http://www.lombardinetworks.net/lombardi.owl#Institution"},
  {"id": "5781",
   "name": "[16]",
   "type": "http://www.lombardinetworks.net/lombardi.owl#Year"},
  {"id": "16450",
   "name": "Mota",
   "type": "http://www.lombardinetworks.net/lombardi.owl#Institution"},
  {"id": "16448",
   "name": "USDA",
   "type": "http://www.lombardinetworks.net/lombardi.owl#Institution"},
  {"id": "16446",
   "name": "CRC",
   "type": "http://www.lombardinetworks.net/lombardi.owl#Institution"},
  {"id": "5780",
   "name": "[15]",
   "type": "http://www.lombardinetworks.net/lombardi.owl#Year"},
  {"id": "5779",
   "name": "[14]",
   "type": "http://www.lombardinetworks.net/lombardi.owl#Year"},
  {"id": "16439",
   "name": "emphgess",
   "type": "http://www.lombardinetworks.net/lombardi.owl#Person"},
  {"id": "3589",
   "name": "[13]",
   "type": "http://www.lombardinetworks.net/lombardi.owl#Year"},
  {"id": "3588",
   "name": "[12]",
   "type": "http://www.lombardinetworks.net/lombardi.owl#Year"},
  {"id": "3587",
   "name": "[11]",
   "type": "http://www.lombardinetworks.net/lombardi.owl#Year"},
  {"id": "3585",
   "name": "[10]",
   "type": "http://www.lombardinetworks.net/lombardi.owl#Year"},
  {"id": "16431",
   "name": "UBAF",
   "type": "http://www.lombardinetworks.net/lombardi.owl#Institution"},
  {"id": "16428",
   "name": "Midco",
   "type": "http://www.lombardinetworks.net/lombardi.owl#Institution"},
  {"id": "16425",
   "name": "Barzan",
   "type": "http://www.lombardinetworks.net/lombardi.owl#Person"},
  {"id": "16423",
   "name": "Montana",
   "type": "http://www.lombardinetworks.net/lombardi.owl#Institution"},
  {"id": "16420",
   "name": "Pharaon",
   "type": "http://www.lombardinetworks.net/lombardi.owl#Person"},
  {"id": "16418",
   "name": "Dajani",
   "type": "http://www.lombardinetworks.net/lombardi.owl#Person"},
  {"id": "3584",
   "name": "[9]",
   "type": "http://www.lombardinetworks.net/lombardi.owl#Institution"},
  {"id": "16415",
   "name": "Ag",
   "type": "http://www.lombardinetworks.net/lombardi.owl#Institution"},
  {"id": "16413",
   "name": "Saddam",
   "type": "http://www.lombardinetworks.net/lombardi.owl#Person"},
  {"id": "3234",
   "name": "Govt of Iraq",
   "type": "http://www.lombardinetworks.net/lombardi.owl#Institution"},
  {"id": "3581",
   "name": "[8]",
   "type": "http://www.lombardinetworks.net/lombardi.owl#Person"},
  {"id": "16406",
   "name": "Tezeller",
   "type": "http://www.lombardinetworks.net/lombardi.owl#Person"},
  {"id": "16404",
   "name": "Entrade",
   "type": "http://www.lombardinetworks.net/lombardi.owl#Institution"},
  {"id": "16402",
   "name": "Enka",
   "type": "http://www.lombardinetworks.net/lombardi.owl#Institution"},
  {"id": "16400",
   "name": "Cukarona Bank",
   "type": "http://www.lombardinetworks.net/lombardi.owl#Institution"},
  {"id": "16398",
   "name": "Yugo",
   "type": "http://www.lombardinetworks.net/lombardi.owl#Institution"},
  {"id": "2486",
   "name": "[7]",
   "type": "http://www.lombardinetworks.net/lombardi.owl#Institution"},
  {"id": "16395",
   "name": "LBS NY",
   "type": "http://www.lombardinetworks.net/lombardi.owl#Institution"},
  {"id": "16393",
   "name": "Eagleburger",
   "type": "http://www.lombardinetworks.net/lombardi.owl#Person"},
  {"id": "16391",
   "name": "Scowcroft",
   "type": "http://www.lombardinetworks.net/lombardi.owl#Person"},
  {"id": "16389",
   "name": "Kissinger",
   "type": "http://www.lombardinetworks.net/lombardi.owl#Person"},
  {"id": "16387",
   "name": "HKIA",
   "type": "http://www.lombardinetworks.net/lombardi.owl#Institution"},
  {"id": "16384",
   "name": "Lavoro Bk",
   "type": "http://www.lombardinetworks.net/lombardi.owl#Institution"},
  {"id": "6681",
   "name": "UBS",
   "type": "http://www.lombardinetworks.net/lombardi.owl#Institution"},
  {"id": "1065",
   "name": "BCCI",
   "type": "http://www.lombardinetworks.net/lombardi.owl#Institution"},
  {"id": "16379",
   "name": "BLP",
   "type": "http://www.lombardinetworks.net/lombardi.owl#Institution"},
  {"id": "16377",
   "name": "Alfred Hartmann",
   "type": "http://www.lombardinetworks.net/lombardi.owl#Person"},
  {"id": "16375",
   "name": "Drogoul",
   "type": "http://www.lombardinetworks.net/lombardi.owl#Person"},
  {"id": "16373",
   "name": "P Lombardi",
   "type": "http://www.lombardinetworks.net/lombardi.owl#Person"},
  {"id": "16371",
   "name": "8?",
   "type": "http://www.lombardinetworks.net/lombardi.owl#Institution"},
  {"id": "16369",
   "name": "LS",
   "type": "http://www.lombardinetworks.net/lombardi.owl#Institution"},
  {"id": "16367",
   "name": "FNR",
   "type": "http://www.lombardinetworks.net/lombardi.owl#Institution"},
  {"id": "4375",
   "name": "Paimpex",
   "type": "http://www.lombardinetworks.net/lombardi.owl#Institution"},
  {"id": "2483",
   "name": "[6]",
   "type": "http://www.lombardinetworks.net/lombardi.owl#Institution"},
  {"id": "2481",
   "name": "[5]",
   "type": "http://www.lombardinetworks.net/lombardi.owl#Institution"},
  {"id": "2480",
   "name": "[4]",
   "type": "http://www.lombardinetworks.net/lombardi.owl#Institution"},
  {"id": "2276",
   "name": "[3]",
   "type": "http://www.lombardinetworks.net/lombardi.owl#Year"},
  {"id": "2290",
   "name": "[2]",
   "type": "http://www.lombardinetworks.net/lombardi.owl#Year"},
  {"id": "1051",
   "name": "[1]",
   "type": "http://www.lombardinetworks.net/lombardi.owl#Institution"},
  {"id": "16359",
   "name": "Lamberto Dini",
   "type": "http://www.lombardinetworks.net/lombardi.owl#Person"},
  {"id": "16357",
   "name": "Govt of Italy",
   "type": "http://www.lombardinetworks.net/lombardi.owl#Institution"},
  {"id": "16356",
   "name": "G. Andreotti",
   "type": "http://www.lombardinetworks.net/lombardi.owl#Person"}

   ],
   "links": [
   {"source": "16500",
   "target": "16502",
   "amount": "",
   "type": "http://www.lombardinetworks.net/lombardi.owl#YearLine"},
  {"source": "16497",
   "target": "16500",
   "amount": "",
   "type": "http://www.lombardinetworks.net/lombardi.owl#YearLine"},
  {"source": "16495",
   "target": "16415",
   "amount": "",
   "type": "http://www.lombardinetworks.net/lombardi.owl#Connection"},
  {"source": "16495",
   "target": "16497",
   "amount": "",
   "type": "http://www.lombardinetworks.net/lombardi.owl#YearLine"},
  {"source": "16493",
   "target": "16495",
   "amount": "",
   "type": "http://www.lombardinetworks.net/lombardi.owl#YearLine"},
  {"source": "16491",
   "target": "16493",
   "amount": "",
   "type": "http://www.lombardinetworks.net/lombardi.owl#YearLine"},
  {"source": "16489",
   "target": "16485",
   "amount": "",
   "type": "http://www.lombardinetworks.net/lombardi.owl#Association"},
  {"source": "5401",
   "target": "16485",
   "amount": "",
   "type": "http://www.lombardinetworks.net/lombardi.owl#Association"},
  {"source": "5401",
   "target": "16482",
   "amount": "",
   "type": "http://www.lombardinetworks.net/lombardi.owl#Association"},
  {"source": "16482",
   "target": "16485",
   "amount": "",
   "type": "http://www.lombardinetworks.net/lombardi.owl#Association"},
  {"source": "16480",
   "target": "16482",
   "amount": "",
   "type": "http://www.lombardinetworks.net/lombardi.owl#Association"},
  {"source": "16478",
   "target": "16475",
   "amount": "",
   "type": "http://www.lombardinetworks.net/lombardi.owl#InfluenceControl"},
  {"source": "16475",
   "target": "7327",
   "amount": "",
   "type": "http://www.lombardinetworks.net/lombardi.owl#YearLine"},
  {"source": "16473",
   "target": "16475",
   "amount": "",
   "type": "http://www.lombardinetworks.net/lombardi.owl#YearLine"},
  {"source": "16471",
   "target": "16473",
   "amount": "",
   "type": "http://www.lombardinetworks.net/lombardi.owl#YearLine"},
  {"source": "16469",
   "target": "16471",
   "amount": "",
   "type": "http://www.lombardinetworks.net/lombardi.owl#YearLine"},
  {"source": "16467",
   "target": "16469",
   "amount": "",
   "type": "http://www.lombardinetworks.net/lombardi.owl#YearLine"},
  {"source": "16465",
   "target": "16467",
   "amount": "",
   "type": "http://www.lombardinetworks.net/lombardi.owl#YearLine"},
  {"source": "16463",
   "target": "16480",
   "amount": "",
   "type": "http://www.lombardinetworks.net/lombardi.owl#InfluenceControl"},
  {"source": "16463",
   "target": "16457",
   "amount": "",
   "type": "http://www.lombardinetworks.net/lombardi.owl#InfluenceControl"},
  {"source": "16461",
   "target": "16455",
   "amount": "",
   "type": "http://www.lombardinetworks.net/lombardi.owl#InfluenceControl"},
  {"source": "16459",
   "target": "16453",
   "amount": "",
   "type": "http://www.lombardinetworks.net/lombardi.owl#Connection"},
  {"source": "5781",
   "target": "16457",
   "amount": "",
   "type": "http://www.lombardinetworks.net/lombardi.owl#InfluenceControl"},
  {"source": "5781",
   "target": "16455",
   "amount": "",
   "type": "http://www.lombardinetworks.net/lombardi.owl#InfluenceControl"},
  {"source": "5781",
   "target": "16453",
   "amount": "",
   "type": "http://www.lombardinetworks.net/lombardi.owl#InfluenceControl"},
  {"source": "5781",
   "target": "16448",
   "amount": "",
   "type": "http://www.lombardinetworks.net/lombardi.owl#InfluenceControl"},
  {"source": "16446",
   "target": "16450",
   "amount": "",
   "type": "http://www.lombardinetworks.net/lombardi.owl#FinancialTransaction"},
  {"source": "16446",
   "target": "16448",
   "amount": "",
   "type": "http://www.lombardinetworks.net/lombardi.owl#Connection"},
  {"source": "16446",
   "target": "5779",
   "amount": "",
   "type": "http://www.lombardinetworks.net/lombardi.owl#FinancialTransaction"},
  {"source": "5780",
   "target": "16485",
   "amount": "",
   "type": "http://www.lombardinetworks.net/lombardi.owl#FinancialTransaction"},
  {"source": "5780",
   "target": "16465",
   "amount": "",
   "type": "http://www.lombardinetworks.net/lombardi.owl#YearLine"},
  {"source": "5779",
   "target": "16395",
   "amount": "",
   "type": "http://www.lombardinetworks.net/lombardi.owl#FinancialTransaction"},
  {"source": "5779",
   "target": "5780",
   "amount": "",
   "type": "http://www.lombardinetworks.net/lombardi.owl#YearLine"},
  {"source": "5779",
   "target": "16431",
   "amount": "",
   "type": "http://www.lombardinetworks.net/lombardi.owl#FinancialTransaction"},
  {"source": "3589",
   "target": "5779",
   "amount": "",
   "type": "http://www.lombardinetworks.net/lombardi.owl#YearLine"},
  {"source": "3589",
   "target": "16439",
   "amount": "",
   "type": "http://www.lombardinetworks.net/lombardi.owl#Connection"},
  {"source": "3588",
   "target": "3589",
   "amount": "",
   "type": "http://www.lombardinetworks.net/lombardi.owl#YearLine"},
  {"source": "3588",
   "target": "3584",
   "amount": "",
   "type": "http://www.lombardinetworks.net/lombardi.owl#FinancialTransaction"},
  {"source": "3587",
   "target": "3588",
   "amount": "",
   "type": "http://www.lombardinetworks.net/lombardi.owl#YearLine"},
  {"source": "3587",
   "target": "16404",
   "amount": "",
   "type": "http://www.lombardinetworks.net/lombardi.owl#FinancialTransaction"},
  {"source": "3585",
   "target": "3587",
   "amount": "",
   "type": "http://www.lombardinetworks.net/lombardi.owl#YearLine"},
  {"source": "16431",
   "target": "1065",
   "amount": "",
   "type": "http://www.lombardinetworks.net/lombardi.owl#FinancialTransaction"},
  {"source": "16425",
   "target": "16428",
   "amount": "",
   "type": "http://www.lombardinetworks.net/lombardi.owl#InfluenceControl"},
  {"source": "16425",
   "target": "16423",
   "amount": "",
   "type": "http://www.lombardinetworks.net/lombardi.owl#InfluenceControl"},
  {"source": "16425",
   "target": "16413",
   "amount": "",
   "type": "http://www.lombardinetworks.net/lombardi.owl#Connection"},
  {"source": "16420",
   "target": "16418",
   "amount": "",
   "type": "http://www.lombardinetworks.net/lombardi.owl#InfluenceControl"},
  {"source": "16418",
   "target": "3584",
   "amount": "",
   "type": "http://www.lombardinetworks.net/lombardi.owl#InfluenceControl"},
  {"source": "3584",
   "target": "3581",
   "amount": "",
   "type": "http://www.lombardinetworks.net/lombardi.owl#InfluenceControl"},
  {"source": "16415",
   "target": "3584",
   "amount": "",
   "type": "http://www.lombardinetworks.net/lombardi.owl#Association"},
  {"source": "16415",
   "target": "16404",
   "amount": "",
   "type": "http://www.lombardinetworks.net/lombardi.owl#Association"},
  {"source": "3234",
   "target": "16491",
   "amount": "",
   "type": "http://www.lombardinetworks.net/lombardi.owl#YearLine"},
  {"source": "3234",
   "target": "16413",
   "amount": "",
   "type": "http://www.lombardinetworks.net/lombardi.owl#Connection"},
  {"source": "3581",
   "target": "3234",
   "amount": "",
   "type": "http://www.lombardinetworks.net/lombardi.owl#Association"},
  {"source": "3581",
   "target": "3234",
   "amount": "",
   "type": "http://www.lombardinetworks.net/lombardi.owl#Connection"},
  {"source": "3581",
   "target": "16367",
   "amount": "",
   "type": "http://www.lombardinetworks.net/lombardi.owl#InfluenceControl"},
  {"source": "3581",
   "target": "16404",
   "amount": "",
   "type": "http://www.lombardinetworks.net/lombardi.owl#Association"},
  {"source": "16406",
   "target": "16404",
   "amount": "",
   "type": "http://www.lombardinetworks.net/lombardi.owl#Connection"},
  {"source": "16402",
   "target": "16404",
   "amount": "",
   "type": "http://www.lombardinetworks.net/lombardi.owl#Connection"},
  {"source": "16402",
   "target": "16400",
   "amount": "",
   "type": "http://www.lombardinetworks.net/lombardi.owl#Connection"},
  {"source": "16400",
   "target": "16379",
   "amount": "",
   "type": "http://www.lombardinetworks.net/lombardi.owl#InfluenceControl"},
  {"source": "16398",
   "target": "16395",
   "amount": "",
   "type": "http://www.lombardinetworks.net/lombardi.owl#InfluenceControl"},
  {"source": "16393",
   "target": "16395",
   "amount": "",
   "type": "http://www.lombardinetworks.net/lombardi.owl#InfluenceControl"},
  {"source": "16393",
   "target": "16387",
   "amount": "",
   "type": "http://www.lombardinetworks.net/lombardi.owl#InfluenceControl"},
  {"source": "16391",
   "target": "16387",
   "amount": "",
   "type": "http://www.lombardinetworks.net/lombardi.owl#InfluenceControl"},
  {"source": "16389",
   "target": "16387",
   "amount": "",
   "type": "http://www.lombardinetworks.net/lombardi.owl#InfluenceControl"},
  {"source": "6681",
   "target": "16379",
   "amount": "",
   "type": "http://www.lombardinetworks.net/lombardi.owl#InfluenceControl"},
  {"source": "1065",
   "target": "16439",
   "amount": "",
   "type": "http://www.lombardinetworks.net/lombardi.owl#FinancialTransaction"},
  {"source": "1065",
   "target": "16428",
   "amount": "",
   "type": "http://www.lombardinetworks.net/lombardi.owl#FinancialTransaction"},
  {"source": "1065",
   "target": "16423",
   "amount": "",
   "type": "http://www.lombardinetworks.net/lombardi.owl#FinancialTransaction"},
  {"source": "1065",
   "target": "16379",
   "amount": "",
   "type": "http://www.lombardinetworks.net/lombardi.owl#InfluenceControl"},
  {"source": "16377",
   "target": "16384",
   "amount": "",
   "type": "http://www.lombardinetworks.net/lombardi.owl#InfluenceControl"},
  {"source": "16377",
   "target": "1065",
   "amount": "",
   "type": "http://www.lombardinetworks.net/lombardi.owl#InfluenceControl"},
  {"source": "16377",
   "target": "16379",
   "amount": "",
   "type": "http://www.lombardinetworks.net/lombardi.owl#InfluenceControl"},
  {"source": "16375",
   "target": "16371",
   "amount": "",
   "type": "http://www.lombardinetworks.net/lombardi.owl#InfluenceControl"},
  {"source": "16373",
   "target": "16369",
   "amount": "",
   "type": "http://www.lombardinetworks.net/lombardi.owl#InfluenceControl"},
  {"source": "16371",
   "target": "3585",
   "amount": "",
   "type": "http://www.lombardinetworks.net/lombardi.owl#YearLine"},
  {"source": "16369",
   "target": "16371",
   "amount": "",
   "type": "http://www.lombardinetworks.net/lombardi.owl#InfluenceControl"},
  {"source": "16367",
   "target": "3581",
   "amount": "",
   "type": "http://www.lombardinetworks.net/lombardi.owl#InfluenceControl"},
  {"source": "2483",
   "target": "2486",
   "amount": "",
   "type": "http://www.lombardinetworks.net/lombardi.owl#InfluenceControl"},
  {"source": "2483",
   "target": "16387",
   "amount": "",
   "type": "http://www.lombardinetworks.net/lombardi.owl#Association"},
  {"source": "2481",
   "target": "16384",
   "amount": "",
   "type": "http://www.lombardinetworks.net/lombardi.owl#InfluenceControl"},
  {"source": "2481",
   "target": "16377",
   "amount": "",
   "type": "http://www.lombardinetworks.net/lombardi.owl#Connection"},
  {"source": "2481",
   "target": "2483",
   "amount": "",
   "type": "http://www.lombardinetworks.net/lombardi.owl#YearLine"},
  {"source": "2480",
   "target": "2481",
   "amount": "",
   "type": "http://www.lombardinetworks.net/lombardi.owl#YearLine"},
  {"source": "2276",
   "target": "4375",
   "amount": "",
   "type": "http://www.lombardinetworks.net/lombardi.owl#FinancialTransaction"},
  {"source": "2276",
   "target": "2480",
   "amount": "",
   "type": "http://www.lombardinetworks.net/lombardi.owl#YearLine"},
  {"source": "1051",
   "target": "2276",
   "amount": "",
   "type": "http://www.lombardinetworks.net/lombardi.owl#YearLine"},
  {"source": "1051",
   "target": "16369",
   "amount": "",
   "type": "http://www.lombardinetworks.net/lombardi.owl#InfluenceControl"},
  {"source": "1051",
   "target": "16367",
   "amount": "",
   "type": "http://www.lombardinetworks.net/lombardi.owl#FinancialTransaction"},
  {"source": "1051",
   "target": "2290",
   "amount": "",
   "type": "http://www.lombardinetworks.net/lombardi.owl#InfluenceControl"},
  {"source": "16359",
   "target": "16357",
   "amount": "",
   "type": "http://www.lombardinetworks.net/lombardi.owl#InfluenceControl"},
  {"source": "16357",
   "target": "1051",
   "amount": "",
   "type": "http://www.lombardinetworks.net/lombardi.owl#InfluenceControl"},
  {"source": "16356",
   "target": "16357",
   "amount": "",
   "type": "http://www.lombardinetworks.net/lombardi.owl#InfluenceControl"}
 ]
}