[
  {
    "title": "Arochem, Bayoil and Bay Industries: Stamford, London, Baghdad c. 1988-91",
    "id": 1027
  },
  {
    "title": "Astra - Bmarc - Unwin London c. 1983-90 'dealers in military pyrotechnics'",
    "id": 1000
  },
  {
    "title": "BNL #1",
    "id": 1050
  },
  {
    "title": "Butchers, ESM",
    "id": 1044
  },
  {
    "title": "Buena Vista - Univest",
    "id": 1039
  },
  {
    "title": "Banco Nazionale del Lavoro, Reagan, Bush, Thatcher, and the Arming of Iraq, c. 1979-1990 (4th version)",
    "id": 1023
  },
  {
    "title": "Bruce Campbell, Esq., Cayman Islands c.1966-78 (3rd version)",
    "id": 1001
  },
  {
    "title": "Carlos Cardoen 'military pyrotechnics' Santiago, Chile c. 1982-92",
    "id": 1034
  },
  {
    "title": "Casalee Group S.A. Rhodesia - Luxembourg - Belgie c. 1976-90",
    "id": 1003
  },
  {
    "title": "Cabazon Arms of Indio, California c.1978-88",
    "id": 1002
  },
  {
    "title": "Earl W. Brian Complex",
    "id": 1035
  },
  {
    "title": "EATSCO (Egyptian American Transport & Service Co.) Falls Church, Va. c. 1979-82",
    "id": 1033
  },
  {
    "title": "Freeport",
    "id": 1048
  },
  {
    "title": "First National Bank Maryland and Associate Traders, c. 1982-86",
    "id": 1040
  },
  {
    "title": "Flushing Fed",
    "id": 1032
  },
  {
    "title": "First United, CB Fin",
    "id": 1026
  },
  {
    "title": "Gerry Bull, Space Research Corporation and Armscor of Pretoria, South Africa, c. 1972-80 (5th Version)",
    "id": 1025
  },
  {
    "title": "Global International Airways and Indian Springs State Bank, Kansas City c.1977-83 (4th version)",
    "id": 1008
  },
  {
    "title": "Global Int'l Airways and Indian Springs State Bank, Kansas City c.1977-83 (3rd version)",
    "id": 1007
  },
  {
    "title": "Gerry Bull, Space Research and Armsor of Pretoria, South Africa c.1972-80 (4th version)",
    "id": 1006
  },
  {
    "title": "George W. Bush, Harken Energy, Jackson Stephens. c. 1979-1990. 5th Version",
    "id": 1005
  },
  {
    "title": "George W. Bush, Harken Energy, Jackson Stephens. c. 1979-1990. 4th Version",
    "id": 1004
  },
  {
    "title": "Hernandez Cartaya",
    "id": 1021
  },
  {
    "title": "Hans Kopp, Trans K-B and Shakarchi Trading AG of Zurich c.1981-1989 (3rd version)",
    "id": 1009
  },
  {
    "title": "IOS to mid 1970",
    "id": 1029
  },
  {
    "title": "Industries Carlos Cardoen of Santiago, Chile c. 1982-90 (2nd Version)",
    "id": 1018
  },
  {
    "title": "Joe Russo & associates",
    "id": 1010
  },
  {
    "title": "Kentucky-ACC-Goldsmith",
    "id": 1045
  },
  {
    "title": "Keeny Meeny Services, Saladin Holdings and their Security Systems, London c.1970-90",
    "id": 1011
  },
  {
    "title": "Lockheed",
    "id": 1043
  },
  {
    "title": "Lansky Banks",
    "id": 1038
  },
  {
    "title": "Lippo Group",
    "id": 1036
  },
  {
    "title": "Lincoln, Silverado (II)",
    "id": 1030
  },
  {
    "title": "Lincoln, Silverado (I)",
    "id": 1020
  },
  {
    "title": "Luchaire, Allivane and the Euro-Explosives Cartel c. 1980-9",
    "id": 1012
  },
  {
    "title": "Mary Carter Resorts Study Reverse",
    "id": 1042
  },
  {
    "title": "Mary Carter Resorts Study Front",
    "id": 1041
  },
  {
    "title": "Middle East Broadcasting Centre (London), c. 1990-2000",
    "id": 1037
  },
  {
    "title": "Nugan Hand Bank Sydney, Australia c. 1974-80, 1995",
    "id": 1013
  },
  {
    "title": "Paul Helliwell Castle B&T Mercantile (2nd Version)",
    "id": 1049
  },
  {
    "title": "Peregrine International Associates of Dallas c. 1979-90",
    "id": 1028
  },
  {
    "title": "Phil Schwab, CB Financial and Eureka Federal Savings c. 1981-6",
    "id": 1019
  },
  {
    "title": "Ron Rewald and Bishop, Baldwin et. al of Honolulu, c. 1978-83",
    "id": 1014
  },
  {
    "title": "San Marino-FCA-American S&L-Bass Group",
    "id": 1031
  },
  {
    "title": "Trafalgar House Cementation - Armscor and the Malaysia Dam Project c. 1980-95 London - Johannesburg - Kuala Lumpur",
    "id": 1017
  },
  {
    "title": "Untitled (TCSPF Aladdin Stardust)",
    "id": 1046
  },
  {
    "title": "Untitled (UPI Saga: Pat Robertson/Beurt Servaas/Middle East Broadcast)",
    "id": 1016
  },
  {
    "title": "Untitled (all parties - BCCI, Nugan Hand, et al.) 1977",
    "id": 1015
  },
  {
    "title": "Vatican Bank and Rizzoli",
    "id": 1047
  },
  {
    "title": "World Finance Corporation of Miami, Florida c. 1970-79 (6th Version)",
    "id": 1024
  },
  {
    "title": "World Finance Corporation, Miami c. 1970-79 (4th Version)",
    "id": 1022
  }
]